gadmId,gadmName,iso31662Code,name,synonyms,subClassOf
GADM-AND,Andorra,AD,,,region-southern-europe
GADM-ARE,United Arab Emirates,AE,,,region-western-asia
GADM-AFG,Afghanistan,AF,,,region-southern-asia
GADM-ATG,Antigua and Barbuda,AG,,,region-caribbean
GADM-AIA,Anguilla,AI,,,region-caribbean
GADM-ALB,Albania,AL,,,region-southern-europe
GADM-ARM,Armenia,AM,,,region-western-asia
GADM-AGO,Angola,AO,,,region-middle-africa
GADM-ATA,Antarctica,AQ,,,region-world
GADM-ARG,Argentina,AR,,,region-south-america
GADM-ASM,American Samoa,AS,,,region-oceania
GADM-AUT,Austria,AT,,,region-western-europe
GADM-AUS,Australia,AU,,,region-aus-nzl
GADM-ABW,Aruba,AW,,,region-caribbean
GADM-ALA,Aland,AX,Åland,,region-northern-europe
GADM-AZE,Azerbaijan,AZ,,,region-western-asia
GADM-BIH,Bosnia and Herzegovina,BA,,,region-southern-europe
GADM-BRB,Barbados,BB,,,region-caribbean
GADM-BGD,Bangladesh,BD,,,region-southern-asia
GADM-BEL,Belgium,BE,,,region-western-europe
GADM-BFA,Burkina Faso,BF,,,region-western-africa
GADM-BGR,Bulgaria,BG,,,region-eastern-europe
GADM-BHR,Bahrain,BH,,,region-western-asia
GADM-BDI,Burundi,BI,,,region-eastern-africa
GADM-BEN,Benin,BJ,,,region-western-africa
GADM-BLM,Saint-Barthelemy,BL,Saint-Barthélemy,,region-caribbean
GADM-BMU,Bermuda,BM,,,region-northern-america
GADM-BRN,Brunei,BN,,,region-south-eastern-asia
GADM-BOL,Bolivia,BO,,,region-south-america
GADM-BES,"Bonaire, Sint Eustatius and Saba",BQ,,,region-caribbean
GADM-BRA,Brazil,BR,,,region-south-america
GADM-BHS,Bahamas,BS,,,region-caribbean
GADM-BTN,Bhutan,BT,,,region-southern-asia
GADM-BVT,Bouvet Island,BV,,,region-world
GADM-BWA,Botswana,BW,,,region-southern-africa
GADM-BLR,Belarus,BY,,,region-eastern-europe
GADM-BLZ,Belize,BZ,,,region-central-america
GADM-CAN,Canada,CA,,,region-northern-america
GADM-CCK,Cocos Islands,CC,,,region-south-eastern-asia
GADM-COD,Democratic Republic of the Congo,CD,,,region-middle-africa
GADM-CAF,Central African Republic,CF,,,region-middle-africa
GADM-COG,Republic of Congo,CG,,,region-middle-africa
GADM-CHE,Switzerland,CH,,,region-western-europe
GADM-CIV,Cote d'Ivoire,CI,Côte d'Ivoire,Ivory Coast,region-western-africa
GADM-COK,Cook Islands,CK,,,region-oceania
GADM-CHL,Chile,CL,,,region-south-america
GADM-CMR,Cameroon,CM,,,region-middle-africa
GADM-CHN,China,CN,,,region-eastern-asia
GADM-COL,Colombia,CO,,,region-south-america
GADM-XCL,Clipperton Island,CP,,,region-central-america
GADM-CRI,Costa Rica,CR,,,region-central-america
GADM-CUB,Cuba,CU,,,region-caribbean
GADM-CPV,Cape Verde,CV,,,region-western-africa
GADM-CUW,Curacao,CW,Curaçao,,region-caribbean
GADM-CXR,Christmas Island,CX,,,region-south-eastern-asia
GADM-CYP,Cyprus,CY,,,region-western-asia
GADM-CZE,Czech Republic,CZ,,,region-eastern-europe
GADM-DEU,Germany,DE,,,region-western-europe
GADM-DJI,Djibouti,DJ,,,region-eastern-africa
GADM-DNK,Denmark,DK,,,region-northern-europe
GADM-DMA,Dominica,DM,,,region-caribbean
GADM-DOM,Dominican Republic,DO,,,region-caribbean
GADM-DZA,Algeria,DZ,,,region-northern-africa
GADM-ECU,Ecuador,EC,,,region-south-america
GADM-EST,Estonia,EE,,,region-northern-europe
GADM-EGY,Egypt,EG,,,region-northern-africa
GADM-ESH,Western Sahara,EH,,,region-northern-africa
GADM-ERI,Eritrea,ER,,,region-eastern-africa
GADM-ESP,Spain,ES,,,region-southern-europe
GADM-ETH,Ethiopia,ET,,,region-eastern-africa
GADM-FIN,Finland,FI,,,region-northern-europe
GADM-FJI,Fiji,FJ,,,region-oceania
GADM-FLK,Falkland Islands,FK,,,region-south-america
GADM-FSM,Micronesia,FM,,,region-oceania
GADM-FRO,Faroe Islands,FO,,,region-northern-europe
GADM-FRA,France,FR,,,region-western-europe
GADM-GAB,Gabon,GA,,,region-middle-africa
GADM-GBR,United Kingdom,GB,,UK,region-northern-europe
GADM-GRD,Grenada,GD,,,region-caribbean
GADM-GEO,Georgia,GE,,,region-western-asia
GADM-GUF,French Guiana,GF,,,region-south-america
GADM-GGY,Guernsey,GG,,,region-western-europe
GADM-GHA,Ghana,GH,,,region-western-africa
GADM-GIB,Gibraltar,GI,,,region-southern-europe
GADM-GRL,Greenland,GL,,,region-northern-america
GADM-GMB,Gambia,GM,,,region-western-africa
GADM-GIN,Guinea,GN,,,region-western-africa
GADM-GLP,Guadeloupe,GP,,,region-caribbean
GADM-GNQ,Equatorial Guinea,GQ,,,region-middle-africa
GADM-GRC,Greece,GR,,,region-southern-europe
GADM-SGS,South Georgia and the South Sandwich Islands,GS,,,region-south-america
GADM-GTM,Guatemala,GT,,,region-central-america
GADM-GUM,Guam,GU,,,region-oceania
GADM-GNB,Guinea-Bissau,GW,,,region-western-africa
GADM-GUY,Guyana,GY,,,region-south-america
GADM-HKG,Hong Kong,HK,,,region-eastern-asia
GADM-HMD,Heard Island and McDonald Islands,HM,,,region-world
GADM-HND,Honduras,HN,,,region-central-america
GADM-HRV,Croatia,HR,,,region-southern-europe
GADM-HTI,Haiti,HT,,,region-caribbean
GADM-HUN,Hungary,HU,,,region-eastern-europe
GADM-IDN,Indonesia,ID,,,region-south-eastern-asia
GADM-IRL,Ireland,IE,,,region-northern-europe
GADM-ISR,Israel,IL,,,region-western-asia
GADM-IMN,Isle of Man,IM,,,region-northern-europe
GADM-IND,India,IN,,,region-southern-asia
GADM-IOT,British Indian Ocean Territory,IO,,,region-southern-asia
GADM-IRQ,Iraq,IQ,,,region-western-asia
GADM-IRN,Iran,IR,,,region-southern-asia
GADM-ISL,Iceland,IS,,,region-northern-europe
GADM-ITA,Italy,IT,,,region-southern-europe
GADM-JEY,Jersey,JE,,,region-western-europe
GADM-JAM,Jamaica,JM,,,region-caribbean
GADM-JOR,Jordan,JO,,,region-western-asia
GADM-JPN,Japan,JP,,,region-eastern-asia
GADM-KEN,Kenya,KE,,,region-eastern-africa
GADM-KGZ,Kyrgyzstan,KG,,,region-central-asia
GADM-KHM,Cambodia,KH,,,region-south-eastern-asia
GADM-KIR,Kiribati,KI,,,region-oceania
GADM-COM,Comoros,KM,,,region-eastern-africa
GADM-KNA,Saint Kitts and Nevis,KN,,,region-caribbean
GADM-PRK,North Korea,KP,,,region-eastern-asia
GADM-KOR,South Korea,KR,,,region-eastern-asia
GADM-KWT,Kuwait,KW,,,region-western-asia
GADM-CYM,Cayman Islands,KY,,,region-caribbean
GADM-KAZ,Kazakhstan,KZ,,,region-central-asia
GADM-LAO,Laos,LA,,,region-south-eastern-asia
GADM-LBN,Lebanon,LB,,,region-western-asia
GADM-LCA,Saint Lucia,LC,,,region-caribbean
GADM-LIE,Liechtenstein,LI,,,region-western-europe
GADM-LKA,Sri Lanka,LK,,,region-southern-asia
GADM-LBR,Liberia,LR,,,region-western-africa
GADM-LSO,Lesotho,LS,,,region-southern-africa
GADM-LTU,Lithuania,LT,,,region-northern-europe
GADM-LUX,Luxembourg,LU,,,region-western-europe
GADM-LVA,Latvia,LV,,,region-northern-europe
GADM-LBY,Libya,LY,,,region-northern-africa
GADM-MAR,Morocco,MA,,,region-northern-africa
GADM-MCO,Monaco,MC,,,region-western-europe
GADM-MDA,Moldova,MD,,,region-eastern-europe
GADM-MNE,Montenegro,ME,,,region-southern-europe
GADM-MAF,Saint-Martin,MF,Saint Martin,,region-caribbean
GADM-MDG,Madagascar,MG,,,region-eastern-africa
GADM-MHL,Marshall Islands,MH,,,region-oceania
GADM-MKD,Macedonia,MK,,,region-southern-europe
GADM-MLI,Mali,ML,,,region-western-africa
GADM-MMR,Myanmar,MM,Myanmar,Burma,region-south-eastern-asia
GADM-MNG,Mongolia,MN,,,region-eastern-asia
GADM-MAC,Macao,MO,,,region-eastern-asia
GADM-MNP,Northern Mariana Islands,MP,,,region-oceania
GADM-MTQ,Martinique,MQ,,,region-caribbean
GADM-MRT,Mauritania,MR,,,region-western-africa
GADM-MSR,Montserrat,MS,,,region-caribbean
GADM-MLT,Malta,MT,,,region-southern-europe
GADM-MUS,Mauritius,MU,,,region-eastern-africa
GADM-MDV,Maldives,MV,,,region-southern-asia
GADM-MWI,Malawi,MW,,,region-eastern-africa
GADM-MEX,Mexico,MX,,,region-central-america
GADM-MYS,Malaysia,MY,,,region-south-eastern-asia
GADM-MOZ,Mozambique,MZ,,,region-eastern-africa
GADM-NAM,Namibia,,,,region-southern-africa
GADM-NCL,New Caledonia,NC,,,region-oceania
GADM-NER,Niger,NE,,,region-western-africa
GADM-NFK,Norfolk Island,NF,,,region-aus-nzl
GADM-NGA,Nigeria,NG,,,region-western-africa
GADM-NIC,Nicaragua,NI,,,region-central-america
GADM-NLD,Netherlands,NL,,,region-western-europe
GADM-NOR,Norway,NO,,,region-northern-europe
GADM-NPL,Nepal,NP,,,region-southern-asia
GADM-NRU,Nauru,NR,,,region-oceania
GADM-NIU,Niue,NU,,,region-oceania
GADM-NZL,New Zealand,NZ,,,region-aus-nzl
GADM-OMN,Oman,OM,,,region-western-asia
GADM-PAN,Panama,PA,,,region-central-america
GADM-PER,Peru,PE,,,region-south-america
GADM-PYF,French Polynesia,PF,,,region-oceania
GADM-PNG,Papua New Guinea,PG,,,region-oceania
GADM-PHL,Philippines,PH,,,region-south-eastern-asia
GADM-PAK,Pakistan,PK,,,region-southern-asia
GADM-POL,Poland,PL,,,region-eastern-europe
GADM-SPM,Saint Pierre and Miquelon,PM,,,region-northern-america
GADM-PCN,Pitcairn Islands,PN,,,region-oceania
GADM-PRI,Puerto Rico,PR,,,region-caribbean
GADM-PSE,Palestina,PS,,,region-western-asia
GADM-PRT,Portugal,PT,,,region-southern-europe
GADM-PLW,Palau,PW,,,region-oceania
GADM-PRY,Paraguay,PY,,,region-south-america
GADM-QAT,Qatar,QA,,,region-western-asia
GADM-REU,Reunion,RE,Réunion,,region-eastern-africa
GADM-ROU,Romania,RO,,,region-eastern-europe
GADM-XKO,Kosovo,RS,,,region-southern-europe
GADM-RUS,Russia,RU,,,region-eastern-europe
GADM-RWA,Rwanda,RW,,,region-eastern-africa
GADM-SAU,Saudi Arabia,SA,,,region-western-asia
GADM-SLB,Solomon Islands,SB,,,region-oceania
GADM-SYC,Seychelles,SC,,,region-eastern-africa
GADM-SDN,Sudan,SD,,,region-northern-africa
GADM-SWE,Sweden,SE,,,region-northern-europe
GADM-SGP,Singapore,SG,,,region-south-eastern-asia
GADM-SHN,Saint Helena,SH,,,region-western-africa
GADM-SVN,Slovenia,SI,,,region-southern-europe
GADM-SJM,Svalbard and Jan Mayen,SJ,,,region-northern-europe
GADM-SVK,Slovakia,SK,,,region-eastern-europe
GADM-SLE,Sierra Leone,SL,,,region-western-africa
GADM-SMR,San Marino,SM,,,region-southern-europe
GADM-SEN,Senegal,SN,,,region-western-africa
GADM-SOM,Somalia,SO,,,region-eastern-africa
GADM-SUR,Suriname,SR,,,region-south-america
GADM-SSD,South Sudan,SS,,,region-eastern-africa
GADM-STP,Sao Tome and Principe,ST,,,region-middle-africa
GADM-SLV,El Salvador,SV,,,region-central-america
GADM-SXM,Sint Maarten,SX,,,region-caribbean
GADM-SYR,Syria,SY,,,region-western-asia
GADM-SWZ,Swaziland,SZ,,Eswatini,region-southern-africa
GADM-TCA,Turks and Caicos Islands,TC,,,region-caribbean
GADM-TCD,Chad,TD,,,region-middle-africa
GADM-ATF,French Southern Territories,TF,,,region-world
GADM-TGO,Togo,TG,,,region-western-africa
GADM-THA,Thailand,TH,,,region-south-eastern-asia
GADM-TJK,Tajikistan,TJ,,,region-central-asia
GADM-TKL,Tokelau,TK,,,region-oceania
GADM-TLS,Timor-Leste,TL,,,region-south-eastern-asia
GADM-TKM,Turkmenistan,TM,,,region-central-asia
GADM-TUN,Tunisia,TN,,,region-northern-africa
GADM-TON,Tonga,TO,,,region-oceania
GADM-TUR,Turkey,TR,Turkey (Country),,region-western-asia
GADM-TTO,Trinidad and Tobago,TT,,,region-caribbean
GADM-TUV,Tuvalu,TV,,,region-oceania
GADM-TWN,Taiwan,TW,,,region-eastern-asia
GADM-TZA,Tanzania,TZ,,,region-eastern-africa
GADM-UKR,Ukraine,UA,,,region-eastern-europe
GADM-UGA,Uganda,UG,,,region-eastern-africa
GADM-UMI,United States Minor Outlying Islands,UM,,,region-eastern-asia
GADM-USA,United States,US,,USA,region-northern-america
GADM-URY,Uruguay,UY,,,region-south-america
GADM-UZB,Uzbekistan,UZ,,,region-central-asia
GADM-VAT,Vatican City,VA,,,region-southern-europe
GADM-VCT,Saint Vincent and the Grenadines,VC,,,region-caribbean
GADM-VEN,Venezuela,VE,,,region-south-america
GADM-VGB,British Virgin Islands,VG,,,region-caribbean
GADM-VIR,"Virgin Islands, U.S.",VI,,,region-caribbean
GADM-VNM,Vietnam,VN,Viet Nam,,region-south-eastern-asia
GADM-VUT,Vanuatu,VU,,,region-oceania
GADM-WLF,Wallis and Futuna,WF,,,region-oceania
GADM-WSM,Samoa,WS,,,region-oceania
GADM-YEM,Yemen,YE,,,region-western-asia
GADM-MYT,Mayotte,YT,,,region-eastern-africa
GADM-ZAF,South Africa,ZA,,,region-southern-africa
GADM-ZMB,Zambia,ZM,,,region-eastern-africa
GADM-ZWE,Zimbabwe,ZW,,,region-eastern-africa
GADM-ESP.1_1,Andalucia,,"Andalucia (Autonomous Community), Spain",Andalousie;Andaluc¡a;Andalusien;Andaluzia;Andalusia,
GADM-AND.1_1,Andorra la Vella,AD-07,,,
GADM-AND.2_1,Canillo,AD-02,,,
GADM-AND.3_1,Encamp,AD-03,,,
GADM-AND.4_1,Escaldes-Engordany,AD-08,,,
GADM-AND.5_1,La Massana,AD-04,,,
GADM-AND.6_1,Ordino,AD-05,,,
GADM-AFG.1_1,Badakhshan,AF-BDS,,,
GADM-AFG.3_1,Baghlan,AF-BGL,,,
GADM-AFG.4_1,Balkh,AF-BAL,,,
GADM-AFG.5_1,Bamyan,AF-BAM,,,
GADM-AFG.6_1,Daykundi,AF-DAY,,,
GADM-AFG.7_1,Farah,AF-FRA,,,
GADM-AFG.8_1,Faryab,AF-FYB,,,
GADM-AFG.9_1,Ghazni,AF-GHA,,,
GADM-AFG.10_1,Ghor,AF-GHO,,,
GADM-AFG.14_1,Kabul,AF-KAB,,,
GADM-AFG.15_1,Kandahar,AF-KAN,,,
GADM-AFG.17_1,Khost,AF-KHO,,,
GADM-AFG.19_1,Kunduz,AF-KDZ,,,
GADM-AFG.20_1,Laghman,AF-LAG,,,
GADM-AFG.21_1,Logar,AF-LOG,,,
GADM-AFG.22_1,Nangarhar,AF-NAN,,,
GADM-AFG.23_1,Nimroz,AF-NIM,,,
GADM-AFG.28_1,Parwan,AF-PAR,,,
GADM-AFG.31_1,Takhar,AF-TAK,,,
GADM-AFG.32_1,Uruzgan,AF-URU,,,
GADM-ATG.2_1,Redonda,AG-11,,,
GADM-ATG.3_1,Saint George,AG-03,,,
GADM-ATG.4_1,Saint John,AG-04,,,
GADM-ATG.5_1,Saint Mary,AG-05,,,
GADM-ATG.6_1,Saint Paul,AG-06,,,
GADM-ATG.7_1,Saint Peter,AG-07,,,
GADM-ATG.8_1,Saint Philip,AG-08,,,
GADM-ALB.1_1,Berat,AL-01,,,
GADM-ALB.4_1,Elbasan,AL-03,,,
GADM-ALB.5_1,Fier,AL-04,,,
GADM-ARE.2.1_1,Ajman,,"Ajman (District), Ajman (Emirate), United Arab Emirates",,
GADM-ARM.2_1,Ararat,AM-AR,,,
GADM-ARM.3_1,Armavir,AM-AV,,,
GADM-ARM.4_1,Erevan,AM-ER,,,
GADM-ARM.7_1,Lori,AM-LO,,,
GADM-ARM.9_1,Syunik,AM-SU,,,
GADM-AGO.1_1,Bengo,AO-BGO,,,
GADM-AGO.2_1,Benguela,AO-BGU,,,
GADM-AGO.4_1,Cabinda,AO-CAB,,,
GADM-AGO.8_1,Cunene,AO-CNN,,,
GADM-AGO.9_1,Huambo,AO-HUA,,,
GADM-AGO.11_1,Luanda,AO-LUA,,,
GADM-AGO.12_1,Lunda Norte,AO-LNO,,,
GADM-AGO.13_1,Lunda Sul,AO-LSU,,,
GADM-AGO.14_1,Malanje,AO-MAL,,,
GADM-AGO.15_1,Moxico,AO-MOX,,,
GADM-AGO.16_1,Namibe,AO-NAM,,,
GADM-AGO.18_1,Zaire,AO-ZAI,,,
GADM-ARG.1_1,Buenos Aires,AR-B,,,
GADM-ARG.2_1,Catamarca,AR-K,,,
GADM-ARG.3_1,Chaco,AR-H,,,
GADM-ARG.4_1,Chubut,AR-U,,,
GADM-ARG.7_1,Corrientes,AR-W,,,
GADM-ARG.9_1,Formosa,AR-P,,,
GADM-ARG.10_1,Jujuy,AR-Y,,,
GADM-ARG.11_1,La Pampa,AR-L,,,
GADM-ARG.12_1,La Rioja,AR-F,,,
GADM-ARG.13_1,Mendoza,AR-M,,,
GADM-ARG.14_1,Misiones,AR-N,,,
GADM-ARG.17_1,Salta,AR-A,,,
GADM-ARG.18_1,San Juan,AR-J,,,
GADM-ARG.19_1,San Luis,AR-D,,,
GADM-ARG.20_1,Santa Cruz,AR-Z,,,
GADM-ARG.21_1,Santa Fe,AR-S,,,
GADM-ARG.22_1,Santiago del Estero,AR-G,,,
GADM-ARG.23_1,Tierra del Fuego,AR-V,,,
GADM-AUT.1_1,Burgenland,AT-1,,,
GADM-AUT.5_1,Salzburg,AT-5,,,
GADM-AUT.6_1,Steiermark,AT-6,,,
GADM-AUT.7_1,Tirol,AT-7,,,
GADM-AUT.8_1,Vorarlberg,AT-8,,,
GADM-AUT.9_1,Wien,AT-9,,,
GADM-AUS.2_1,Australian Capital Territory,AU-ACT,,,
GADM-AUS.5_1,New South Wales,AU-NSW,,,
GADM-AUS.6_1,Northern Territory,AU-NT,,,
GADM-AUS.7_1,Queensland,AU-QLD,,,
GADM-AUS.8_1,South Australia,AU-SA,,,
GADM-AUS.9_1,Tasmania,AU-TAS,,,
GADM-AUS.10_1,Victoria,AU-VIC,,,
GADM-AUS.11_1,Western Australia,AU-WA,,,
GADM-ALA.2_1,Eckerö,,,,
GADM-ALA.3_1,Finström,,,,
GADM-ALA.6_1,Hammarland,,,,
GADM-ALA.7_1,Jomala,,,,
GADM-ALA.12_1,Mariehamn,,,,
GADM-ALA.13_1,Saltvik,,,,
GADM-ALA.15_1,Sund,,,,
GADM-AZE.6_1,Lankaran,AZ-LA,,,
GADM-BRB.1_1,Christ Church,BB-01,,,
GADM-BRB.2_1,Saint Andrew,BB-02,,,
GADM-BRB.3_1,Saint George,BB-03,,,
GADM-BRB.4_1,Saint James,BB-04,,,
GADM-BRB.5_1,Saint John,BB-05,,,
GADM-BRB.6_1,Saint Joseph,BB-06,,,
GADM-BRB.7_1,Saint Lucy,BB-07,,,
GADM-BRB.8_1,Saint Michael,BB-08,,,
GADM-BRB.9_1,Saint Peter,BB-09,,,
GADM-BRB.10_1,Saint Philip,BB-10,,,
GADM-BRB.11_1,Saint Thomas,BB-11,,,
GADM-BGD.1_1,Barisal,BD-A,,,
GADM-BGD.2_1,Chittagong,BD-B,,,
GADM-BGD.3_1,Dhaka,BD-C,,,
GADM-BGD.4_1,Khulna,BD-D,,,
GADM-BGD.5_1,Rajshahi,BD-E,,,
GADM-BGD.6_1,Rangpur,BD-F,,,
GADM-BGD.7_1,Sylhet,BD-G,,,
GADM-BGR.1_1,Blagoevgrad,BG-01,,,
GADM-BGR.2_1,Burgas,BG-02,,,
GADM-BGR.3_1,Dobrich,BG-08,,,
GADM-BGR.4_1,Gabrovo,BG-07,,,
GADM-BGR.6_1,Haskovo,BG-26,,,
GADM-BGR.7_1,Kardzhali,BG-09,,,
GADM-BGR.8_1,Kyustendil,BG-10,,,
GADM-BGR.9_1,Lovech,BG-11,,,
GADM-BGR.10_1,Montana,BG-12,,,
GADM-BGR.11_1,Pazardzhik,BG-13,,,
GADM-BGR.12_1,Pernik,BG-14,,,
GADM-BGR.13_1,Pleven,BG-15,,,
GADM-BGR.14_1,Plovdiv,BG-16,,,
GADM-BGR.15_1,Razgrad,BG-17,,,
GADM-BGR.16_1,Ruse,BG-18,,,
GADM-BGR.17_1,Shumen,BG-27,,,
GADM-BGR.18_1,Silistra,BG-19,,,
GADM-BGR.19_1,Sliven,BG-20,,,
GADM-BGR.20_1,Smolyan,BG-21,,,
GADM-BGR.21_1,Sofia,BG-23,,,
GADM-BGR.22_1,Stara Zagora,BG-24,,,
GADM-BGR.23_1,Targovishte,BG-25,,,
GADM-BGR.24_1,Varna,BG-03,,,
GADM-BGR.25_1,Veliko Tarnovo,BG-04,,,
GADM-BGR.26_1,Vidin,BG-05,,,
GADM-BGR.27_1,Vratsa,BG-06,,,
GADM-BGR.28_1,Yambol,BG-28,,,
GADM-BDI.1_1,Bubanza,BI-BB,,,
GADM-BDI.2_1,Bujumbura Mairie,BI-BM,,,
GADM-BDI.4_1,Bururi,BI-BR,,,
GADM-BDI.6_1,Cibitoke,BI-CI,,,
GADM-BDI.7_1,Gitega,BI-GI,,,
GADM-BDI.10_1,Kirundo,BI-KI,,,
GADM-BDI.12_1,Muramvya,BI-MU,,,
GADM-BDI.14_1,Mwaro,BI-MW,,,
GADM-BDI.15_1,Ngozi,BI-NG,,,
GADM-BDI.16_1,Rutana,BI-RT,,,
GADM-BDI.17_1,Ruyigi,BI-RY,,,
GADM-BEN.1_1,Alibori,BJ-AL,,,
GADM-BEN.3_1,Atlantique,BJ-AQ,,,
GADM-BEN.4_1,Borgou,BJ-BO,,,
GADM-BEN.6_1,Donga,BJ-DO,,,
GADM-BEN.8_1,Littoral,BJ-LI,,,
GADM-BEN.9_1,Mono,BJ-MO,,,
GADM-BEN.11_1,Plateau,BJ-PL,,,
GADM-BEN.12_1,Zou,BJ-ZO,,,
GADM-BMU.2_1,Hamilton,,,,
GADM-BRN.1_1,Belait,BN-BE,,,
GADM-BRN.3_1,Temburong,BN-TE,,,
GADM-BRN.4_1,Tutong,BN-TU,,,
GADM-BOL.1_1,Chuquisaca,BO-H,,,
GADM-BOL.2_1,Cochabamba,BO-C,,,
GADM-BOL.3_1,El Beni,BO-B,,,
GADM-BOL.4_1,La Paz,BO-L,,,
GADM-BOL.5_1,Oruro,BO-O,,,
GADM-BOL.6_1,Pando,BO-N,,,
GADM-BOL.8_1,Santa Cruz,BO-S,,,
GADM-BOL.9_1,Tarija,BO-T,,,
GADM-BES.1_1,Bonaire,BQ-BO,,,
GADM-BES.2_1,Saba,BQ-SA,,,
GADM-BES.3_1,Sint Eustatius,BQ-SE,,,
GADM-BRA.1_1,Acre,BR-AC,,,
GADM-BRA.2_1,Alagoas,BR-AL,,,
GADM-BRA.4_1,Amazonas,BR-AM,,,
GADM-BRA.5_1,Bahia,BR-BA,,,
GADM-BRA.7_1,Distrito Federal,BR-DF,,,
GADM-BRA.12_1,Mato Grosso,BR-MT,,,
GADM-BRA.11_1,Mato Grosso do Sul,BR-MS,,,
GADM-BRA.13_1,Minas Gerais,BR-MG,,,
GADM-BRA.17_1,Pernambuco,BR-PE,,,
GADM-BRA.20_1,Rio Grande do Norte,BR-RN,,,
GADM-BRA.21_1,Rio Grande do Sul,BR-RS,,,
GADM-BRA.19_1,Rio de Janeiro,BR-RJ,,,
GADM-BRA.23_1,Roraima,BR-RR,,,
GADM-BRA.24_1,Santa Catarina,BR-SC,,,
GADM-BRA.26_1,Sergipe,BR-SE,,,
GADM-BRA.27_1,Tocantins,BR-TO,,,
GADM-BHS.7_1,Central Andros,BS-CS,,,
GADM-BHS.9_1,City of Freeport,BS-FP,,,
GADM-BHS.14_1,Harbour Island,BS-HI,,,
GADM-BHS.15_1,Hope Town,BS-HT,,,
GADM-BHS.17_1,Long Island,BS-LI,,,
GADM-BHS.21_1,New Providence,BS-NP,,,
GADM-BHS.30_1,South Eleuthera,BS-SE,,,
GADM-BTN.1_1,Bumthang,BT-33,,,
GADM-BTN.2_1,Chhukha,BT-12,,,
GADM-BTN.4_1,Gasa,BT-GA,,,
GADM-BTN.5_1,Haa,BT-13,,,
GADM-BTN.6_1,Lhuentse,BT-44,,,
GADM-BTN.7_1,Monggar,BT-42,,,
GADM-BTN.8_1,Paro,BT-11,,,
GADM-BTN.9_1,Pemagatshel,BT-43,,,
GADM-BTN.10_1,Punakha,BT-23,,,
GADM-BTN.11_1,Samdrupjongkhar,BT-45,,,
GADM-BTN.12_1,Samtse,BT-14,,,
GADM-BTN.14_1,Thimphu,BT-15,,,
GADM-BTN.15_1,Trashigang,BT-41,,,
GADM-BTN.16_1,Trongsa,BT-32,,,
GADM-BTN.17_1,Tsirang,BT-21,,,
GADM-BWA.1_1,Central,BW-CE,,,
GADM-BWA.7_1,Kgalagadi,BW-KG,,,
GADM-BWA.8_1,Kgatleng,BW-KL,,,
GADM-BWA.9_1,Kweneng,BW-KW,,,
GADM-BWA.15_1,Southern,BW-SO,,,
GADM-BLZ.1_1,Belize,BZ-BZ,,,
GADM-BLZ.2_1,Cayo,BZ-CY,,,
GADM-BLZ.3_1,Corozal,BZ-CZL,,,
GADM-BLZ.4_1,Orange Walk,BZ-OW,,,
GADM-BLZ.5_1,Stann Creek,BZ-SC,,,
GADM-BLZ.6_1,Toledo,BZ-TOL,,,
GADM-CAN.1_1,Alberta,CA-AB,,,
GADM-CAN.2_1,British Columbia,CA-BC,,,
GADM-CAN.3_1,Manitoba,CA-MB,,,
GADM-CAN.4_1,New Brunswick,CA-NB,,,
GADM-CAN.5_1,Newfoundland and Labrador,CA-NL,,,
GADM-CAN.6_1,Northwest Territories,CA-NT,,,
GADM-CAN.7_1,Nova Scotia,CA-NS,,,
GADM-CAN.8_1,Nunavut,CA-NU,,,
GADM-CAN.9_1,Ontario,CA-ON,,,
GADM-CAN.10_1,Prince Edward Island,CA-PE,,,
GADM-CAN.12_1,Saskatchewan,CA-SK,,,
GADM-CAN.13_1,Yukon,CA-YT,,,
GADM-COD.3_1,Haut-Katanga,CD-HK,,,
GADM-COD.4_1,Haut-Lomami,CD-HL,,,
GADM-COD.6_1,Ituri,CD-IT,,,
GADM-COD.10_1,Kinshasa,CD-KN,,,
GADM-COD.13_1,Kwilu,CD-KL,,,
GADM-COD.15_1,Lualaba,CD-LU,,,
GADM-COD.17_1,Maniema,CD-MA,,,
GADM-COD.19_1,Nord-Kivu,CD-NK,,,
GADM-COD.20_1,Nord-Ubangi,CD-NU,,,
GADM-COD.21_1,Sankuru,CD-SA,,,
GADM-COD.22_1,Sud-Kivu,CD-SK,,,
GADM-COD.23_1,Sud-Ubangi,CD-SU,,,
GADM-COD.24_1,Tanganyika,CD-TA,,,
GADM-COD.25_1,Tshopo,CD-TO,,,
GADM-COD.26_1,Tshuapa,CD-TU,,,
GADM-CAF.2_1,Bangui,CF-BGF,,,
GADM-CAF.15_1,Ouham,CF-AC,,,
GADM-COG.2_1,Brazzaville,CG-BZV,,,
GADM-COG.3_1,Cuvette-Ouest,CG-15,,,
GADM-COG.12_1,Sangha,CG-13,,,
GADM-CHE.1_1,Aargau,CH-AG,,,
GADM-CHE.2_1,Appenzell Ausserrhoden,CH-AR,,,
GADM-CHE.3_1,Appenzell Innerrhoden,CH-AI,,,
GADM-CHE.4_1,Basel-Landschaft,CH-BL,,,
GADM-CHE.5_1,Basel-Stadt,CH-BS,,,
GADM-CHE.6_1,Bern,CH-BE,,,
GADM-CHE.7_1,Fribourg,CH-FR,,,
GADM-CHE.9_1,Glarus,CH-GL,,,
GADM-CHE.11_1,Jura,CH-JU,,,
GADM-CHE.14_1,Nidwalden,CH-NW,,,
GADM-CHE.15_1,Obwalden,CH-OW,,,
GADM-CHE.16_1,Sankt Gallen,CH-SG,,,
GADM-CHE.17_1,Schaffhausen,CH-SH,,,
GADM-CHE.18_1,Schwyz,CH-SZ,,,
GADM-CHE.19_1,Solothurn,CH-SO,,,
GADM-CHE.20_1,Thurgau,CH-TG,,,
GADM-CHE.21_1,Ticino,CH-TI,,,
GADM-CHE.22_1,Uri,CH-UR,,,
GADM-CHE.23_1,Valais,CH-VS,,,
GADM-CHE.24_1,Vaud,CH-VD,,,
GADM-CHE.25_1,Zug,CH-ZG,,,
GADM-CIV.1_1,Abidjan,CI-AB,,,
GADM-CIV.2_1,Bas-Sassandra,CI-BS,,,
GADM-CIV.6_1,Lacs,CI-LC,,,
GADM-CIV.7_1,Lagunes,CI-LG,,,
GADM-CIV.8_1,Montagnes,CI-MG,,,
GADM-CIV.10_1,Savanes,CI-SV,,,
GADM-CIV.12_1,Woroba,CI-WR,,,
GADM-CIV.13_1,Yamoussoukro,CI-YM,,,
GADM-CIV.14_1,Zanzan,CI-ZZ,,,
GADM-CHL.2_1,Antofagasta,CL-AN,,,
GADM-CHL.4_1,Arica y Parinacota,CL-AP,,,
GADM-CHL.5_1,Atacama,CL-AT,,,
GADM-CHL.7_1,Coquimbo,CL-CO,,,
GADM-CHL.8_1,Libertador General Bernardo O'Higgins,CL-LI,,,
GADM-CHL.9_1,Los Lagos,CL-LL,,,
GADM-CHL.12_1,Maule,CL-ML,,,
GADM-CMR.1_1,Adamaoua,CM-AD,,,
GADM-CMR.2_1,Centre,CM-CE,,,
GADM-CMR.3_1,Est,CM-ES,,,
GADM-CMR.5_1,Littoral,CM-LT,,,
GADM-CMR.7_1,Nord,CM-NO,,,
GADM-CMR.6_1,Nord-Ouest,CM-NW,,,
GADM-CMR.8_1,Ouest,CM-OU,,,
GADM-CMR.10_1,Sud,CM-SU,,,
GADM-CMR.9_1,Sud-Ouest,CM-SW,,,
GADM-CHN.1_1,Anhui,CN-AH,,,
GADM-CHN.2_1,Beijing,CN-BJ,,,
GADM-CHN.3_1,Chongqing,CN-CQ,,,
GADM-CHN.4_1,Fujian,CN-FJ,,,
GADM-CHN.5_1,Gansu,CN-GS,,,
GADM-CHN.6_1,Guangdong,CN-GD,,,
GADM-CHN.7_1,Guangxi,CN-GX,,,
GADM-CHN.8_1,Guizhou,CN-GZ,,,
GADM-CHN.9_1,Hainan,CN-HI,,,
GADM-CHN.10_1,Hebei,CN-HE,,,
GADM-CHN.11_1,Heilongjiang,CN-HL,,,
GADM-CHN.12_1,Henan,CN-HA,,,
GADM-CHN.13_1,Hubei,CN-HB,,,
GADM-CHN.14_1,Hunan,CN-HN,,,
GADM-CHN.15_1,Jiangsu,CN-JS,,,
GADM-CHN.16_1,Jiangxi,CN-JX,,,
GADM-CHN.17_1,Jilin,CN-JL,,,
GADM-CHN.18_1,Liaoning,CN-LN,,,
GADM-CHN.19_1,Nei Mongol,CN-NM,,,
GADM-CHN.21_1,Qinghai,CN-QH,,,
GADM-CHN.22_1,Shaanxi,CN-SN,,,
GADM-CHN.23_1,Shandong,CN-SD,,,
GADM-CHN.24_1,Shanghai,CN-SH,,,
GADM-CHN.25_1,Shanxi,CN-SX,,,
GADM-CHN.26_1,Sichuan,CN-SC,,,
GADM-CHN.27_1,Tianjin,CN-TJ,,,
GADM-CHN.29_1,Xizang,CN-XZ,,Tibet,
GADM-CHN.30_1,Yunnan,CN-YN,,,
GADM-CHN.31_1,Zhejiang,CN-ZJ,,,
GADM-COL.1_1,Amazonas,CO-AMA,,,
GADM-COL.2_1,Antioquia,CO-ANT,,,
GADM-COL.3_1,Arauca,CO-ARA,,,
GADM-COL.7_1,Caldas,CO-CAL,,,
GADM-COL.9_1,Casanare,CO-CAS,,,
GADM-COL.10_1,Cauca,CO-CAU,,,
GADM-COL.11_1,Cesar,CO-CES,,,
GADM-COL.14_1,Cundinamarca,CO-CUN,,,
GADM-COL.16_1,Guaviare,CO-GUV,,,
GADM-COL.17_1,Huila,CO-HUI,,,
GADM-COL.18_1,La Guajira,CO-LAG,,,
GADM-COL.19_1,Magdalena,CO-MAG,,,
GADM-COL.20_1,Meta,CO-MET,,,
GADM-COL.22_1,Norte de Santander,CO-NSA,,,
GADM-COL.23_1,Putumayo,CO-PUT,,,
GADM-COL.25_1,Risaralda,CO-RIS,,,
GADM-COL.27_1,Santander,CO-SAN,,,
GADM-COL.28_1,Sucre,CO-SUC,,,
GADM-COL.29_1,Tolima,CO-TOL,,,
GADM-COL.30_1,Valle del Cauca,CO-VAC,,,
GADM-COL.32_1,Vichada,CO-VID,,,
GADM-CRI.1_1,Alajuela,CR-A,,,
GADM-CRI.2_1,Cartago,CR-C,,,
GADM-CRI.3_1,Guanacaste,CR-G,,,
GADM-CRI.4_1,Heredia,CR-H,,,
GADM-CRI.6_1,Puntarenas,CR-P,,,
GADM-CUB.3_1,Cienfuegos,CU-06,,,
GADM-CUB.5_1,Granma,CU-12,,,
GADM-CUB.8_1,Isla de la Juventud,CU-99,,,
GADM-CUB.9_1,La Habana,CU-03,,,
GADM-CUB.10_1,Las Tunas,CU-10,,,
GADM-CUB.11_1,Matanzas,CU-04,,,
GADM-CUB.12_1,Mayabeque,CU-16,,,
GADM-CUB.15_1,Santiago de Cuba,CU-13,,,
GADM-CUB.16_1,Villa Clara,CU-05,,,
GADM-CPV.1_1,Boa Vista,CV-BV,,,
GADM-CPV.6_1,Porto Novo,CV-PN,,,
GADM-CPV.7_1,Praia,CV-PR,,,
GADM-CPV.9_1,Ribeira Grande,CV-RG,,,
GADM-CPV.11_1,Sal,CV-SL,,,
GADM-CPV.21_1,Tarrafal,CV-TA,,,
GADM-DEU.2_1,Bayern,DE-BY,,,
GADM-DEU.3_1,Berlin,DE-BE,,,
GADM-DEU.4_1,Brandenburg,DE-BB,,,
GADM-DEU.5_1,Bremen,DE-HB,,,
GADM-DEU.6_1,Hamburg,DE-HH,,,
GADM-DEU.7_1,Hessen,DE-HE,,,
GADM-DEU.8_1,Mecklenburg-Vorpommern,DE-MV,,,
GADM-DEU.9_1,Niedersachsen,DE-NI,,,
GADM-DEU.10_1,Nordrhein-Westfalen,DE-NW,,,
GADM-DEU.11_1,Rheinland-Pfalz,DE-RP,,,
GADM-DEU.12_1,Saarland,DE-SL,,,
GADM-DEU.14_1,Sachsen,DE-SN,,,
GADM-DEU.13_1,Sachsen-Anhalt,DE-ST,,,
GADM-DEU.15_1,Schleswig-Holstein,DE-SH,,,
GADM-DJI.3_1,Djibouti,DJ-DJ,,,
GADM-DNK.1_1,Hovedstaden,DK-84,,,
GADM-DNK.2_1,Midtjylland,DK-82,,,
GADM-DNK.3_1,Nordjylland,DK-81,,,
GADM-DNK.5_1,Syddanmark,DK-83,,,
GADM-DMA.1_1,Saint Andrew,DM-02,,,
GADM-DMA.2_1,Saint David,DM-03,,,
GADM-DMA.3_1,Saint George,DM-04,,,
GADM-DMA.4_1,Saint John,DM-05,,,
GADM-DMA.6_1,Saint Luke,DM-07,,,
GADM-DMA.7_1,Saint Mark,DM-08,,,
GADM-DMA.8_1,Saint Patrick,DM-09,,,
GADM-DMA.9_1,Saint Paul,DM-10,,,
GADM-DOM.1_1,Azua,DO-02,,,
GADM-DOM.2_1,Bahoruco,DO-03,,,
GADM-DOM.3_1,Barahona,DO-04,,,
GADM-DOM.6_1,Duarte,DO-06,,,
GADM-DOM.7_1,El Seybo,DO-08,,,
GADM-DOM.8_1,Espaillat,DO-09,,,
GADM-DOM.9_1,Hato Mayor,DO-30,,,
GADM-DOM.22_1,Salcedo,DO-19,,,
GADM-DOM.10_1,Independencia,DO-10,,,
GADM-DOM.11_1,La Altagracia,DO-11,,,
GADM-DOM.13_1,La Romana,DO-12,,,
GADM-DOM.14_1,La Vega,DO-13,,,
GADM-DOM.17_1,Monte Cristi,DO-15,,,
GADM-DOM.18_1,Monte Plata,DO-29,,,
GADM-DOM.20_1,Peravia,DO-17,,,
GADM-DOM.21_1,Puerto Plata,DO-18,,,
GADM-DOM.26_1,San Juan,DO-22,,,
GADM-DOM.30_1,Santiago,DO-25,,,
GADM-DOM.29_1,Santiago Rodríguez,DO-26,,,
GADM-DOM.32_1,Valverde,DO-27,,,
GADM-DZA.1_1,Adrar,DZ-01,,,
GADM-DZA.4_1,Alger,DZ-16,,,
GADM-DZA.5_1,Annaba,DZ-23,,,
GADM-DZA.6_1,Batna,DZ-05,,,
GADM-DZA.9_1,Biskra,DZ-07,,,
GADM-DZA.10_1,Blida,DZ-09,,,
GADM-DZA.12_1,Bouira,DZ-10,,,
GADM-DZA.14_1,Chlef,DZ-02,,,
GADM-DZA.15_1,Constantine,DZ-25,,,
GADM-DZA.16_1,Djelfa,DZ-17,,,
GADM-DZA.17_1,El Bayadh,DZ-32,,,
GADM-DZA.18_1,El Oued,DZ-39,,,
GADM-DZA.19_1,El Tarf,DZ-36,,,
GADM-DZA.21_1,Guelma,DZ-24,,,
GADM-DZA.22_1,Illizi,DZ-33,,,
GADM-DZA.23_1,Jijel,DZ-18,,,
GADM-DZA.24_1,Khenchela,DZ-40,,,
GADM-DZA.25_1,Laghouat,DZ-03,,,
GADM-DZA.27_1,Mascara,DZ-29,,,
GADM-DZA.29_1,Mila,DZ-43,,,
GADM-DZA.30_1,Mostaganem,DZ-27,,,
GADM-DZA.31_1,Naâma,DZ-45,,,
GADM-DZA.32_1,Oran,DZ-31,,,
GADM-DZA.33_1,Ouargla,DZ-30,,,
GADM-DZA.34_1,Oum el Bouaghi,DZ-04,,,
GADM-DZA.35_1,Relizane,DZ-48,,,
GADM-DZA.39_1,Skikda,DZ-21,,,
GADM-DZA.40_1,Souk Ahras,DZ-41,,,
GADM-DZA.43_1,Tiaret,DZ-14,,,
GADM-DZA.44_1,Tindouf,DZ-37,,,
GADM-DZA.45_1,Tipaza,DZ-42,,,
GADM-DZA.46_1,Tissemsilt,DZ-38,,,
GADM-DZA.47_1,Tizi Ouzou,DZ-15,,,
GADM-DZA.48_1,Tlemcen,DZ-13,,,
GADM-ECU.1_1,Azuay,EC-A,,,
GADM-ECU.2_1,Bolivar,EC-B,,,
GADM-ECU.4_1,Carchi,EC-C,,,
GADM-ECU.5_1,Chimborazo,EC-H,,,
GADM-ECU.6_1,Cotopaxi,EC-X,,,
GADM-ECU.7_1,El Oro,EC-O,,,
GADM-ECU.8_1,Esmeraldas,EC-E,,,
GADM-ECU.10_1,Guayas,EC-G,,,
GADM-ECU.11_1,Imbabura,EC-I,,,
GADM-ECU.12_1,Loja,EC-L,,,
GADM-ECU.13_1,Los Rios,EC-R,,,
GADM-ECU.14_1,Manabi,EC-M,,,
GADM-ECU.15_1,Morona Santiago,EC-S,,,
GADM-ECU.16_1,Napo,EC-N,,,
GADM-ECU.17_1,Orellana,EC-D,,,
GADM-ECU.18_1,Pastaza,EC-Y,,,
GADM-ECU.19_1,Pichincha,EC-P,,,
GADM-ECU.20_1,Santa Elena,EC-SE,,,
GADM-ECU.21_1,Santo Domingo de los Tsachilas,EC-SD,,,
GADM-ECU.22_1,Sucumbios,EC-U,,,
GADM-ECU.23_1,Tungurahua,EC-T,,,
GADM-ECU.24_1,Zamora Chinchipe,EC-Z,,,
GADM-EGY.1_1,Ad Daqahliyah,EG-DK,,,
GADM-EGY.2_1,Al Bahr al Ahmar,EG-BA,,,
GADM-EGY.3_1,Al Buhayrah,EG-BH,,,
GADM-EGY.4_1,Al Fayyum,EG-FYM,,,
GADM-EGY.5_1,Al Gharbiyah,EG-GH,,,
GADM-EGY.6_1,Al Iskandariyah,EG-ALX,,,
GADM-EGY.8_1,Al Jizah,EG-GZ,,,
GADM-EGY.9_1,Al Minufiyah,EG-MNF,,,
GADM-EGY.10_1,Al Minya,EG-MN,,,
GADM-EGY.11_1,Al Qahirah,EG-C,,,
GADM-EGY.12_1,Al Qalyubiyah,EG-KB,,,
GADM-EGY.13_1,Al Uqsur,EG-LX,,,
GADM-EGY.14_1,Al Wadi al Jadid,EG-WAD,,,
GADM-EGY.15_1,As Suways,EG-SUZ,,,
GADM-EGY.16_1,Ash Sharqiyah,EG-SHR,,,
GADM-EGY.17_1,Aswan,EG-ASN,,,
GADM-EGY.18_1,Asyut,EG-AST,,,
GADM-EGY.19_1,Bani Suwayf,EG-BNS,,,
GADM-EGY.21_1,Dumyat,EG-DT,,,
GADM-EGY.22_1,Janub Sina',EG-JS,,,
GADM-EGY.23_1,Kafr ash Shaykh,EG-KFS,,,
GADM-EGY.25_1,Qina,EG-KN,,,
GADM-EGY.26_1,Shamal Sina',EG-SIN,,,
GADM-EGY.27_1,Suhaj,EG-SHG,,,
GADM-ESP.3_1,Cantabria,ES-CB,,,
GADM-ESP.4_1,Castilla-La Mancha,ES-CM,,,
GADM-ESP.11_1,Extremadura,ES-EX,,,
GADM-ESP.12_1,Galicia,ES-GA,,,
GADM-ESP.15_1,La Rioja,ES-RI,,,
GADM-ETH.2_1,Afar,ET-AF,,,
GADM-ETH.3_1,Amhara,ET-AM,,,
GADM-ETH.8_1,Oromia,ET-OR,,,
GADM-ETH.9_1,Somali,ET-SO,,,
GADM-ETH.11_1,Tigray,ET-TI,,,
GADM-FJI.1_1,Central,FJ-C,,,
GADM-FJI.2_1,Eastern,FJ-E,,,
GADM-FJI.3_1,Northern,FJ-N,,,
GADM-FJI.4_1,Rotuma,FJ-R,,,
GADM-FJI.5_1,Western,FJ-W,,,
GADM-FSM.1_1,Chuuk,FM-TRK,,,
GADM-FSM.2_1,Kosrae,FM-KSA,,,
GADM-FSM.3_1,Pohnpei,FM-PNI,,,
GADM-FSM.4_1,Yap,FM-YAP,,,
GADM-FRA.3_1,Bretagne,FR-BRE,,,
GADM-FRA.4_1,Centre-Val de Loire,FR-CVL,,,
GADM-FRA.5_1,Corse,FR-COR,,,
GADM-FRA.7_1,Hauts-de-France,FR-HDF,,,
GADM-FRA.9_1,Normandie,FR-NOR,,,
GADM-FRA.10_1,Nouvelle-Aquitaine,FR-NAQ,,,
GADM-FRA.11_1,Occitanie,FR-OCC,,,
GADM-GAB.1_1,Estuaire,GA-1,,,
GADM-GAB.9_1,Wouleu-Ntem,GA-9,,,
GADM-GBR.1_1,England,GB-ENG,,,
GADM-GBR.2_1,Northern Ireland,GB-NIR,,,
GADM-GBR.3_1,Scotland,GB-SCT,,,
GADM-GBR.4_1,Wales,GB-WLS,,,
GADM-GRD.2_1,Saint Andrew,GD-01,,,
GADM-GRD.3_1,Saint David,GD-02,,,
GADM-GRD.4_1,Saint George,GD-03,,,
GADM-GRD.5_1,Saint John,GD-04,,,
GADM-GRD.6_1,Saint Mark,GD-05,,,
GADM-GRD.7_1,Saint Patrick,GD-06,,,
GADM-GEO.1_1,Abkhazia,GE-AB,,,
GADM-GEO.2_1,Ajaria,GE-AJ,,,
GADM-GEO.3_1,Guria,GE-GU,,,
GADM-GEO.4_1,Imereti,GE-IM,,,
GADM-GEO.6_1,Kvemo Kartli,GE-KK,,,
GADM-GEO.7_1,Mtskheta-Mtianeti,GE-MM,,,
GADM-GEO.9_1,Samegrelo-Zemo Svaneti,GE-SZ,,,
GADM-GEO.10_1,Samtskhe-Javakheti,GE-SJ,,,
GADM-GEO.11_1,Shida Kartli,GE-SK,,,
GADM-GEO.12_1,Tbilisi,GE-TB,,,
GADM-GHA.1_1,Ashanti,GH-AH,,,
GADM-GHA.3_1,Central,GH-CP,,,
GADM-GHA.4_1,Eastern,GH-EP,,,
GADM-GHA.5_1,Greater Accra,GH-AA,,,
GADM-GHA.6_1,Northern,GH-NP,,,
GADM-GHA.7_1,Upper East,GH-UE,,,
GADM-GHA.9_1,Volta,GH-TV,,,
GADM-GHA.10_1,Western,GH-WP,,,
GADM-GMB.1_1,Banjul,GM-B,,,
GADM-GMB.2_1,Lower River,GM-L,,,
GADM-GMB.4_1,North Bank,GM-N,,,
GADM-GMB.5_1,Upper River,GM-U,,,
GADM-GMB.6_1,Western,GM-W,,,
GADM-GIN.2_1,Conakry,GN-C,,,
GADM-GIN.4_1,Kankan,GN-K,,,
GADM-GNQ.2_1,Bioko Norte,GQ-BN,,,
GADM-GNQ.3_1,Bioko Sur,GQ-BS,,,
GADM-GNQ.6_1,Litoral,GQ-LI,,,
GADM-GNQ.7_1,Wele-Nzas,GQ-WN,,,
GADM-GTM.1_1,Alta Verapaz,GT-AV,,,
GADM-GTM.2_1,Baja Verapaz,GT-BV,,,
GADM-GTM.3_1,Chimaltenango,GT-CM,,,
GADM-GTM.4_1,Chiquimula,GT-CQ,,,
GADM-GTM.5_1,El Progreso,GT-PR,,,
GADM-GTM.6_1,Escuintla,GT-ES,,,
GADM-GTM.7_1,Guatemala,GT-GU,,,
GADM-GTM.8_1,Huehuetenango,GT-HU,,,
GADM-GTM.9_1,Izabal,GT-IZ,,,
GADM-GTM.10_1,Jalapa,GT-JA,,,
GADM-GTM.11_1,Jutiapa,GT-JU,,,
GADM-GTM.15_1,Retalhuleu,GT-RE,,,
GADM-GTM.17_1,San Marcos,GT-SM,,,
GADM-GTM.18_1,Santa Rosa,GT-SR,,,
GADM-GTM.22_1,Zacapa,GT-ZA,,,
GADM-GUM.2_1,Agat,,,,
GADM-GUM.4_1,Barrigada,,,,
GADM-GUM.6_1,Dededo,,,,
GADM-GUM.9_1,Mangilao,,,,
GADM-GUM.11_1,Mongmong-Toto-Maite,,,,
GADM-GUM.12_1,Piti,,,,
GADM-GUM.13_1,Santa Rita,,,,
GADM-GUM.14_1,Sinajana,,,,
GADM-GUM.18_1,Yigo,,,,
GADM-GUM.19_1,Yona,,,,
GADM-GNB.3_1,Bissau,GW-BS,,,
GADM-GUY.1_1,Barima-Waini,GY-BA,,,
GADM-GUY.3_1,Demerara-Mahaica,GY-DE,,,
GADM-GUY.4_1,East Berbice-Corentyne,GY-EB,,,
GADM-GUY.5_1,Essequibo Islands-West Demerara,GY-ES,,,
GADM-GUY.6_1,Mahaica-Berbice,GY-MA,,,
GADM-GUY.7_1,Pomeroon-Supenaam,GY-PM,,,
GADM-GUY.8_1,Potaro-Siparuni,GY-PT,,,
GADM-GUY.9_1,Upper Demerara-Berbice,GY-UD,,,
GADM-HND.2_1,Choluteca,HN-CH,,,
GADM-HND.4_1,Comayagua,HN-CM,,,
GADM-HND.12_1,La Paz,HN-LP,,,
GADM-HND.13_1,Lempira,HN-LE,,,
GADM-HND.14_1,Ocotepeque,HN-OC,,,
GADM-HND.15_1,Olancho,HN-OL,,,
GADM-HND.17_1,Valle,HN-VA,,,
GADM-HND.18_1,Yoro,HN-YO,,,
GADM-HRV.4_1,Grad Zagreb,HR-21,,,
GADM-HTI.3_1,L'Artibonite,HT-AR,,,
GADM-HTI.1_1,Centre,HT-CE,,,
GADM-HTI.7_1,Nord,HT-ND,,,
GADM-HTI.8_1,Ouest,HT-OU,,,
GADM-HTI.10_1,Sud,HT-SD,,,
GADM-HTI.9_1,Sud-Est,HT-SE,,,
GADM-HUN.2_1,Baranya,HU-BA,,,
GADM-HUN.5_1,Budapest,HU-BU,,,
GADM-HUN.8_1,Gyor-Moson-Sopron,HU-GS,,,
GADM-HUN.10_1,Heves,HU-HE,,,
GADM-HUN.14_1,Pest,HU-PE,,,
GADM-HUN.15_1,Somogy,HU-SO,,,
GADM-HUN.17_1,Tolna,HU-TO,,,
GADM-HUN.18_1,Vas,HU-VA,,,
GADM-HUN.20_1,Zala,HU-ZA,,,
GADM-IDN.1_1,Aceh,ID-AC,,,
GADM-IDN.2_1,Bali,ID-BA,,,
GADM-IDN.4_1,Banten,ID-BT,,,
GADM-IDN.5_1,Bengkulu,ID-BE,,,
GADM-IDN.6_1,Gorontalo,ID-GO,,,
GADM-IDN.7_1,Jakarta Raya,ID-JK,,,
GADM-IDN.8_1,Jambi,ID-JA,,,
GADM-IDN.9_1,Jawa Barat,ID-JB,,,
GADM-IDN.10_1,Jawa Tengah,ID-JT,,,
GADM-IDN.11_1,Jawa Timur,ID-JI,,,
GADM-IDN.12_1,Kalimantan Barat,ID-KB,,,
GADM-IDN.13_1,Kalimantan Selatan,ID-KS,,,
GADM-IDN.14_1,Kalimantan Tengah,ID-KT,,,
GADM-IDN.15_1,Kalimantan Timur,ID-KI,,,
GADM-IDN.16_1,Kepulauan Riau,ID-KR,,,
GADM-IDN.17_1,Lampung,ID-LA,,,
GADM-IDN.19_1,Maluku,ID-ML,,,
GADM-IDN.18_1,Maluku Utara,ID-MU,,,
GADM-IDN.20_1,Nusa Tenggara Barat,ID-NB,,,
GADM-IDN.21_1,Nusa Tenggara Timur,ID-NT,,,
GADM-IDN.23_1,Papua,ID-PP,,,
GADM-IDN.22_1,Papua Barat,ID-PB,,,
GADM-IDN.24_1,Riau,ID-RI,,,
GADM-IDN.25_1,Sulawesi Barat,ID-SR,,,
GADM-IDN.26_1,Sulawesi Selatan,ID-SN,,,
GADM-IDN.27_1,Sulawesi Tengah,ID-ST,,,
GADM-IDN.28_1,Sulawesi Tenggara,ID-SG,,,
GADM-IDN.29_1,Sulawesi Utara,ID-SA,,,
GADM-IDN.30_1,Sumatera Barat,ID-SB,,,
GADM-IDN.31_1,Sumatera Selatan,ID-SS,,,
GADM-IDN.32_1,Sumatera Utara,ID-SU,,,
GADM-IDN.33_1,Yogyakarta,ID-YO,,,
GADM-IRL.1_1,Carlow,IE-CW,,,
GADM-IRL.2_1,Cavan,IE-CN,,,
GADM-IRL.3_1,Clare,IE-CE,,,
GADM-IRL.4_1,Cork,IE-CO,,,
GADM-IRL.5_1,Donegal,IE-DL,,,
GADM-IRL.6_1,Dublin,IE-D,,,
GADM-IRL.7_1,Galway,IE-G,,,
GADM-IRL.8_1,Kerry,IE-KY,,,
GADM-IRL.9_1,Kildare,IE-KE,,,
GADM-IRL.10_1,Kilkenny,IE-KK,,,
GADM-IRL.12_1,Leitrim,IE-LM,,,
GADM-IRL.13_1,Limerick,IE-LK,,,
GADM-IRL.14_1,Longford,IE-LD,,,
GADM-IRL.15_1,Louth,IE-LH,,,
GADM-IRL.16_1,Mayo,IE-MO,,,
GADM-IRL.17_1,Meath,IE-MH,,,
GADM-IRL.18_1,Monaghan,IE-MN,,,
GADM-IRL.19_1,Offaly,IE-OY,,,
GADM-IRL.20_1,Roscommon,IE-RN,,,
GADM-IRL.21_1,Sligo,IE-SO,,,
GADM-IRL.22_1,Tipperary,IE-TA,,,
GADM-IRL.23_1,Waterford,IE-WD,,,
GADM-IRL.24_1,Westmeath,IE-WH,,,
GADM-IRL.25_1,Wexford,IE-WX,,,
GADM-IRL.26_1,Wicklow,IE-WW,,,
GADM-ISR.2_1,HaDarom,IL-D,,,
GADM-ISR.4_1,HaMerkaz,IL-M,,,
GADM-ISR.3_1,Haifa,IL-HA,,,
GADM-ISR.7_1,Tel Aviv,IL-TA,,,
GADM-IND.2_1,Andhra Pradesh,IN-AP,,,
GADM-IND.3_1,Arunachal Pradesh,IN-AR,,,
GADM-IND.4_1,Assam,IN-AS,,,
GADM-IND.5_1,Bihar,IN-BR,,,
GADM-IND.6_1,Chandigarh,IN-CH,,,
GADM-IND.7_1,Chhattisgarh,IN-CT,,,
GADM-IND.8_1,Dadra and Nagar Haveli,IN-DN,,,
GADM-IND.9_1,Daman and Diu,IN-DD,,,
GADM-IND.10_1,Goa,IN-GA,,,
GADM-IND.11_1,Gujarat,IN-GJ,,,
GADM-IND.12_1,Haryana,IN-HR,,,
GADM-IND.13_1,Himachal Pradesh,IN-HP,,,
GADM-IND.14_1,Jammu and Kashmir,IN-JK,,,
GADM-IND.15_1,Jharkhand,IN-JH,,,
GADM-IND.16_1,Karnataka,IN-KA,,,
GADM-IND.17_1,Kerala,IN-KL,,,
GADM-IND.18_1,Lakshadweep,IN-LD,,,
GADM-IND.19_1,Madhya Pradesh,IN-MP,,,
GADM-IND.20_1,Maharashtra,IN-MH,,,
GADM-IND.21_1,Manipur,IN-MN,,,
GADM-IND.22_1,Meghalaya,IN-ML,,,
GADM-IND.23_1,Mizoram,IN-MZ,,,
GADM-IND.24_1,Nagaland,IN-NL,,,
GADM-IND.26_1,Odisha,IN-OR,,,
GADM-IND.27_1,Puducherry,IN-PY,,,
GADM-IND.28_1,Punjab,IN-PB,,,
GADM-IND.29_1,Rajasthan,IN-RJ,,,
GADM-IND.30_1,Sikkim,IN-SK,,,
GADM-IND.31_1,Tamil Nadu,IN-TN,,,
GADM-IND.32_1,Telangana,IN-TG,,,
GADM-IND.33_1,Tripura,IN-TR,,,
GADM-IND.34_1,Uttar Pradesh,IN-UP,,,
GADM-IND.35_1,Uttarakhand,IN-UT,,,
GADM-IND.36_1,West Bengal,IN-WB,,,
GADM-IRQ.6_1,Arbil,IQ-AR,,,
GADM-IRQ.9_1,Babil,IQ-BB,,,
GADM-IRQ.10_1,Baghdad,IQ-BG,,,
GADM-IRQ.13_1,Diyala,IQ-DI,,,
GADM-IRQ.14_1,Karbala',IQ-KA,,,
GADM-IRQ.15_1,Maysan,IQ-MA,,,
GADM-IRQ.16_1,Ninawa,IQ-NI,,,
GADM-IRQ.18_1,Wasit,IQ-WA,,,
GADM-IRN.1_1,Alborz,IR-32,,,
GADM-IRN.2_1,Ardebil,IR-03,,,
GADM-IRN.3_1,Bushehr,IR-06,,,
GADM-IRN.6_1,Esfahan,IR-04,,,
GADM-IRN.7_1,Fars,IR-14,,,
GADM-IRN.8_1,Gilan,IR-19,,Guilan,
GADM-IRN.9_1,Golestan,IR-27,,,
GADM-IRN.10_1,Hamadan,IR-24,,,
GADM-IRN.11_1,Hormozgan,IR-23,,,
GADM-IRN.12_1,Ilam,IR-05,,,
GADM-IRN.13_1,Kerman,IR-15,,,
GADM-IRN.14_1,Kermanshah,IR-17,,,
GADM-IRN.24_1,Razavi Khorasan,IR-30,,,
GADM-IRN.15_1,Khuzestan,IR-10,,,
GADM-IRN.17_1,Kordestan,IR-16,,,
GADM-IRN.18_1,Lorestan,IR-20,,,
GADM-IRN.19_1,Markazi,IR-22,,,
GADM-IRN.20_1,Mazandaran,IR-21,,,
GADM-IRN.22_1,Qazvin,IR-28,,,
GADM-IRN.23_1,Qom,IR-26,,,
GADM-IRN.25_1,Semnan,IR-12,,,
GADM-IRN.28_1,Tehran,IR-07,,,
GADM-IRN.30_1,Yazd,IR-25,,,
GADM-IRN.31_1,Zanjan,IR-11,,,
GADM-ISL.1_1,Austurland,IS-7,,,
GADM-ISL.8_1,Vesturland,IS-3,,,
GADM-ITA.1_1,Abruzzo,IT-65,,,
GADM-ITA.3_1,Basilicata,IT-77,,,
GADM-ITA.4_1,Calabria,IT-78,,,
GADM-ITA.5_1,Campania,IT-72,,,
GADM-ITA.6_1,Emilia-Romagna,IT-45,,,
GADM-ITA.7_1,Friuli-Venezia Giulia,IT-36,,,
GADM-ITA.8_1,Lazio,IT-62,,,
GADM-ITA.9_1,Liguria,IT-42,,,
GADM-ITA.10_1,Lombardia,IT-25,,,
GADM-ITA.11_1,Marche,IT-57,,,
GADM-ITA.12_1,Molise,IT-67,,,
GADM-ITA.13_1,Piemonte,IT-21,,,
GADM-ITA.14_1,Sardegna,IT-88,,,
GADM-ITA.15_1,Sicily,IT-82,,,
GADM-ITA.16_1,Toscana,IT-52,,,
GADM-ITA.17_1,Trentino-Alto Adige,IT-32,,,
GADM-ITA.18_1,Umbria,IT-55,,,
GADM-ITA.19_1,Valle d'Aosta,IT-23,,,
GADM-ITA.20_1,Veneto,IT-34,,,
GADM-JAM.1_1,Clarendon,JM-13,,,
GADM-JAM.2_1,Hanover,JM-09,,,
GADM-JAM.3_1,Kingston,JM-01,,,
GADM-JAM.4_1,Manchester,JM-12,,,
GADM-JAM.5_1,Portland,JM-04,,,
GADM-JAM.6_1,Saint Andrew,JM-02,,,
GADM-JAM.7_1,Saint Ann,JM-06,,,
GADM-JAM.8_1,Saint Catherine,JM-14,,,
GADM-JAM.9_1,Saint Elizabeth,JM-11,,,
GADM-JAM.10_1,Saint James,JM-08,,,
GADM-JAM.11_1,Saint Mary,JM-05,,,
GADM-JAM.12_1,Saint Thomas,JM-03,,,
GADM-JAM.13_1,Trelawny,JM-07,,,
GADM-JAM.14_1,Westmoreland,JM-10,,,
GADM-JOR.12_1,Zarqa,JO-AZ,,,
GADM-JOR.5_1,Irbid,JO-IR,,,
GADM-JOR.6_1,Jarash,JO-JA,,,
GADM-JOR.9_1,Madaba,JO-MD,,,
GADM-JPN.1_1,Aichi,JP-23,,,
GADM-JPN.2_1,Akita,JP-05,,,
GADM-JPN.3_1,Aomori,JP-02,,,
GADM-JPN.4_1,Chiba,JP-12,,,
GADM-JPN.5_1,Ehime,JP-38,,,
GADM-JPN.6_1,Fukui,JP-18,,,
GADM-JPN.7_1,Fukuoka,JP-40,,,
GADM-JPN.8_1,Fukushima,JP-07,,,
GADM-JPN.9_1,Gifu,JP-21,,,
GADM-JPN.10_1,Gunma,JP-10,,,
GADM-JPN.11_1,Hiroshima,JP-34,,,
GADM-JPN.12_1,Hokkaido,JP-01,,,
GADM-JPN.14_1,Ibaraki,JP-08,,,
GADM-JPN.15_1,Ishikawa,JP-17,,,
GADM-JPN.16_1,Iwate,JP-03,,,
GADM-JPN.17_1,Kagawa,JP-37,,,
GADM-JPN.18_1,Kagoshima,JP-46,,,
GADM-JPN.19_1,Kanagawa,JP-14,,,
GADM-JPN.20_1,Kochi,JP-39,,,
GADM-JPN.21_1,Kumamoto,JP-43,,,
GADM-JPN.22_1,Kyoto,JP-26,,,
GADM-JPN.23_1,Mie,JP-24,,,
GADM-JPN.24_1,Miyagi,JP-04,,,
GADM-JPN.25_1,Miyazaki,JP-45,,,
GADM-JPN.26_1,Nagano,JP-20,,,
GADM-JPN.27_1,Naoasaki,JP-42,,,
GADM-JPN.28_1,Nara,JP-29,,,
GADM-JPN.29_1,Niigata,JP-15,,,
GADM-JPN.30_1,Oita,JP-44,,,
GADM-JPN.31_1,Okayama,JP-33,,,
GADM-JPN.32_1,Okinawa,JP-47,,,
GADM-JPN.33_1,Osaka,JP-27,,,
GADM-JPN.34_1,Saga,JP-41,,,
GADM-JPN.35_1,Saitama,JP-11,,,
GADM-JPN.36_1,Shiga,JP-25,,,
GADM-JPN.37_1,Shimane,JP-32,,,
GADM-JPN.38_1,Shizuoka,JP-22,,,
GADM-JPN.39_1,Tochigi,JP-09,,,
GADM-JPN.40_1,Tokushima,JP-36,,,
GADM-JPN.41_1,Tokyo,JP-13,,,
GADM-JPN.42_1,Tottori,JP-31,,,
GADM-JPN.43_1,Toyama,JP-16,,,
GADM-JPN.44_1,Wakayama,JP-30,,,
GADM-JPN.45_1,Yamagata,JP-06,,,
GADM-JPN.46_1,Yamaguchi,JP-35,,,
GADM-JPN.47_1,Yamanashi,JP-19,,,
GADM-KEN.1_1,Baringo,KE-01,,,
GADM-KEN.2_1,Bomet,KE-02,,,
GADM-KEN.3_1,Bungoma,KE-03,,,
GADM-KEN.4_1,Busia,KE-04,,,
GADM-KEN.6_1,Embu,KE-06,,,
GADM-KEN.7_1,Garissa,KE-07,,,
GADM-KEN.8_1,Homa Bay,KE-08,,,
GADM-KEN.9_1,Isiolo,KE-09,,,
GADM-KEN.10_1,Kajiado,KE-10,,,
GADM-KEN.11_1,Kakamega,KE-11,,,
GADM-KEN.12_1,Kericho,KE-12,,,
GADM-KEN.13_1,Kiambu,KE-13,,,
GADM-KEN.14_1,Kilifi,KE-14,,,
GADM-KEN.15_1,Kirinyaga,KE-15,,,
GADM-KEN.16_1,Kisii,KE-16,,,
GADM-KEN.17_1,Kisumu,KE-17,,,
GADM-KEN.18_1,Kitui,KE-18,,,
GADM-KEN.19_1,Kwale,KE-19,,,
GADM-KEN.20_1,Laikipia,KE-20,,,
GADM-KEN.21_1,Lamu,KE-21,,,
GADM-KEN.22_1,Machakos,KE-22,,,
GADM-KEN.23_1,Makueni,KE-23,,,
GADM-KEN.24_1,Mandera,KE-24,,,
GADM-KEN.25_1,Marsabit,KE-25,,,
GADM-KEN.26_1,Meru,KE-26,,,
GADM-KEN.27_1,Migori,KE-27,,,
GADM-KEN.28_1,Mombasa,KE-28,,,
GADM-KEN.29_1,Murang'a,KE-29,,,
GADM-KEN.31_1,Nakuru,KE-31,,,
GADM-KEN.32_1,Nandi,KE-32,,,
GADM-KEN.33_1,Narok,KE-33,,,
GADM-KEN.34_1,Nyamira,KE-34,,,
GADM-KEN.35_1,Nyandarua,KE-35,,,
GADM-KEN.36_1,Nyeri,KE-36,,,
GADM-KEN.38_1,Siaya,KE-38,,,
GADM-KEN.41_1,Tharaka-Nithi,KE-41,,,
GADM-KEN.42_1,Trans Nzoia,KE-42,,,
GADM-KEN.43_1,Turkana,KE-43,,,
GADM-KEN.44_1,Uasin Gishu,KE-44,,,
GADM-KEN.46_1,Wajir,KE-46,,,
GADM-KGZ.1_1,Batken,KG-B,,,
GADM-KGZ.2_1,Biškek,KG-GB,,,
GADM-KGZ.4_1,Jalal-Abad,KG-J,,,
GADM-KGZ.5_1,Naryn,KG-N,,,
GADM-KGZ.7_1,Osh,KG-GO,,,
GADM-KGZ.8_1,Talas,KG-T,,,
GADM-KHM.8_1,Kândal,KH-8,,,
GADM-KHM.12_1,Krong Pailin,KH-24,,,
GADM-KHM.13_1,Krong Preah Sihanouk,KH-18,,,
GADM-KHM.15_1,Otdar Mean Chey,KH-22,,,
GADM-KHM.16_1,Phnom Penh,KH-12,,,
GADM-KHM.19_1,Prey Vêng,KH-14,,,
GADM-COM.2_1,Njazídja,KM-G,,,
GADM-KNA.2_1,Saint Anne Sandy Point,KN-02,,,
GADM-KNA.3_1,Saint George Basseterre,KN-03,,,
GADM-KNA.5_1,Saint James Windward,KN-05,,,
GADM-KNA.6_1,Saint John Capisterre,KN-06,,,
GADM-KNA.7_1,Saint John Figtree,KN-07,,,
GADM-KNA.8_1,Saint Mary Cayon,KN-08,,,
GADM-KNA.9_1,Saint Paul Capisterre,KN-09,,,
GADM-KNA.10_1,Saint Paul Charlestown,KN-10,,,
GADM-KNA.11_1,Saint Peter Basseterre,KN-11,,,
GADM-KNA.12_1,Saint Thomas Lowland,KN-12,,,
GADM-KNA.13_1,Saint Thomas Middle Island,KN-13,,,
GADM-KOR.2_1,Chungcheongbuk-do,KR-43,,,
GADM-KOR.3_1,Chungcheongnam-do,KR-44,,,
GADM-KOR.6_1,Gangwon-do,KR-42,,,
GADM-KOR.8_1,Gyeonggi-do,KR-41,,,
GADM-KOR.9_1,Gyeongsangbuk-do,KR-47,,,
GADM-KOR.10_1,Gyeongsangnam-do,KR-48,,,
GADM-KOR.13_1,Jeollabuk-do,KR-45,,,
GADM-KOR.14_1,Jeollanam-do,KR-46,,,
GADM-KWT.1_1,Al Ahmadi,KW-AH,,,
GADM-KWT.2_1,Al Farwaniyah,KW-FA,,,
GADM-KWT.5_1,Hawalli,KW-HA,,,
GADM-KAZ.1_1,Almaty,KZ-ALA,,,
GADM-LAO.1_1,Attapu,LA-AT,,,
GADM-LAO.4_1,Champasak,LA-CH,,,
GADM-LAO.5_1,Houaphan,LA-HO,,,
GADM-LAO.6_1,Khammouan,LA-KH,,,
GADM-LAO.7_1,Louang Namtha,LA-LM,,,
GADM-LAO.14_1,Vientiane,LA-VI,,,
GADM-LCA.3_1,Castries,LC-02,,,
GADM-LCA.4_1,Choiseul,LC-03,,,
GADM-LCA.5_1,Dennery,LC-05,,,
GADM-LCA.6_1,Gros Islet,LC-06,,,
GADM-LCA.7_1,Laborie,LC-07,,,
GADM-LCA.8_1,Micoud,LC-08,,,
GADM-LCA.10_1,Vieux Fort,LC-11,,,
GADM-LIE.1_1,Balzers,LI-01,,,
GADM-LIE.2_1,Eschen,LI-02,,,
GADM-LIE.3_1,Gamprin,LI-03,,,
GADM-LIE.4_1,Mauren,LI-04,,,
GADM-LIE.5_1,Planken,LI-05,,,
GADM-LIE.6_1,Ruggell,LI-06,,,
GADM-LIE.7_1,Schaan,LI-07,,,
GADM-LIE.8_1,Schellenberg,LI-08,,,
GADM-LIE.9_1,Triesen,LI-09,,,
GADM-LIE.10_1,Triesenberg,LI-10,,,
GADM-LBR.5_1,GrandBassa,LR-GB,,,
GADM-LBR.6_1,GrandGedeh,LR-GG,,,
GADM-LBR.9_1,Margibi,LR-MG,,,
GADM-LBR.10_1,Maryland,LR-MY,,,
GADM-LBR.11_1,Montserrado,LR-MO,,,
GADM-LBR.12_1,Nimba,LR-NI,,,
GADM-LBR.15_1,Sinoe,LR-SI,,,
GADM-LSO.1_1,Berea,LS-D,,,
GADM-LSO.3_1,Leribe,LS-C,,,
GADM-LSO.4_1,Mafeteng,LS-E,,,
GADM-LSO.5_1,Maseru,LS-A,,,
GADM-LSO.9_1,Quthing,LS-G,,,
GADM-LUX.1_1,Diekirch,LU-DI,,,
GADM-LUX.2_1,Grevenmacher,LU-GR,,,
GADM-LUX.3_1,Luxembourg,LU-LU,,,
GADM-LVA.3_1,Riga,LV-RIX,,,
GADM-LBY.1_1,Al Butnan,LY-BU,,,
GADM-LBY.2_1,Al Jabal al Akhdar,LY-JA,,,
GADM-LBY.3_1,Al Jabal al Gharbi,LY-JG,,,
GADM-LBY.5_1,Al Jufrah,LY-JU,,,
GADM-LBY.6_1,Al Kufrah,LY-KF,,,
GADM-LBY.7_1,Al Marj,LY-MJ,,,
GADM-LBY.8_1,Al Marqab,LY-MB,,,
GADM-LBY.9_1,Al Wahat,LY-WA,,,
GADM-LBY.10_1,An Nuqat al Khams,LY-NQ,,,
GADM-LBY.11_1,Az Zawiyah,LY-ZA,,,
GADM-LBY.13_1,Darnah,LY-DR,,,
GADM-LBY.15_1,Misratah,LY-MI,,,
GADM-LBY.16_1,Murzuq,LY-MQ,,,
GADM-LBY.17_1,Nalut,LY-NL,,,
GADM-LBY.18_1,Sabha,LY-SB,,,
GADM-MDA.1_1,Anenii Noi,MD-AN,,,
GADM-MDA.3_1,Basarabeasca,MD-BS,,,
GADM-MDA.4_1,Bender,MD-BD,,,
GADM-MDA.5_1,Briceni,MD-BR,,,
GADM-MDA.6_1,Cahul,MD-CA,,,
GADM-MDA.7_1,Calarasi,MD-CL,,,
GADM-MDA.8_1,Cantemir,MD-CT,,,
GADM-MDA.9_1,Causeni,MD-CS,,,
GADM-MDA.12_1,Criuleni,MD-CR,,,
GADM-MDA.13_1,Donduseni,MD-DO,,,
GADM-MDA.14_1,Drochia,MD-DR,,,
GADM-MDA.20_1,Glodeni,MD-GL,,,
GADM-MDA.22_1,Ialoveni,MD-IA,,,
GADM-MDA.23_1,Leova,MD-LE,,,
GADM-MDA.24_1,Nisporeni,MD-NI,,,
GADM-MDA.26_1,Orhei,MD-OR,,,
GADM-MDA.27_1,Rezina,MD-RE,,,
GADM-MDA.31_1,Soroca,MD-SO,,,
GADM-MDA.34_1,Taraclia,MD-TA,,,
GADM-MDA.37_1,Ungheni,MD-UN,,,
GADM-MNE.2_1,Bar,ME-02,,,
GADM-MNE.3_1,Berane,ME-03,,,
GADM-MNE.4_1,Bijelo Polje,ME-04,,,
GADM-MNE.5_1,Budva,ME-05,,,
GADM-MNE.6_1,Cetinje,ME-06,,,
GADM-MNE.7_1,Danilovgrad,ME-07,,,
GADM-MNE.10_1,Kotor,ME-10,,,
GADM-MNE.13_1,Plav,ME-13,,,
GADM-MNE.14_1,Pljevlja,ME-14,,,
GADM-MNE.16_1,Podgorica,ME-16,,,
GADM-MNE.19_1,Tivat,ME-19,,,
GADM-MNE.20_1,Ulcinj,ME-20,,,
GADM-MDG.1_1,Antananarivo,MG-T,,,
GADM-MDG.2_1,Antsiranana,MG-D,,,
GADM-MDG.3_1,Fianarantsoa,MG-F,,,
GADM-MDG.4_1,Mahajanga,MG-M,,,
GADM-MDG.5_1,Toamasina,MG-A,,,
GADM-MKD.2_1,Aracinovo,MK-802,,,
GADM-MKD.3_1,Berovo,MK-201,,,
GADM-MKD.4_1,Bitola,MK-501,,,
GADM-MKD.5_1,Bogdanci,MK-401,,,
GADM-MKD.6_1,Bogovinje,MK-601,,,
GADM-MKD.7_1,Bosilovo,MK-402,,,
GADM-MKD.8_1,Brvenica,MK-602,,,
GADM-MKD.13_1,Centar župa,MK-313,,,
GADM-MKD.16_1,Debar,MK-303,,,
GADM-MKD.18_1,Delčevo,MK-203,,,
GADM-MKD.20_1,Demir Kapija,MK-103,,,
GADM-MKD.21_1,Dolneni,MK-503,,,
GADM-MKD.24_1,Gevgelija,MK-405,,,
GADM-MKD.26_1,Gostivar,MK-604,,,
GADM-MKD.28_1,Ilinden,MK-807,,,
GADM-MKD.30_1,Karbinci,MK-205,,,
GADM-MKD.33_1,Kičevo,MK-307,,,
GADM-MKD.35_1,Kočani,MK-206,,,
GADM-MKD.37_1,Kratovo,MK-701,,,
GADM-MKD.38_1,Kriva Palanka,MK-702,,,
GADM-MKD.41_1,Kumanovo,MK-703,,,
GADM-MKD.43_1,Lipkovo,MK-704,,,
GADM-MKD.45_1,Makedonska Kamenica,MK-207,,,
GADM-MKD.49_1,Negotino,MK-106,,,
GADM-MKD.51_1,Novo Selo,MK-408,,,
GADM-MKD.52_1,Ohrid,MK-310,,,
GADM-MKD.55_1,Petrovec,MK-810,,,
GADM-MKD.56_1,Plasnica,MK-311,,,
GADM-MKD.57_1,Prilep,MK-508,,,
GADM-MKD.58_1,Probištip,MK-209,,,
GADM-MKD.59_1,Radoviš,MK-409,,,
GADM-MKD.61_1,Resen,MK-509,,,
GADM-MKD.62_1,Rosoman,MK-107,,,
GADM-MKD.64_1,Sopište,MK-812,,,
GADM-MKD.68_1,Struga,MK-312,,,
GADM-MKD.70_1,Studeničani,MK-813,,,
GADM-MKD.72_1,Sveti Nikole,MK-108,,,
GADM-MKD.73_1,Tearce,MK-608,,,
GADM-MKD.74_1,Tetovo,MK-609,,,
GADM-MKD.75_1,Valandovo,MK-403,,,
GADM-MKD.76_1,Vasilevo,MK-404,,,
GADM-MKD.77_1,Veles,MK-101,,,
GADM-MKD.78_1,Vevčani,MK-301,,,
GADM-MKD.83_1,Zelenikovo,MK-806,,,
GADM-MLI.1_1,Bamako,ML-BKO,,,
GADM-MLI.2_1,Gao,ML-7,,,
GADM-MLI.3_1,Kayes,ML-1,,,
GADM-MLI.4_1,Kidal,ML-8,,,
GADM-MLI.5_1,Koulikoro,ML-2,,,
GADM-MLI.6_1,Mopti,ML-5,,,
GADM-MLI.7_1,Ségou,ML-4,,,
GADM-MLI.8_1,Sikasso,ML-3,,,
GADM-MMR.1_1,Ayeyarwady,MM-07,,,
GADM-MMR.2_1,Bago,MM-02,,,
GADM-MMR.3_1,Chin,MM-14,,,
GADM-MMR.4_1,Kachin,MM-11,,,
GADM-MMR.5_1,Kayah,MM-12,,,
GADM-MMR.6_1,Kayin,MM-13,,,
GADM-MMR.7_1,Magway,MM-03,,,
GADM-MMR.8_1,Mandalay,MM-04,,,
GADM-MMR.9_1,Mon,MM-15,,,
GADM-MMR.12_1,Sagaing,MM-01,,,
GADM-MMR.13_1,Shan,MM-17,,,
GADM-MMR.14_1,Tanintharyi,MM-05,,,
GADM-MMR.15_1,Yangon,MM-06,,,
GADM-MNG.7_1,Dornogovi,MN-063,,,
GADM-MNG.10_1,Govi-Altay,MN-065,,,
GADM-MNG.16_1,Orhon,MN-035,,,
GADM-MNG.18_1,Selenge,MN-049,,,
GADM-MNG.21_1,Ulaanbaatar,MN-1,,,
GADM-MRT.4_1,Dakhlet Nouadhibou,MR-08,,,
GADM-MRT.12_1,Tiris Zemmour,MR-11,,,
GADM-MRT.13_1,Trarza,MR-06,,,
GADM-MSR.3_1,Saint Peter,,,,
GADM-MUS.2_1,Black River,MU-BL,,,
GADM-MUS.3_1,Flacq,MU-FL,,,
GADM-MUS.4_1,Grand Port,MU-GP,,,
GADM-MUS.5_1,Moka,MU-MO,,,
GADM-MUS.6_1,Pamplemousses,MU-PA,,,
GADM-MUS.7_1,Plaines Wilhems,MU-PW,,,
GADM-MUS.8_1,Port Louis,MU-PL,,,
GADM-MUS.12_1,Savanne,MU-SA,,,
GADM-MWI.1_1,Balaka,MW-BA,,,
GADM-MWI.2_1,Blantyre,MW-BL,,,
GADM-MWI.7_1,Dowa,MW-DO,,,
GADM-MWI.11_1,Lilongwe,MW-LI,,,
GADM-MWI.12_1,Machinga,MW-MH,,,
GADM-MWI.13_1,Mangochi,MW-MG,,,
GADM-MWI.17_1,Mzimba,MW-MZ,,,
GADM-MWI.23_1,Ntchisi,MW-NI,,,
GADM-MWI.26_1,Salima,MW-SA,,,
GADM-MWI.28_1,Zomba,MW-ZO,,,
GADM-MEX.1_1,Aguascalientes,MX-AGU,,,
GADM-MEX.3_1,Baja California,MX-BCN,,,
GADM-MEX.2_1,Baja California Sur,MX-BCS,,,
GADM-MEX.4_1,Campeche,MX-CAM,,,
GADM-MEX.5_1,Chiapas,MX-CHP,,,
GADM-MEX.6_1,Chihuahua,MX-CHH,,,
GADM-MEX.8_1,Colima,MX-COL,,,
GADM-MEX.10_1,Durango,MX-DUR,,,
GADM-MEX.11_1,Guanajuato,MX-GUA,,,
GADM-MEX.12_1,Guerrero,MX-GRO,,,
GADM-MEX.13_1,Hidalgo,MX-HID,,,
GADM-MEX.14_1,Jalisco,MX-JAL,,,
GADM-MEX.17_1,Morelos,MX-MOR,,,
GADM-MEX.18_1,Nayarit,MX-NAY,,,
GADM-MEX.20_1,Oaxaca,MX-OAX,,,
GADM-MEX.21_1,Puebla,MX-PUE,,,
GADM-MEX.23_1,Quintana Roo,MX-ROO,,,
GADM-MEX.25_1,Sinaloa,MX-SIN,,,
GADM-MEX.26_1,Sonora,MX-SON,,,
GADM-MEX.27_1,Tabasco,MX-TAB,,,
GADM-MEX.28_1,Tamaulipas,MX-TAM,,,
GADM-MEX.29_1,Tlaxcala,MX-TLA,,,
GADM-MEX.32_1,Zacatecas,MX-ZAC,,,
GADM-MYS.1_1,Johor,MY-01,,,
GADM-MYS.2_1,Kedah,MY-02,,,
GADM-MYS.3_1,Kelantan,MY-03,,,
GADM-MYS.6_1,Melaka,MY-04,,,
GADM-MYS.7_1,Negeri Sembilan,MY-05,,,
GADM-MYS.8_1,Pahang,MY-06,,,
GADM-MYS.9_1,Perak,MY-08,,,
GADM-MYS.10_1,Perlis,MY-09,,,
GADM-MYS.11_1,Pulau Pinang,MY-07,,,
GADM-MYS.13_1,Sabah,MY-12,,,
GADM-MYS.14_1,Sarawak,MY-13,,,
GADM-MYS.15_1,Selangor,MY-10,,,
GADM-MOZ.1_1,Cabo Delgado,MZ-P,,,
GADM-MOZ.2_1,Gaza,MZ-G,,,
GADM-MOZ.3_1,Inhambane,MZ-I,,,
GADM-MOZ.4_1,Manica,MZ-B,,,
GADM-MOZ.6_1,Maputo,MZ-L,,,
GADM-MOZ.7_1,Nampula,MZ-N,,,
GADM-MOZ.8_1,Nassa,MZ-A,,,
GADM-MOZ.9_1,Sofala,MZ-S,,,
GADM-MOZ.10_1,Tete,MZ-T,,,
GADM-MOZ.11_1,Zambezia,MZ-Q,,,
GADM-NER.1_1,Agadez,NE-1,,,
GADM-NER.2_1,Diffa,NE-2,,,
GADM-NER.3_1,Dosso,NE-3,,,
GADM-NER.5_1,Niamey,NE-8,,,
GADM-NER.6_1,Tahoua,NE-5,,,
GADM-NER.8_1,Zinder,NE-7,,,
GADM-NGA.1_1,Abia,NG-AB,,,
GADM-NGA.2_1,Adamawa,NG-AD,,,
GADM-NGA.3_1,Akwa Ibom,NG-AK,,,
GADM-NGA.4_1,Anambra,NG-AN,,,
GADM-NGA.5_1,Bauchi,NG-BA,,,
GADM-NGA.6_1,Bayelsa,NG-BY,,,
GADM-NGA.7_1,Benue,NG-BE,,,
GADM-NGA.8_1,Borno,NG-BO,,,
GADM-NGA.9_1,Cross River,NG-CR,,,
GADM-NGA.10_1,Delta,NG-DE,,,
GADM-NGA.11_1,Ebonyi,NG-EB,,,
GADM-NGA.12_1,Edo,NG-ED,,,
GADM-NGA.13_1,Ekiti,NG-EK,,,
GADM-NGA.14_1,Enugu,NG-EN,,,
GADM-NGA.16_1,Gombe,NG-GO,,,
GADM-NGA.17_1,Imo,NG-IM,,,
GADM-NGA.18_1,Jigawa,NG-JI,,,
GADM-NGA.19_1,Kaduna,NG-KD,,,
GADM-NGA.20_1,Kano,NG-KN,,,
GADM-NGA.21_1,Katsina,NG-KT,,,
GADM-NGA.22_1,Kebbi,NG-KE,,,
GADM-NGA.23_1,Kogi,NG-KO,,,
GADM-NGA.24_1,Kwara,NG-KW,,,
GADM-NGA.25_1,Lagos,NG-LA,,,
GADM-NGA.27_1,Niger,NG-NI,,,
GADM-NGA.28_1,Ogun,NG-OG,,,
GADM-NGA.29_1,Ondo,NG-ON,,,
GADM-NGA.30_1,Osun,NG-OS,,,
GADM-NGA.31_1,Oyo,NG-OY,,,
GADM-NGA.32_1,Plateau,NG-PL,,,
GADM-NGA.33_1,Rivers,NG-RI,,,
GADM-NGA.34_1,Sokoto,NG-SO,,,
GADM-NGA.35_1,Taraba,NG-TA,,,
GADM-NGA.36_1,Yobe,NG-YO,,,
GADM-NGA.37_1,Zamfara,NG-ZA,,,
GADM-NIC.3_1,Boaco,NI-BO,,,
GADM-NIC.4_1,Carazo,NI-CA,,,
GADM-NIC.5_1,Chinandega,NI-CI,,,
GADM-NIC.6_1,Chontales,NI-CO,,,
GADM-NIC.8_1,Granada,NI-GR,,,
GADM-NIC.9_1,Jinotega,NI-JI,,,
GADM-NIC.12_1,Madriz,NI-MD,,,
GADM-NIC.13_1,Managua,NI-MN,,,
GADM-NIC.14_1,Masaya,NI-MS,,,
GADM-NIC.15_1,Matagalpa,NI-MT,,,
GADM-NIC.16_1,Nueva Segovia,NI-NS,,,
GADM-NIC.18_1,Rivas,NI-RI,,,
GADM-NLD.1_1,Drenthe,NL-DR,,,
GADM-NLD.2_1,Flevoland,NL-FL,,,
GADM-NLD.4_1,Gelderland,NL-GE,,,
GADM-NLD.5_1,Groningen,NL-GR,,,
GADM-NLD.7_1,Limburg,NL-LI,,,
GADM-NLD.8_1,Noord-Brabant,NL-NB,,,
GADM-NLD.9_1,Noord-Holland,NL-NH,,,
GADM-NLD.10_1,Overijssel,NL-OV,,,
GADM-NLD.11_1,Utrecht,NL-UT,,,
GADM-NLD.12_1,Zeeland,NL-ZE,,,
GADM-NLD.14_1,Zuid-Holland,NL-ZH,,,
GADM-NOR.1_1,Akershus,NO-02,,,
GADM-NOR.3_1,Aust-Agder,NO-09,,,
GADM-NOR.4_1,Buskerud,NO-06,,,
GADM-NOR.5_1,Finnmark,NO-20,,,
GADM-NOR.6_1,Hedmark,NO-04,,,
GADM-NOR.7_1,Hordaland,NO-12,,,
GADM-NOR.10_1,Nordland,NO-18,,,
GADM-NOR.11_1,Oppland,NO-05,,,
GADM-NOR.12_1,Oslo,NO-03,,,
GADM-NOR.13_1,Rogaland,NO-11,,,
GADM-NOR.14_1,Sogn og Fjordane,NO-14,,,
GADM-NOR.16_1,Telemark,NO-08,,,
GADM-NOR.17_1,Troms,NO-19,,,
GADM-NOR.18_1,Vest-Agder,NO-10,,,
GADM-NOR.19_1,Vestfold,NO-07,,,
GADM-NRU.14_1,Yaren,NR-14,,,
GADM-NZL.1_1,Auckland,NZ-AUK,,,
GADM-NZL.2_1,Bay of Plenty,NZ-BOP,,,
GADM-NZL.3_1,Canterbury,NZ-CAN,,,
GADM-NZL.5_1,Gisborne,NZ-GIS,,,
GADM-NZL.6_1,Hawke's Bay,NZ-HKB,,,
GADM-NZL.7_1,Manawatu-Wanganui,NZ-MWT,,,
GADM-NZL.8_1,Marlborough,NZ-MBH,,,
GADM-NZL.9_1,Nelson,NZ-NSN,,,
GADM-NZL.11_1,Northland,NZ-NTL,,,
GADM-NZL.12_1,Otago,NZ-OTA,,,
GADM-NZL.14_1,Southland,NZ-STL,,,
GADM-NZL.15_1,Taranaki,NZ-TKI,,,
GADM-NZL.16_1,Tasman,NZ-TAS,,,
GADM-NZL.17_1,Waikato,NZ-WKO,,,
GADM-NZL.18_1,Wellington,NZ-WGN,,,
GADM-NZL.19_1,West Coast,NZ-WTC,,,
GADM-OMN.1_1,Ad Dakhliyah,OM-DA,,,
GADM-OMN.4_1,Al Buraymi,OM-BU,,,
GADM-OMN.6_1,Al Wusta,OM-WU,,,
GADM-OMN.11_1,Muscat,OM-MA,,,
GADM-OMN.10_1,Musandam,OM-MU,,,
GADM-PAN.1_1,Bocas del Toro,PA-1,,,
GADM-PAN.7_1,Herrera,PA-6,,,
GADM-PAN.9_1,Los Santos,PA-7,,,
GADM-PAN.13_1,Veraguas,PA-9,,,
GADM-PER.1_1,Amazonas,PE-AMA,,,
GADM-PER.2_1,Ancash,PE-ANC,,,
GADM-PER.4_1,Arequipa,PE-ARE,,,
GADM-PER.5_1,Ayacucho,PE-AYA,,,
GADM-PER.6_1,Cajamarca,PE-CAJ,,,
GADM-PER.8_1,Cusco,PE-CUS,,,
GADM-PER.7_1,Callao,PE-CAL,,,
GADM-PER.9_1,Huancavelica,PE-HUV,,,
GADM-PER.11_1,Ica,PE-ICA,,,
GADM-PER.13_1,La Libertad,PE-LAL,,,
GADM-PER.14_1,Lambayeque,PE-LAM,,,
GADM-PER.16_1,Lima,PE-LIM,,,
GADM-PER.17_1,Loreto,PE-LOR,,,
GADM-PER.18_1,Madre de Dios,PE-MDD,,,
GADM-PER.19_1,Moquegua,PE-MOQ,,,
GADM-PER.20_1,Pasco,PE-PAS,,,
GADM-PER.21_1,Piura,PE-PIU,,,
GADM-PER.22_1,Puno,PE-PUN,,,
GADM-PER.24_1,Tacna,PE-TAC,,,
GADM-PER.25_1,Tumbes,PE-TUM,,,
GADM-PER.26_1,Ucayali,PE-UCA,,,
GADM-PNG.1_1,Bougainville,PG-NSB,,,
GADM-PNG.2_1,Central,PG-CPM,,,
GADM-PNG.3_1,Chimbu,PG-CPK,,,
GADM-PNG.4_1,East New Britain,PG-EBR,,,
GADM-PNG.5_1,East Sepik,PG-ESW,,,
GADM-PNG.6_1,Eastern Highlands,PG-EHG,,,
GADM-PNG.11_1,Madang,PG-MPM,,,
GADM-PNG.12_1,Manus,PG-MRL,,,
GADM-PNG.13_1,Milne Bay,PG-MBA,,,
GADM-PNG.14_1,Morobe,PG-MPL,,,
GADM-PNG.16_1,New Ireland,PG-NIK,,,
GADM-PNG.19_1,Southern Highlands,PG-SHM,,,
GADM-PNG.20_1,West New Britain,PG-WBK,,,
GADM-PNG.18_1,Sandaun,PG-SAN,,,
GADM-PNG.22_1,Western,PG-WPD,,,
GADM-PNG.21_1,Western Highlands,PG-WHM,,,
GADM-PHL.1_1,Abra,PH-ABR,,,
GADM-PHL.2_1,Agusan del Norte,PH-AGN,,,
GADM-PHL.3_1,Agusan del Sur,PH-AGS,,,
GADM-PHL.4_1,Aklan,PH-AKL,,,
GADM-PHL.5_1,Albay,PH-ALB,,,
GADM-PHL.6_1,Antique,PH-ANT,,,
GADM-PHL.7_1,Apayao,PH-APA,,,
GADM-PHL.8_1,Aurora,PH-AUR,,,
GADM-PHL.9_1,Basilan,PH-BAS,,,
GADM-PHL.10_1,Bataan,PH-BAN,,,
GADM-PHL.11_1,Batanes,PH-BTN,,,
GADM-PHL.12_1,Batangas,PH-BTG,,,
GADM-PHL.13_1,Benguet,PH-BEN,,,
GADM-PHL.14_1,Biliran,PH-BIL,,,
GADM-PHL.15_1,Bohol,PH-BOH,,,
GADM-PHL.16_1,Bukidnon,PH-BUK,,,
GADM-PHL.17_1,Bulacan,PH-BUL,,,
GADM-PHL.18_1,Cagayan,PH-CAG,,,
GADM-PHL.19_1,Camarines Norte,PH-CAN,,,
GADM-PHL.20_1,Camarines Sur,PH-CAS,,,
GADM-PHL.21_1,Camiguin,PH-CAM,,,
GADM-PHL.22_1,Capiz,PH-CAP,,,
GADM-PHL.23_1,Catanduanes,PH-CAT,,,
GADM-PHL.24_1,Cavite,PH-CAV,,,
GADM-PHL.25_1,Cebu,PH-CEB,,,
GADM-PHL.26_1,Compostela Valley,PH-COM,,,
GADM-PHL.29_1,Davao Oriental,PH-DAO,,,
GADM-PHL.27_1,Davao del Norte,PH-DAV,,,
GADM-PHL.28_1,Davao del Sur,PH-DAS,,,
GADM-PHL.30_1,Dinagat Islands,PH-DIN,,,
GADM-PHL.31_1,Eastern Samar,PH-EAS,,,
GADM-PHL.32_1,Guimaras,PH-GUI,,,
GADM-PHL.33_1,Ifugao,PH-IFU,,,
GADM-PHL.34_1,Ilocos Norte,PH-ILN,,,
GADM-PHL.35_1,Ilocos Sur,PH-ILS,,,
GADM-PHL.36_1,Iloilo,PH-ILI,,,
GADM-PHL.37_1,Isabela,PH-ISA,,,
GADM-PHL.38_1,Kalinga,PH-KAL,,,
GADM-PHL.39_1,La Union,PH-LUN,,,
GADM-PHL.40_1,Laguna,PH-LAG,,,
GADM-PHL.41_1,Lanao del Norte,PH-LAN,,,
GADM-PHL.42_1,Lanao del Sur,PH-LAS,,,
GADM-PHL.43_1,Leyte,PH-LEY,,,
GADM-PHL.44_1,Maguindanao,PH-MAG,,,
GADM-PHL.45_1,Marinduque,PH-MAD,,,
GADM-PHL.46_1,Masbate,PH-MAS,,,
GADM-PHL.48_1,Misamis Occidental,PH-MSC,,,
GADM-PHL.49_1,Misamis Oriental,PH-MSR,,,
GADM-PHL.50_1,Mountain Province,PH-MOU,,,
GADM-PHL.51_1,Negros Occidental,PH-NEC,,,
GADM-PHL.52_1,Negros Oriental,PH-NER,,,
GADM-PHL.54_1,Northern Samar,PH-NSA,,,
GADM-PHL.55_1,Nueva Ecija,PH-NUE,,,
GADM-PHL.56_1,Nueva Vizcaya,PH-NUV,,,
GADM-PHL.59_1,Palawan,PH-PLW,,,
GADM-PHL.60_1,Pampanga,PH-PAM,,,
GADM-PHL.61_1,Pangasinan,PH-PAN,,,
GADM-PHL.62_1,Quezon,PH-QUE,,,
GADM-PHL.63_1,Quirino,PH-QUI,,,
GADM-PHL.64_1,Rizal,PH-RIZ,,,
GADM-PHL.65_1,Romblon,PH-ROM,,,
GADM-PHL.66_1,Samar,PH-WSA,,,
GADM-PHL.67_1,Sarangani,PH-SAR,,,
GADM-PHL.68_1,Siquijor,PH-SIG,,,
GADM-PHL.69_1,Sorsogon,PH-SOR,,,
GADM-PHL.70_1,South Cotabato,PH-SCO,,,
GADM-PHL.71_1,Southern Leyte,PH-SLE,,,
GADM-PHL.72_1,Sultan Kudarat,PH-SUK,,,
GADM-PHL.73_1,Sulu,PH-SLU,,,
GADM-PHL.74_1,Surigao del Norte,PH-SUN,,,
GADM-PHL.75_1,Surigao del Sur,PH-SUR,,,
GADM-PHL.76_1,Tarlac,PH-TAR,,,
GADM-PHL.77_1,Tawi-Tawi,PH-TAW,,,
GADM-PHL.78_1,Zambales,PH-ZMB,,,
GADM-PHL.81_1,Zamboanga Sibugay,PH-ZSI,,,
GADM-PHL.79_1,Zamboanga del Norte,PH-ZAN,,,
GADM-PHL.80_1,Zamboanga del Sur,PH-ZAS,,,
GADM-PAK.3_1,F.A.T.A.,PK-TA,,,
GADM-PAK.7_1,Punjab,PK-PB,,,
GADM-PAK.8_1,Sind,PK-SD,,,
GADM-POL.4_1,Lubelskie,PL-06,,,
GADM-POL.5_1,Lubuskie,PL-08,,,
GADM-POL.7_1,Mazowieckie,PL-14,,,
GADM-POL.8_1,Opolskie,PL-16,,,
GADM-POL.9_1,Podkarpackie,PL-18,,,
GADM-POL.10_1,Podlaskie,PL-20,,,
GADM-POL.11_1,Pomorskie,PL-22,,,
GADM-POL.15_1,Wielkopolskie,PL-30,,,
GADM-POL.16_1,Zachodniopomorskie,PL-32,,,
GADM-PRI.1_1,Adjuntas,,,,
GADM-PRI.2_1,Aguada,,,,
GADM-PRI.3_1,Aguadilla,,,,
GADM-PRI.4_1,Aguas Buenas,,,,
GADM-PRI.5_1,Aibonito,,,,
GADM-PRI.7_1,Arecibo,,,,
GADM-PRI.8_1,Arroyo,,,,
GADM-PRI.9_1,Barceloneta,,,,
GADM-PRI.10_1,Barranquitas,,,,
GADM-PRI.12_1,Cabo Rojo,,,,
GADM-PRI.13_1,Caguas,,,,
GADM-PRI.14_1,Camuy,,,,
GADM-PRI.16_1,Carolina,,,,
GADM-PRI.18_1,Cayey,,,,
GADM-PRI.19_1,Ceiba,,,,
GADM-PRI.20_1,Ciales,,,,
GADM-PRI.21_1,Cidra,,,,
GADM-PRI.22_1,Coamo,,,,
GADM-PRI.24_1,Corozal,,,,
GADM-PRI.25_1,Culebra,,,,
GADM-PRI.26_1,Dorado,,,,
GADM-PRI.27_1,Fajardo,,,,
GADM-PRI.28_1,Florida,,,,
GADM-PRI.30_1,Guayama,,,,
GADM-PRI.31_1,Guayanilla,,,,
GADM-PRI.32_1,Guaynabo,,,,
GADM-PRI.33_1,Gurabo,,,,
GADM-PRI.34_1,Hatillo,,,,
GADM-PRI.35_1,Hormigueros,,,,
GADM-PRI.36_1,Humacao,,,,
GADM-PRI.37_1,Isabela,,,,
GADM-PRI.41_1,Lajas,,,,
GADM-PRI.42_1,Lares,,,,
GADM-PRI.44_1,Las Piedras,,,,
GADM-PRI.46_1,Luquillo,,,,
GADM-PRI.48_1,Maricao,,,,
GADM-PRI.51_1,Moca,,,,
GADM-PRI.52_1,Morovis,,,,
GADM-PRI.53_1,Naguabo,,,,
GADM-PRI.54_1,Naranjito,,,,
GADM-PRI.56_1,Patillas,,,,
GADM-PRI.58_1,Ponce,,,,
GADM-PRI.59_1,Quebradillas,,,,
GADM-PRI.62_1,Sabana Grande,,,,
GADM-PRI.63_1,Salinas,,,,
GADM-PRI.65_1,San Juan,,,,
GADM-PRI.66_1,San Lorenzo,,,,
GADM-PRI.69_1,Toa Alta,,,,
GADM-PRI.70_1,Toa Baja,,,,
GADM-PRI.71_1,Trujillo Alto,,,,
GADM-PRI.72_1,Utuado,,,,
GADM-PRI.73_1,Vega Alta,,,,
GADM-PRI.74_1,Vega Baja,,,,
GADM-PRI.75_1,Vieques,,,,
GADM-PRI.76_1,Villalba,,,,
GADM-PRI.77_1,Yabucoa,,,,
GADM-PRI.78_1,Yauco,,,,
GADM-PSE.1_1,Gaza,PS-GZA,,,
GADM-PRT.1_1,Aveiro,PT-01,,,
GADM-PRT.3_1,Beja,PT-02,,,
GADM-PRT.4_1,Braga,PT-03,,,
GADM-PRT.6_1,Castelo Branco,PT-05,,,
GADM-PRT.7_1,Coimbra,PT-06,,,
GADM-PRT.9_1,Faro,PT-08,,,
GADM-PRT.10_1,Guarda,PT-09,,,
GADM-PRT.11_1,Leiria,PT-10,,,
GADM-PRT.12_1,Lisboa,PT-11,,,
GADM-PRT.14_1,Portalegre,PT-12,,,
GADM-PRT.15_1,Porto,PT-13,,,
GADM-PRT.18_1,Viana do Castelo,PT-16,,,
GADM-PRT.19_1,Vila Real,PT-17,,,
GADM-PRT.20_1,Viseu,PT-18,,,
GADM-PLW.2_1,Airai,PW-004,,,
GADM-PLW.5_1,Kayangel,PW-100,,,
GADM-PLW.6_1,Koror,PW-150,,,
GADM-PLW.7_1,Melekeok,PW-212,,,
GADM-PLW.8_1,Ngaraard,PW-214,,,
GADM-PLW.10_1,Ngardmau,PW-222,,,
GADM-PRY.1_1,Alto Paraguay,PY-16,,,
GADM-PRY.3_1,Amambay,PY-13,,,
GADM-PRY.9_1,Central,PY-11,,,
GADM-PRY.11_1,Cordillera,PY-3,,,
GADM-PRY.14_1,Misiones,PY-8,,,
GADM-PRY.17_1,Presidente Hayes,PY-15,,,
GADM-PRY.18_1,San Pedro,PY-2,,,
GADM-QAT.1_1,Ad Dawhah,QA-DA,,,
GADM-QAT.4_1,Al Wakrah,QA-WA,,,
GADM-QAT.5_1,Ar Rayyan,QA-RA,,,
GADM-QAT.7_1,Umm Salal,QA-US,,,
GADM-ROU.1_1,Alba,RO-AB,,,
GADM-ROU.2_1,Arad,RO-AR,,,
GADM-ROU.3_1,Argeș,RO-AG,,,
GADM-ROU.4_1,Bacău,RO-BC,,,
GADM-ROU.5_1,Bihor,RO-BH,,,
GADM-ROU.7_1,Botoșani,RO-BT,,,
GADM-ROU.9_1,Brăila,RO-BR,,,
GADM-ROU.8_1,Brașov,RO-BV,,,
GADM-ROU.10_1,Bucharest,RO-B,,,
GADM-ROU.11_1,Buzău,RO-BZ,,,
GADM-ROU.12_1,Călărași,RO-CL,,,
GADM-ROU.14_1,Cluj,RO-CJ,,,
GADM-ROU.15_1,Constanța,RO-CT,,,
GADM-ROU.16_1,Covasna,RO-CV,,,
GADM-ROU.17_1,Dâmbovița,RO-DB,,,
GADM-ROU.18_1,Dolj,RO-DJ,,,
GADM-ROU.19_1,Galați,RO-GL,,,
GADM-ROU.20_1,Giurgiu,RO-GR,,,
GADM-ROU.21_1,Gorj,RO-GJ,,,
GADM-ROU.22_1,Harghita,RO-HR,,,
GADM-ROU.23_1,Hunedoara,RO-HD,,,
GADM-ROU.25_1,Ialomița,RO-IL,,,
GADM-ROU.24_1,Iași,RO-IS,,,
GADM-ROU.26_1,Ilfov,RO-IF,,,
GADM-ROU.27_1,Maramureș,RO-MM,,,
GADM-ROU.28_1,Mehedinți,RO-MH,,,
GADM-ROU.29_1,Mureș,RO-MS,,,
GADM-ROU.30_1,Neamț,RO-NT,,,
GADM-ROU.31_1,Olt,RO-OT,,,
GADM-ROU.32_1,Prahova,RO-PH,,,
GADM-ROU.33_1,Sălaj,RO-SJ,,,
GADM-ROU.34_1,Satu Mare,RO-SM,,,
GADM-ROU.35_1,Sibiu,RO-SB,,,
GADM-ROU.36_1,Suceava,RO-SV,,,
GADM-ROU.37_1,Teleorman,RO-TR,,,
GADM-ROU.38_1,Timiș,RO-TM,,,
GADM-ROU.39_1,Tulcea,RO-TL,,,
GADM-ROU.40_1,Vâlcea,RO-VL,,,
GADM-ROU.41_1,Vaslui,RO-VS,,,
GADM-ROU.42_1,Vrancea,RO-VN,,,
GADM-RUS.44_1,Moskva,RU-MOW,,,
GADM-SAU.2_1,Al Bahah,SA-11,,,
GADM-SAU.3_1,Al Hudud ash Shamaliyah,SA-08,,,
GADM-SAU.4_1,Al Jawf,SA-12,,,
GADM-SAU.7_1,Ar Riyad,SA-01,,,
GADM-SAU.8_1,Ash Sharqiyah,SA-04,,,
GADM-SAU.9_1,Ha'il,SA-06,,,
GADM-SAU.12_1,Najran,SA-10,,,
GADM-SAU.13_1,Tabuk,SA-07,,,
GADM-SLB.2_1,Choiseul,SB-CH,,,
GADM-SLB.3_1,Guadalcanal,SB-GU,,,
GADM-SYC.2_1,Anse Boileau,SC-02,,,
GADM-SYC.1_1,Anse aux Pins,SC-01,,,
GADM-SYC.6_1,Baie Lazare,SC-06,,,
GADM-SYC.8_1,Beau Vallon,SC-08,,,
GADM-SYC.11_1,Cascade,SC-11,,,
GADM-SYC.12_1,English River,SC-16,,,
GADM-SYC.26_1,Takamaka,SC-23,,,
GADM-SDN.3_1,Blue Nile,SD-NB,,,
GADM-SDN.1_1,Al Jazirah,SD-GZ,,,
GADM-SDN.6_1,Kassala,SD-KA,,,
GADM-SDN.7_1,Khartoum,SD-KH,,,
GADM-SDN.8_1,North Darfur,SD-DN,,,
GADM-SDN.10_1,Northern,SD-NO,,,
GADM-SDN.11_1,Red Sea,SD-RS,,,
GADM-SDN.12_1,River Nile,SD-NR,,,
GADM-SDN.13_1,Sennar,SD-SI,,,
GADM-SDN.14_1,South Darfur,SD-DS,,,
GADM-SDN.16_1,West Darfur,SD-DW,,,
GADM-SDN.18_1,White Nile,SD-NW,,,
GADM-SHN.2_1,Saint Helena,SH-HL,,,
GADM-SVN.7_1,Osrednjeslovenska,SI-061,,,
GADM-SLE.1_1,Eastern,SL-E,,,
GADM-SLE.2_1,Northern,SL-N,,,
GADM-SMR.4_1,Domagnano,SM-03,,,
GADM-SMR.8_1,San Marino,SM-07,,,
GADM-SMR.9_1,Serravalle,SM-09,,,
GADM-SEN.1_1,Dakar,SN-DK,,,
GADM-SEN.2_1,Diourbel,SN-DB,,,
GADM-SEN.3_1,Fatick,SN-FK,,,
GADM-SEN.4_1,Kaffrine,SN-KA,,,
GADM-SEN.5_1,Kaolack,SN-KL,,,
GADM-SEN.8_1,Louga,SN-LG,,,
GADM-SEN.10_1,Saint-Louis,SN-SL,,,
GADM-SEN.12_1,Tambacounda,SN-TC,,,
GADM-SEN.14_1,Ziguinchor,SN-ZG,,,
GADM-SOM.1_1,Awdal,SO-AW,,,
GADM-SOM.3_1,Banaadir,SO-BN,,,
GADM-SOM.5_1,Bay,SO-BY,,,
GADM-SOM.12_1,Nugaal,SO-NU,,,
GADM-SOM.15_1,Shabeellaha Hoose,SO-SH,,,
GADM-SOM.17_1,Togdheer,SO-TO,,,
GADM-SOM.18_1,Woqooyi Galbeed,SO-WO,,,
GADM-SUR.1_1,Brokopondo,SR-BR,,,
GADM-SUR.2_1,Commewijne,SR-CM,,,
GADM-SUR.5_1,Nickerie,SR-NI,,,
GADM-SUR.6_1,Para,SR-PR,,,
GADM-SUR.7_1,Paramaribo,SR-PM,,,
GADM-SUR.8_1,Saramacca,SR-SA,,,
GADM-SUR.9_1,Sipaliwini,SR-SI,,,
GADM-SUR.10_1,Wanica,SR-WA,,,
GADM-SSD.1_1,Central Equatoria,SS-EC,,,
GADM-SSD.2_1,Eastern Equatoria,SS-EE,,,
GADM-SSD.4_1,Lakes,SS-LK,,,
GADM-SSD.6_1,Unity,SS-UY,,,
GADM-SSD.7_1,Upper Nile,SS-NU,,,
GADM-SLV.3_1,Chalatenango,SV-CH,,,
GADM-SLV.5_1,La Libertad,SV-LI,,,
GADM-SLV.6_1,La Paz,SV-PA,,,
GADM-SLV.9_1,San Miguel,SV-SM,,,
GADM-SLV.10_1,San Salvador,SV-SS,,,
GADM-SLV.11_1,San Vicente,SV-SV,,,
GADM-SLV.12_1,Santa Ana,SV-SA,,,
GADM-SLV.13_1,Sonsonate,SV-SO,,,
GADM-SYR.3_1,Ar Raqqah,SY-RA,,,
GADM-SYR.4_1,As Suwayda',SY-SU,,,
GADM-SYR.8_1,Hamah,SY-HM,,,
GADM-SYR.9_1,Hims,SY-HI,,,
GADM-SYR.10_1,Idlib,SY-ID,,,
GADM-SYR.13_1,Rif Dimashq,SY-RD,,,
GADM-SYR.14_1,Tartus,SY-TA,,,
GADM-SWZ.1_1,Hhohho,SZ-HH,,,
GADM-SWZ.2_1,Lubombo,SZ-LU,,,
GADM-SWZ.3_1,Manzini,SZ-MA,,,
GADM-TCD.11_1,Logone Occidental,TD-LO,,,
GADM-TCD.21_1,Tibesti,TD-TI,,,
GADM-TGO.2_1,Kara,TG-K,,,
GADM-TGO.3_1,Maritime,TG-M,,,
GADM-TGO.4_1,Plateaux,TG-P,,,
GADM-THA.1_1,Amnat Charoen,TH-37,,,
GADM-THA.2_1,Ang Thong,TH-15,,,
GADM-THA.4_1,Bueng Kan,TH-38,,,
GADM-THA.5_1,Buri Ram,TH-31,,,
GADM-THA.6_1,Chachoengsao,TH-24,,,
GADM-THA.7_1,Chai Nat,TH-18,,,
GADM-THA.8_1,Chaiyaphum,TH-36,,,
GADM-THA.9_1,Chanthaburi,TH-22,,,
GADM-THA.10_1,Chiang Mai,TH-50,,,
GADM-THA.11_1,Chiang Rai,TH-57,,,
GADM-THA.12_1,Chon Buri,TH-20,,,
GADM-THA.13_1,Chumphon,TH-86,,,
GADM-THA.14_1,Kalasin,TH-46,,,
GADM-THA.15_1,Kamphaeng Phet,TH-62,,,
GADM-THA.16_1,Kanchanaburi,TH-71,,,
GADM-THA.17_1,Khon Kaen,TH-40,,,
GADM-THA.18_1,Krabi,TH-81,,,
GADM-THA.19_1,Lampang,TH-52,,,
GADM-THA.20_1,Lamphun,TH-51,,,
GADM-THA.21_1,Loei,TH-42,,,
GADM-THA.22_1,Lop Buri,TH-16,,,
GADM-THA.23_1,Mae Hong Son,TH-58,,,
GADM-THA.24_1,Maha Sarakham,TH-44,,,
GADM-THA.25_1,Mukdahan,TH-49,,,
GADM-THA.26_1,Nakhon Nayok,TH-26,,,
GADM-THA.27_1,Nakhon Pathom,TH-73,,,
GADM-THA.28_1,Nakhon Phanom,TH-48,,,
GADM-THA.29_1,Nakhon Ratchasima,TH-30,,,
GADM-THA.30_1,Nakhon Sawan,TH-60,,,
GADM-THA.31_1,Nakhon Si Thammarat,TH-80,,,
GADM-THA.32_1,Nan,TH-55,,,
GADM-THA.33_1,Narathiwat,TH-96,,,
GADM-THA.34_1,Nong Bua Lam Phu,TH-39,,,
GADM-THA.35_1,Nong Khai,TH-43,,,
GADM-THA.36_1,Nonthaburi,TH-12,,,
GADM-THA.37_1,Pathum Thani,TH-13,,,
GADM-THA.38_1,Pattani,TH-94,,,
GADM-THA.39_1,Phangnga,TH-82,,,
GADM-THA.40_1,Phatthalung,TH-93,,,
GADM-THA.41_1,Phayao,TH-56,,,
GADM-THA.42_1,Phetchabun,TH-67,,,
GADM-THA.43_1,Phetchaburi,TH-76,,,
GADM-THA.44_1,Phichit,TH-66,,,
GADM-THA.45_1,Phitsanulok,TH-65,,,
GADM-THA.46_1,Phra Nakhon Si Ayutthaya,TH-14,,,
GADM-THA.47_1,Phrae,TH-54,,,
GADM-THA.48_1,Phuket,TH-83,,,
GADM-THA.49_1,Prachin Buri,TH-25,,,
GADM-THA.50_1,Prachuap Khiri Khan,TH-77,,,
GADM-THA.51_1,Ranong,TH-85,,,
GADM-THA.52_1,Ratchaburi,TH-70,,,
GADM-THA.53_1,Rayong,TH-21,,,
GADM-THA.54_1,Roi Et,TH-45,,,
GADM-THA.55_1,Sa Kaeo,TH-27,,,
GADM-THA.56_1,Sakon Nakhon,TH-47,,,
GADM-THA.57_1,Samut Prakan,TH-11,,,
GADM-THA.58_1,Samut Sakhon,TH-74,,,
GADM-THA.59_1,Samut Songkhram,TH-75,,,
GADM-THA.60_1,Saraburi,TH-19,,,
GADM-THA.61_1,Satun,TH-91,,,
GADM-THA.62_1,Si Sa Ket,TH-33,,,
GADM-THA.63_1,Sing Buri,TH-17,,,
GADM-THA.64_1,Songkhla,TH-90,,,
GADM-THA.65_1,Sukhothai,TH-64,,,
GADM-THA.66_1,Suphan Buri,TH-72,,,
GADM-THA.67_1,Surat Thani,TH-84,,,
GADM-THA.68_1,Surin,TH-32,,,
GADM-THA.69_1,Tak,TH-63,,,
GADM-THA.70_1,Trang,TH-92,,,
GADM-THA.71_1,Trat,TH-23,,,
GADM-THA.72_1,Ubon Ratchathani,TH-34,,,
GADM-THA.73_1,Udon Thani,TH-41,,,
GADM-THA.74_1,Uthai Thani,TH-61,,,
GADM-THA.75_1,Uttaradit,TH-53,,,
GADM-THA.76_1,Yala,TH-95,,,
GADM-THA.77_1,Yasothon,TH-35,,,
GADM-TJK.1_1,Dushanbe,TJ-DU,,,
GADM-TJK.3_1,Khatlon,TJ-KT,,,
GADM-TLS.2_1,Ainaro,TL-AN,,,
GADM-TLS.6_1,Covalima,TL-CO,,,
GADM-TLS.7_1,Dili,TL-DI,,,
GADM-TKM.1_1,Ahal,TM-A,,,
GADM-TKM.3_1,Balkan,TM-B,,,
GADM-TKM.5_1,Mary,TM-M,,,
GADM-TUN.4_1,Bizerte,TN-23,,,
GADM-TUN.6_1,Gafsa,TN-71,,,
GADM-TUN.7_1,Jendouba,TN-32,,,
GADM-TUN.8_1,Kairouan,TN-41,,,
GADM-TUN.10_1,Kebili,TN-73,,,
GADM-TUN.11_1,Le Kef,TN-33,,,
GADM-TUN.12_1,Mahdia,TN-53,,,
GADM-TUN.15_1,Monastir,TN-52,,,
GADM-TUN.16_1,Nabeul,TN-21,,,
GADM-TUN.17_1,Sfax,TN-61,,,
GADM-TUN.19_1,Siliana,TN-34,,,
GADM-TUN.20_1,Sousse,TN-51,,,
GADM-TUN.21_1,Tataouine,TN-83,,,
GADM-TUN.22_1,Tozeur,TN-72,,,
GADM-TUN.23_1,Tunis,TN-11,,,
GADM-TUN.24_1,Zaghouan,TN-22,,,
GADM-TON.3_1,Niuas,TO-03,,,
GADM-TON.4_1,Tongatapu,TO-04,,,
GADM-TUR.1_1,Adana,TR-01,,,
GADM-TUR.2_1,Adiyaman,TR-02,,,
GADM-TUR.3_1,Afyon,TR-03,,,
GADM-TUR.4_1,Agri,TR-04,,,
GADM-TUR.5_1,Aksaray,TR-68,,,
GADM-TUR.6_1,Amasya,TR-05,,,
GADM-TUR.7_1,Ankara,TR-06,,,
GADM-TUR.8_1,Antalya,TR-07,,,
GADM-TUR.9_1,Ardahan,TR-75,,,
GADM-TUR.10_1,Artvin,TR-08,,,
GADM-TUR.11_1,Aydin,TR-09,,,
GADM-TUR.12_1,Balikesir,TR-10,,,
GADM-TUR.14_1,Batman,TR-72,,,
GADM-TUR.15_1,Bayburt,TR-69,,,
GADM-TUR.16_1,Bilecik,TR-11,,,
GADM-TUR.18_1,Bitlis,TR-13,,,
GADM-TUR.19_1,Bolu,TR-14,,,
GADM-TUR.20_1,Burdur,TR-15,,,
GADM-TUR.21_1,Bursa,TR-16,,,
GADM-TUR.25_1,Denizli,TR-20,,,
GADM-TUR.26_1,Diyarbakir,TR-21,,,
GADM-TUR.28_1,Edirne,TR-22,,,
GADM-TUR.29_1,Elazığ,TR-23,,,
GADM-TUR.30_1,Erzincan,TR-24,,,
GADM-TUR.31_1,Erzurum,TR-25,,,
GADM-TUR.32_1,Eskisehir,TR-26,,,
GADM-TUR.33_1,Gaziantep,TR-27,,,
GADM-TUR.34_1,Giresun,TR-28,,,
GADM-TUR.36_1,Hakkari,TR-30,,,
GADM-TUR.37_1,Hatay,TR-31,,,
GADM-TUR.39_1,Isparta,TR-32,,,
GADM-TUR.40_1,Istanbul,TR-34,,,
GADM-TUR.41_1,Izmir,TR-35,,,
GADM-TUR.44_1,Karaman,TR-70,,,
GADM-TUR.45_1,Kars,TR-36,,,
GADM-TUR.46_1,Kastamonu,TR-37,,,
GADM-TUR.47_1,Kayseri,TR-38,,,
GADM-TUR.48_1,Kilis,TR-79,,,
GADM-TUR.50_1,Kirklareli,TR-39,,,
GADM-TUR.51_1,Kirsehir,TR-40,,,
GADM-TUR.52_1,Kocaeli,TR-41,,,
GADM-TUR.53_1,Konya,TR-42,,,
GADM-TUR.55_1,Malatya,TR-44,,,
GADM-TUR.56_1,Manisa,TR-45,,,
GADM-TUR.57_1,Mardin,TR-47,,,
GADM-TUR.58_1,Mersin,TR-33,,,
GADM-TUR.59_1,Mugla,TR-48,,,
GADM-TUR.60_1,Mus,TR-49,,,
GADM-TUR.61_1,Nevsehir,TR-50,,,
GADM-TUR.62_1,Nigde,TR-51,,,
GADM-TUR.63_1,Ordu,TR-52,,,
GADM-TUR.64_1,Osmaniye,TR-80,,,
GADM-TUR.65_1,Rize,TR-53,,,
GADM-TUR.66_1,Sakarya,TR-54,,,
GADM-TUR.67_1,Samsun,TR-55,,,
GADM-TUR.68_1,Sanliurfa,TR-63,,,
GADM-TUR.69_1,Siirt,TR-56,,,
GADM-TUR.70_1,Sinop,TR-57,,,
GADM-TUR.71_1,Sirnak,TR-73,,,
GADM-TUR.72_1,Sivas,TR-58,,,
GADM-TUR.73_1,Tekirdag,TR-59,,,
GADM-TUR.74_1,Tokat,TR-60,,,
GADM-TUR.75_1,Trabzon,TR-61,,,
GADM-TUR.76_1,Tunceli,TR-62,,,
GADM-TUR.77_1,Usak,TR-64,,,
GADM-TUR.78_1,Van,TR-65,,,
GADM-TUR.79_1,Yalova,TR-77,,,
GADM-TUR.80_1,Yozgat,TR-66,,,
GADM-TUR.81_1,Zinguldak,TR-67,,,
GADM-TTO.1_1,Arima,TT-ARI,,,
GADM-TTO.2_1,Chaguanas,TT-CHA,,,
GADM-TTO.3_1,Couva-Tabaquite-Talparo,TT-CTT,,,
GADM-TTO.4_1,Diego Martin,TT-DMN,,,
GADM-TTO.6_1,Penal-Debe,TT-PED,,,
GADM-TTO.7_1,Point Fortin,TT-PTF,,,
GADM-TTO.8_1,Port of Spain,TT-POS,,,
GADM-TTO.9_1,Princes Town,TT-PRT,,,
GADM-TTO.10_1,San Fernando,TT-SFO,,,
GADM-TTO.11_1,San Juan-Laventille,TT-SJL,,,
GADM-TTO.12_1,Sangre Grande,TT-SGE,,,
GADM-TTO.13_1,Siparia,TT-SIP,,,
GADM-TTO.14_1,Tobago,TT-TOB,,,
GADM-TUV.1_1,Funafuti,TV-FUN,,,
GADM-TWN.2_1,Kaohsiung,TW-KHH,,,
GADM-TWN.3_1,New Taipei,TW-NWT,,,
GADM-TWN.4_1,Taichung,TW-TXG,,,
GADM-TWN.5_1,Tainan,TW-TNN,,,
GADM-TWN.6_1,Taipei,TW-TPE,,,
GADM-TZA.1_1,Arusha,TZ-01,,,
GADM-TZA.2_1,Dar es Salaam,TZ-02,,,
GADM-TZA.3_1,Dodoma,TZ-03,,,
GADM-TZA.4_1,Geita,TZ-27,,,
GADM-TZA.5_1,Iringa,TZ-04,,,
GADM-TZA.6_1,Kagera,TZ-05,,,
GADM-TZA.28_1,Zanzibar North,TZ-07,,,
GADM-TZA.7_1,Katavi,TZ-28,,,
GADM-TZA.8_1,Kigoma,TZ-08,,,
GADM-TZA.9_1,Kilimanjaro,TZ-09,,,
GADM-TZA.19_1,Pemba South,TZ-10,,,
GADM-TZA.29_1,Zanzibar South and Central,TZ-11,,,
GADM-TZA.10_1,Lindi,TZ-12,,,
GADM-TZA.11_1,Manyara,TZ-26,,,
GADM-TZA.12_1,Mara,TZ-13,,,
GADM-TZA.13_1,Mbeya,TZ-14,,,
GADM-TZA.30_1,Zanzibar West,TZ-15,,,
GADM-TZA.14_1,Morogoro,TZ-16,,,
GADM-TZA.15_1,Mtwara,TZ-17,,,
GADM-TZA.16_1,Mwanza,TZ-18,,,
GADM-TZA.17_1,Njombe,TZ-29,,,
GADM-TZA.20_1,Pwani,TZ-19,,,
GADM-TZA.21_1,Rukwa,TZ-20,,,
GADM-TZA.22_1,Ruvuma,TZ-21,,,
GADM-TZA.23_1,Shinyanga,TZ-22,,,
GADM-TZA.24_1,Simiyu,TZ-30,,,
GADM-TZA.25_1,Singida,TZ-23,,,
GADM-TZA.26_1,Tabora,TZ-24,,,
GADM-TZA.27_1,Tanga,TZ-25,,,
GADM-UKR.11_1,Kiev City,UA-30,,,
GADM-UGA.3_1,Arua,UG-303,,,
GADM-UGA.4_1,Bugiri,UG-201,,,
GADM-UGA.8_1,Gulu,UG-304,,,
GADM-UGA.9_1,Hoima,UG-403,,,
GADM-UGA.10_1,Iganga,UG-203,,,
GADM-UGA.11_1,Jinja,UG-204,,,
GADM-UGA.12_1,Kabale,UG-404,,,
GADM-UGA.13_1,Kabarole,UG-405,,,
GADM-UGA.15_1,Kalangala,UG-101,,,
GADM-UGA.16_1,Kampala,UG-102,,,
GADM-UGA.17_1,Kamuli,UG-205,,,
GADM-UGA.20_1,Kapchorwa,UG-206,,,
GADM-UGA.21_1,Kasese,UG-406,,,
GADM-UGA.23_1,Kayunga,UG-112,,,
GADM-UGA.24_1,Kibale,UG-407,,,
GADM-UGA.25_1,Kiboga,UG-103,,,
GADM-UGA.27_1,Kitgum,UG-305,,,
GADM-UGA.29_1,Kumi,UG-208,,,
GADM-UGA.30_1,Kyenjojo,UG-415,,,
GADM-UGA.33_1,Lira,UG-307,,,
GADM-UGA.34_1,Luwero,UG-104,,,
GADM-UGA.35_1,Masaka,UG-105,,,
GADM-UGA.36_1,Masindi,UG-409,,,
GADM-UGA.37_1,Mayuge,UG-214,,,
GADM-UGA.38_1,Mbale,UG-209,,,
GADM-UGA.39_1,Mbarara,UG-410,,,
GADM-UGA.42_1,Mpigi,UG-106,,,
GADM-UGA.44_1,Mukono,UG-108,,,
GADM-UGA.50_1,Pallisa,UG-210,,,
GADM-UGA.52_1,Rukungiri,UG-412,,,
GADM-UGA.54_1,Sironko,UG-215,,,
GADM-UGA.55_1,Soroti,UG-211,,,
GADM-UGA.57_1,Wakiso,UG-113,,,
GADM-USA.1_1,Alabama,US-AL,,,
GADM-USA.2_1,Alaska,US-AK,,,
GADM-USA.3_1,Arizona,US-AZ,,,
GADM-USA.4_1,Arkansas,US-AR,,,
GADM-USA.5_1,California,US-CA,,,
GADM-USA.6_1,Colorado,US-CO,,,
GADM-USA.7_1,Connecticut,US-CT,,,
GADM-USA.8_1,Delaware,US-DE,,,
GADM-USA.9_1,District of Columbia,US-DC,,,
GADM-USA.10_1,Florida,US-FL,,,
GADM-USA.11_1,Georgia,US-GA,,,
GADM-USA.12_1,Hawaii,US-HI,,,
GADM-USA.13_1,Idaho,US-ID,,,
GADM-USA.14_1,Illinois,US-IL,,,
GADM-USA.15_1,Indiana,US-IN,,,
GADM-USA.16_1,Iowa,US-IA,,,
GADM-USA.17_1,Kansas,US-KS,,,
GADM-USA.18_1,Kentucky,US-KY,,,
GADM-USA.19_1,Louisiana,US-LA,,,
GADM-USA.20_1,Maine,US-ME,,,
GADM-USA.21_1,Maryland,US-MD,,,
GADM-USA.22_1,Massachusetts,US-MA,,,
GADM-USA.23_1,Michigan,US-MI,,,
GADM-USA.24_1,Minnesota,US-MN,,,
GADM-USA.25_1,Mississippi,US-MS,,,
GADM-USA.26_1,Missouri,US-MO,,,
GADM-USA.27_1,Montana,US-MT,,,
GADM-USA.28_1,Nebraska,US-NE,,,
GADM-USA.29_1,Nevada,US-NV,,,
GADM-USA.30_1,New Hampshire,US-NH,,,
GADM-USA.31_1,New Jersey,US-NJ,,,
GADM-USA.32_1,New Mexico,US-NM,,,
GADM-USA.33_1,New York,US-NY,,,
GADM-USA.34_1,North Carolina,US-NC,,,
GADM-USA.35_1,North Dakota,US-ND,,,
GADM-USA.36_1,Ohio,US-OH,,,
GADM-USA.37_1,Oklahoma,US-OK,,,
GADM-USA.38_1,Oregon,US-OR,,,
GADM-USA.39_1,Pennsylvania,US-PA,,,
GADM-USA.40_1,Rhode Island,US-RI,,,
GADM-USA.41_1,South Carolina,US-SC,,,
GADM-USA.42_1,South Dakota,US-SD,,,
GADM-USA.43_1,Tennessee,US-TN,,,
GADM-USA.44_1,Texas,US-TX,,,
GADM-USA.45_1,Utah,US-UT,,,
GADM-USA.46_1,Vermont,US-VT,,,
GADM-USA.47_1,Virginia,US-VA,,,
GADM-USA.48_1,Washington,US-WA,,,
GADM-USA.49_1,West Virginia,US-WV,,,
GADM-USA.50_1,Wisconsin,US-WI,,,
GADM-USA.51_1,Wyoming,US-WY,,,
GADM-URY.1_1,Artigas,UY-AR,,,
GADM-URY.2_1,Canelones,UY-CA,,,
GADM-URY.3_1,Cerro Largo,UY-CL,,,
GADM-URY.4_1,Colonia,UY-CO,,,
GADM-URY.5_1,Durazno,UY-DU,,,
GADM-URY.6_1,Flores,UY-FS,,,
GADM-URY.7_1,Florida,UY-FD,,,
GADM-URY.8_1,Lavalleja,UY-LA,,,
GADM-URY.9_1,Maldonado,UY-MA,,,
GADM-URY.10_1,Montevideo,UY-MO,,,
GADM-URY.13_1,Rivera,UY-RV,,,
GADM-URY.14_1,Rocha,UY-RO,,,
GADM-URY.15_1,Salto,UY-SA,,,
GADM-URY.17_1,Soriano,UY-SO,,,
GADM-URY.19_1,Treinta y Tres,UY-TT,,,
GADM-UZB.1_1,Andijon,UZ-AN,,,
GADM-UZB.8_1,Namangan,UZ-NG,,,
GADM-UZB.10_1,Samarkand,UZ-SA,,,
GADM-UZB.11_1,Sirdaryo,UZ-SI,,,
GADM-VCT.1_1,Charlotte,VC-01,,,
GADM-VCT.2_1,Grenadines,VC-06,,,
GADM-VCT.4_1,Saint David,VC-03,,,
GADM-VCT.5_1,Saint George,VC-04,,,
GADM-VCT.6_1,Saint Patrick,VC-05,,,
GADM-VEN.1_1,Amazonas,VE-Z,,,
GADM-VEN.3_1,Apure,VE-C,,,
GADM-VEN.4_1,Aragua,VE-D,,,
GADM-VEN.5_1,Barinas,VE-E,,,
GADM-VEN.7_1,Carabobo,VE-G,,,
GADM-VEN.8_1,Cojedes,VE-H,,,
GADM-VEN.9_1,Delta Amacuro,VE-Y,,,
GADM-VEN.11_1,Distrito Capital,VE-A,,,
GADM-VEN.14_1,Lara,VE-K,,,
GADM-VEN.16_1,Miranda,VE-M,,,
GADM-VEN.17_1,Monagas,VE-N,,,
GADM-VEN.18_1,Nueva Esparta,VE-O,,,
GADM-VEN.19_1,Portuguesa,VE-P,,,
GADM-VEN.20_1,Sucre,VE-R,,,
GADM-VEN.22_1,Trujillo,VE-T,,,
GADM-VEN.23_1,Vargas,VE-X,,,
GADM-VEN.24_1,Yaracuy,VE-U,,,
GADM-VEN.25_1,Zulia,VE-V,,,
GADM-VNM.1_1,An Giang,VN-44,,,
GADM-VNM.7_1,Bà Rịa - Vũng Tàu,VN-43,,,
GADM-VNM.3_1,Bắc Giang,VN-54,,,
GADM-VNM.4_1,Bắc Kạn,VN-53,,,
GADM-VNM.2_1,Bạc Liêu,VN-55,,,
GADM-VNM.5_1,Bắc Ninh,VN-56,,,
GADM-VNM.6_1,Bến Tre,VN-50,,,
GADM-VNM.8_1,Bình Định,VN-31,,,
GADM-VNM.9_1,Bình Dương,VN-57,,,
GADM-VNM.10_1,Bình Phước,VN-58,,,
GADM-VNM.11_1,Bình Thuận,VN-40,,,
GADM-VNM.13_1,Cà Mau,VN-59,,,
GADM-VNM.12_1,Cần Thơ,VN-CT,,,
GADM-VNM.14_1,Cao Bằng,VN-04,,,
GADM-VNM.19_1,Đà Nẵng,VN-DN,,,
GADM-VNM.15_1,Đắk Lắk,VN-33,,,
GADM-VNM.16_1,Đắk Nông,VN-72,,,
GADM-VNM.20_1,Điện Biên,VN-71,,,
GADM-VNM.17_1,Đồng Nai,VN-39,,,
GADM-VNM.18_1,Đồng Tháp,VN-45,,,
GADM-VNM.21_1,Gia Lai,VN-30,,,
GADM-VNM.26_1,Hà Giang,VN-03,,,
GADM-VNM.28_1,Hà Nam,VN-63,,,
GADM-VNM.27_1,Hà Nội,VN-HN,,,
GADM-VNM.29_1,Hà Tĩnh,VN-23,,,
GADM-VNM.22_1,Hải Dương,VN-61,,,
GADM-VNM.23_1,Hải Phòng,VN-HP,,,
GADM-VNM.25_1,Hồ Chí Minh,VN-SG,,,
GADM-VNM.30_1,Hoà Bình,VN-14,,,
GADM-VNM.31_1,Hưng Yên,VN-66,,,
GADM-VNM.32_1,Khánh Hòa,VN-34,,,
GADM-VNM.33_1,Kiên Giang,VN-47,,,
GADM-VNM.34_1,Kon Tum,VN-28,,,
GADM-VNM.36_1,Lai Châu,VN-01,,,
GADM-VNM.37_1,Lâm Đồng,VN-35,,,
GADM-VNM.35_1,Lạng Sơn,VN-09,,,
GADM-VNM.38_1,Lào Cai,VN-02,,,
GADM-VNM.39_1,Long An,VN-41,,,
GADM-VNM.40_1,Nam Định,VN-67,,,
GADM-VNM.41_1,Nghệ An,VN-22,,,
GADM-VNM.42_1,Ninh Bình,VN-18,,,
GADM-VNM.43_1,Ninh Thuận,VN-36,,,
GADM-VNM.44_1,Phú Thọ,VN-68,,,
GADM-VNM.45_1,Phú Yên,VN-32,,,
GADM-VNM.46_1,Quảng Bình,VN-24,,,
GADM-VNM.47_1,Quảng Nam,VN-27,,,
GADM-VNM.48_1,Quảng Ngãi,VN-29,,,
GADM-VNM.49_1,Quảng Ninh,VN-13,,,
GADM-VNM.50_1,Quảng Trị,VN-25,,,
GADM-VNM.51_1,Sóc Trăng,VN-52,,,
GADM-VNM.52_1,Sơn La,VN-05,,,
GADM-VNM.53_1,Tây Ninh,VN-37,,,
GADM-VNM.55_1,Thái Bình,VN-20,,,
GADM-VNM.56_1,Thái Nguyên,VN-69,,,
GADM-VNM.57_1,Thanh Hóa,VN-21,,,
GADM-VNM.58_1,Tiền Giang,VN-46,,,
GADM-VNM.59_1,Trà Vinh,VN-51,,,
GADM-VNM.60_1,Tuyên Quang,VN-07,,,
GADM-VNM.61_1,Vĩnh Long,VN-49,,,
GADM-VNM.62_1,Vĩnh Phúc,VN-70,,,
GADM-VNM.63_1,Yên Bái,VN-06,,,
GADM-VUT.4_1,Shefa,VU-SEE,,,
GADM-VUT.5_1,Tafea,VU-TAE,,,
GADM-VUT.6_1,Torba,VU-TOB,,,
GADM-WLF.2_1,Singave,WF-SG,,,
GADM-WSM.3_1,Atua,WS-AT,,,
GADM-WSM.4_1,Fa'asaleleaga,WS-FA,,,
GADM-WSM.9_1,Tuamasaga,WS-TU,,,
GADM-YEM.10_1,Amran,YE-AM,,,
GADM-YEM.2_1,Abyan,YE-AB,,,
GADM-YEM.3_1,Al Bayda',YE-BA,,,
GADM-YEM.5_1,Al Hudaydah,YE-HU,,,
GADM-YEM.6_1,Al Jawf,YE-JA,,,
GADM-YEM.8_1,Al Mahwit,YE-MW,,,
GADM-YEM.11_1,Dhamar,YE-DH,,,
GADM-YEM.12_1,Hadramawt,YE-HD,,,
GADM-YEM.14_1,Ibb,YE-IB,,,
GADM-YEM.15_1,Lahij,YE-LA,,,
GADM-YEM.16_1,Ma'rib,YE-MA,,,
GADM-YEM.20_1,Shabwah,YE-SH,,,
GADM-MYT.12_1,Mamoudzou,,,,
GADM-MYT.13_1,Mtsamboro,,,,
GADM-MYT.14_1,Ouangani,,,,
GADM-MYT.15_1,Pamandzi,,,,
GADM-MYT.16_1,Sada,,,,
GADM-ZAF.1_1,Eastern Cape,ZA-EC,,,
GADM-ZAF.2_1,Free State,ZA-FS,,,
GADM-ZAF.3_1,Gauteng,ZA-GP,,,
GADM-ZAF.5_1,Limpopo,ZA-LP,,,
GADM-ZAF.6_1,Mpumalanga,ZA-MP,,,
GADM-ZAF.8_1,Northern Cape,ZA-NC,,,
GADM-ZAF.9_1,Western Cape,ZA-WC,,,
GADM-ZMB.1_1,Central,ZM-02,,,
GADM-ZMB.2_1,Copperbelt,ZM-08,,,
GADM-ZMB.3_1,Eastern,ZM-03,,,
GADM-ZMB.4_1,Luapula,ZM-04,,,
GADM-ZMB.5_1,Lusaka,ZM-09,,,
GADM-ZMB.7_1,North-Western,ZM-06,,,
GADM-ZMB.8_1,Northern,ZM-05,,,
GADM-ZMB.9_1,Southern,ZM-07,,,
GADM-ZMB.10_1,Western,ZM-01,,,
GADM-ZWE.1_1,Bulawayo,ZW-BU,,,
GADM-ZWE.2_1,Harare,ZW-HA,,,
GADM-ZWE.3_1,Manicaland,ZW-MA,,,
GADM-ZWE.4_1,Mashonaland Central,ZW-MC,,,
GADM-ZWE.5_1,Mashonaland East,ZW-ME,,,
GADM-ZWE.6_1,Mashonaland West,ZW-MW,,,
GADM-ZWE.7_1,Masvingo,ZW-MV,,,
GADM-ZWE.8_1,Matabeleland North,ZW-MN,,,
GADM-ZWE.9_1,Matabeleland South,ZW-MS,,,
GADM-ZWE.10_1,Midlands,ZW-MI,,,
