term.id,freshwaterWithdrawalsDuringCycle,freshwaterWithdrawalsInputsProduction
GADM-AFG,3.21016E-09,3.21016E-09
GADM-ALB,5.02178E-11,5.02178E-11
GADM-DZA,1.49422E-09,1.49422E-09
GADM-AGO,1.34753E-10,1.34753E-10
GADM-ARG,3.20197E-11,3.20197E-11
GADM-ARM,1.3192E-09,1.3192E-09
GADM-AUS,0,0
GADM-AUT,3.81391E-12,3.81391E-12
GADM-AZE,1.24154E-09,1.24154E-09
GADM-BGD,1.89054E-09,1.89054E-09
GADM-BLR,4.34497E-12,4.34497E-12
GADM-BEL,0,0
GADM-BLZ,9.44336E-12,9.44336E-12
GADM-BEN,1.00308E-10,1.00308E-10
GADM-BTN,6.56246E-11,6.56246E-11
GADM-BOL,4.14529E-10,4.14529E-10
GADM-BIH,3.0126E-12,3.0126E-12
GADM-BWA,2.27134E-09,2.27134E-09
GADM-BRA,3.90688E-11,3.90688E-11
GADM-BRN,0,0
GADM-BGR,7.19712E-11,7.19712E-11
GADM-BFA,6.67611E-11,6.67611E-11
GADM-BDI,9.02846E-11,9.02846E-11
GADM-KHM,5.93766E-11,5.93766E-11
GADM-CMR,2.60782E-11,2.60782E-11
GADM-CAN,0,0
GADM-CAF,4.97308E-12,4.97308E-12
GADM-TCD,1.37401E-10,1.37401E-10
GADM-CHL,3.07782E-10,3.07782E-10
GADM-CHN,2.77066E-10,2.77066E-10
GADM-COL,2.92114E-11,2.92114E-11
GADM-COD,2.60639E-11,2.60639E-11
GADM-COG,3.49214E-11,3.49214E-11
GADM-CRI,1.50215E-11,1.50215E-11
GADM-CIV,4.96247E-11,4.96247E-11
GADM-HRV,8.817E-12,8.817E-12
GADM-CUB,8.97827E-11,8.97827E-11
GADM-CYP,0,0
GADM-CZE,1.12257E-12,1.12257E-12
GADM-DNK,0,0
GADM-DJI,4.6083E-10,4.6083E-10
GADM-DOM,1.09105E-10,1.09105E-10
GADM-ECU,1.75138E-10,1.75138E-10
GADM-EGY,3.53502E-09,3.53502E-09
GADM-SLV,3.86704E-11,3.86704E-11
GADM-GNQ,5.23835E-14,5.23835E-14
GADM-ERI,4.53199E-10,4.53199E-10
GADM-EST,6.67975E-13,6.67975E-13
GADM-ETH,6.72288E-10,6.72288E-10
GADM-FJI,1.81685E-11,1.81685E-11
GADM-FIN,3.89289E-14,3.89289E-14
GADM-FRA,0,0
GADM-GUF,1.76386E-15,1.76386E-15
GADM-GAB,1.13617E-12,1.13617E-12
GADM-GMB,5.303E-11,5.303E-11
GADM-GEO,9.14224E-10,9.14224E-10
GADM-DEU,4.41824E-13,4.41824E-13
GADM-GHA,2.54682E-10,2.54682E-10
GADM-GRC,5.59628E-11,5.59628E-11
GADM-GTM,3.04808E-11,3.04808E-11
GADM-GIN,1.19124E-10,1.19124E-10
GADM-GNB,1.30709E-10,1.30709E-10
GADM-GUY,1.94874E-11,1.94874E-11
GADM-HTI,3.8188E-10,3.8188E-10
GADM-HND,4.45975E-11,4.45975E-11
GADM-HUN,3.8887E-12,3.8887E-12
GADM-ISL,0,0
GADM-IND,4.47622E-09,4.47622E-09
GADM-IDN,1.74851E-10,1.74851E-10
GADM-IRN,1.43762E-09,1.43762E-09
GADM-IRQ,2.10328E-09,2.10328E-09
GADM-IRL,0,0
GADM-ISR,2.20652E-10,2.20652E-10
GADM-ITA,0,0
GADM-JAM,1.83584E-11,1.83584E-11
GADM-JPN,0,0
GADM-JOR,8.78702E-10,8.78702E-10
GADM-KAZ,2.17714E-10,2.17714E-10
GADM-KEN,9.7904E-11,9.7904E-11
GADM-PRK,5.50029E-10,5.50029E-10
GADM-KOR,0,0
GADM-KWT,1.2867E-11,1.2867E-11
GADM-KGZ,1.63066E-09,1.63066E-09
GADM-LAO,2.93545E-11,2.93545E-11
GADM-LVA,7.53429E-13,7.53429E-13
GADM-LBN,1.10565E-09,1.10565E-09
GADM-LSO,3.1756E-09,3.1756E-09
GADM-LBR,1.21801E-10,1.21801E-10
GADM-LBY,9.42062E-10,9.42062E-10
GADM-LTU,1.11265E-12,1.11265E-12
GADM-LUX,0,0
GADM-MKD,1.94109E-10,1.94109E-10
GADM-MDG,1.77357E-10,1.77357E-10
GADM-MWI,1.03267E-10,1.03267E-10
GADM-MYS,8.41152E-12,8.41152E-12
GADM-MLI,1.37075E-09,1.37075E-09
GADM-MRT,6.24932E-11,6.24932E-11
GADM-MEX,3.36854E-10,3.36854E-10
GADM-MDA,3.18655E-11,3.18655E-11
GADM-MNG,2.8539E-11,2.8539E-11
GADM-MAR,3.94538E-09,3.94538E-09
GADM-MOZ,4.29158E-10,4.29158E-10
GADM-MMR,3.94304E-11,3.94304E-11
GADM-NAM,4.37284E-11,4.37284E-11
GADM-NPL,5.79578E-09,5.79578E-09
GADM-NLD,0,0
GADM-NZL,0,0
GADM-NIC,5.71373E-11,5.71373E-11
GADM-NER,5.52053E-10,5.52053E-10
GADM-NGA,1.04296E-09,1.04296E-09
GADM-NOR,0,0
GADM-OMN,7.74342E-10,7.74342E-10
GADM-PAK,4.3605E-09,4.3605E-09
GADM-PSE,4.21908E-10,4.21908E-10
GADM-PAN,1.24631E-11,1.24631E-11
GADM-PNG,0,0
GADM-PRY,7.05477E-12,7.05477E-12
GADM-PER,1.30657E-09,1.30657E-09
GADM-PHL,1.36735E-10,1.36735E-10
GADM-POL,3.92976E-12,3.92976E-12
GADM-PRT,0,0
GADM-PRI,0,0
GADM-QAT,2.4195E-10,2.4195E-10
GADM-ROU,5.53711E-12,5.53711E-12
GADM-RUS,4.75578E-11,4.75578E-11
GADM-RWA,5.53611E-11,5.53611E-11
GADM-SAU,1.11368E-09,1.11368E-09
GADM-SEN,5.86216E-11,5.86216E-11
GADM-SRB,6.18096E-12,6.18096E-12
GADM-SLE,1.85523E-10,1.85523E-10
GADM-SVK,3.73137E-12,3.73137E-12
GADM-SVN,3.8887E-12,3.8887E-12
GADM-SLB,0,0
GADM-SOM,7.75494E-10,7.75494E-10
GADM-ZAF,2.37106E-09,2.37106E-09
GADM-ESP,0,0
GADM-LKA,8.32076E-10,8.32076E-10
GADM-SDN,4.34464E-10,4.34464E-10
GADM-SUR,1.34708E-11,1.34708E-11
GADM-SWZ,2.51865E-10,2.51865E-10
GADM-SWE,0,0
GADM-CHE,8.27101E-14,8.27101E-14
GADM-SYR,1.93605E-09,1.93605E-09
GADM-TJK,2.58368E-09,2.58368E-09
GADM-TZA,1.27436E-10,1.27436E-10
GADM-THA,1.41093E-10,1.41093E-10
GADM-TLS,0,0
GADM-TGO,5.14387E-11,5.14387E-11
GADM-TTO,8.73929E-11,8.73929E-11
GADM-TUN,1.81523E-09,1.81523E-09
GADM-TUR,1.07831E-09,1.07831E-09
GADM-TKM,1.78799E-09,1.78799E-09
GADM-UGA,5.52517E-11,5.52517E-11
GADM-UKR,1.28148E-10,1.28148E-10
GADM-ARE,4.2936E-10,4.2936E-10
GADM-GBR,0,0
GADM-USA,1.8838E-12,1.8838E-12
GADM-URY,4.51296E-12,4.51296E-12
GADM-UZB,2.18018E-09,2.18018E-09
GADM-VUT,0,0
GADM-VEN,1.02073E-10,1.02073E-10
GADM-VNM,3.44824E-10,3.44824E-10
GADM-ESH,1.85817E-13,1.85817E-13
GADM-YEM,5.1552E-09,5.1552E-09
GADM-ZMB,9.37687E-11,9.37687E-11
GADM-ZWE,3.17632E-10,3.17632E-10
