term.id,alpaca,americanBison,ass,assFoal,bactrianCamel,beeHive,bee,beeQueenBee,buffalo,buffaloCow,buffaloCowLactating,buffaloCowDry,buffaloBull,buffaloHeifer,buffaloSteer,buffaloHeiferAndSteer,buffaloCalf,buffaloCalfFemale,buffaloCalfMale,buffaloCalfWeaned,buffaloCalfFemaleWeaned,buffaloCalfMaleWeaned,buffaloCalfCastratedMaleWeaned,buffaloCalfUncastratedMaleWeaned,buffaloCalfUnweaned,cassowary,beefCattle,dairyCattle,beefCattleCow,dairyCattleCow,beefCattleCowLactating,dairyCattleCowLactating,beefCattleCowDry,dairyCattleCowDry,beefCattleBull,dairyCattleBull,beefCattleHeifer,dairyCattleHeifer,beefCattleSteer,dairyCattleSteer,beefCattleHeiferAndSteer,dairyCattleHeiferAndSteer,beefCattleCalf,beefCattleCalfFemale,beefCattleCalfMale,beefCattleCalfWeaned,beefCattleCalfFemaleWeaned,beefCattleCalfMaleWeaned,beefCattleCalfCastratedMaleWeaned,beefCattleCalfUncastratedMaleWeaned,beefCattleCalfFemaleUnweaned,beefCattleCalfMaleUnweaned,beefCattleCalfUnweaned,dairyCattleCalf,dairyCattleCalfFemale,dairyCattleCalfMale,dairyCattleCalfWeaned,dairyCattleCalfFemaleWeaned,dairyCattleCalfMaleWeaned,dairyCattleCalfCastratedMaleWeaned,dairyCattleCalfUncastratedMaleWeaned,dairyCattleCalfFemaleUnweaned,dairyCattleCalfMaleUnweaned,dairyCattleCalfUnweaned,broilerChicken,broilerChickenChick,broilerChickenCapon,broilerChickenCockerel,broilerChickenCock,broilerChickenHen,broilerChickenPullet,layerChicken,layerChickenChick,layerChickenHen,layerChickenPullet,deer,deerDoe,deerBuck,deerYearling,deerFawn,deerFawnWeaned,deerFawnUnweaned,dog,dromedary,hybridCamel,domesticDuck,emu,goat,goatNanny,goatNannyDry,goatNannyLactating,goatBilly,goatWethers,goatKid,goatKidWeaned,goatKidUnweaned,domesticGoose,guanaco,guineaFowl,guineaPig,horse,horseFoal,insectLarvaKgMass,llama,mealwormLarvaKgMass,mule,muscovyDuck,nandu,ostrich,partridge,peacock,pheasant,pig,pigMale,pigFemale,pigBoar,pigBarrow,pigGilt,pigSow,pigPiglet,pigeon,quail,rabbit,rabbitDoe,rabbitBuck,rabbitKit,rabbitKitWeaned,rabbitKitUnweaned,sheep,sheepEwe,sheepEweDry,sheepEweLactating,sheepRam,sheepWether,sheepLamb,sheepLambWeaned,sheepLambFemaleWeaned,sheepLambMaleWeaned,sheepLambCastratedMaleWeaned,sheepLambUncastratedMaleWeaned,sheepLambFemaleUnweaned,sheepLambMaleUnweaned,sheepLambUnweaned,seaSnail,landSnail,freshwaterSnail,turkey,vicuna,domesticYak
GADM-AFG,-,-,-,-,-,-,-,-,high:5.2,high:5.2,high:5.2,-,-,-,-,-,-,-,-,-,-,-,-,-,-,-,high:3.3,high:3.1;low:3.2,high:3.3,high:3.1;low:3.2,high:3.3,high:3.1;low:3.2,-,-,-,-,-,-,-,-,-,-,-,-,-,-,-,-,-,-,-,-,-,-,-,-,-,-,-,-,-,-,-,-,-,-,-,-,-,-,-,-,-,-,-,-,-,-,-,-,-,-,-,-,-,-,-,-,-,-,-,-,-,-,-,-,-,-,-,-,-,-,-,-,-,-,-,-,-,-,-,-,-,-,-,-,-,-,-,-,-,-,-,-,-,-,-,-,-,-,-,-,-,-,-,-,-,-,-,-,-,-,-,-,-,-,-,-,-
GADM-ALB,-,-,-,-,-,-,-,-,high:4.3,high:4.3,high:4.3,-,-,-,-,-,-,-,-,-,-,-,-,-,-,-,high:3.7,high:3.2,high:3.7,high:3.2,high:3.7,high:3.2,-,-,-,-,-,-,-,-,-,-,-,-,-,-,-,-,-,-,-,-,-,-,-,-,-,-,-,-,-,-,-,-,-,-,-,-,-,-,-,-,-,-,-,-,-,-,-,-,-,-,-,-,-,-,-,-,-,-,-,-,-,-,-,-,-,-,-,-,-,-,-,-,-,-,-,-,-,-,-,-,-,-,-,-,-,-,-,-,-,-,-,-,-,-,-,-,-,-,-,-,-,-,-,-,-,-,-,-,-,-,-,-,-,-,-,-,-
GADM-DZA,-,-,-,-,-,-,-,-,high:3.7,high:3.7,high:3.7,-,-,-,-,-,-,-,-,-,-,-,-,-,-,-,high:3.5;low:3.6,high:3.6,high:3.5;low:3.6,high:3.6,high:3.5;low:3.6,high:3.6,-,-,-,-,-,-,-,-,-,-,-,-,-,-,-,-,-,-,-,-,-,-,-,-,-,-,-,-,-,-,-,-,-,-,-,-,-,-,-,-,-,-,-,-,-,-,-,-,-,-,-,-,-,-,-,-,-,-,-,-,-,-,-,-,-,-,-,-,-,-,-,-,-,-,-,-,-,-,-,-,-,-,-,-,-,-,-,-,-,-,-,-,-,-,-,-,-,-,-,-,-,-,-,-,-,-,-,-,-,-,-,-,-,-,-,-,-
GADM-AND,-,-,-,-,-,-,-,-,high:4.6,high:4.6,high:4.6,-,-,-,-,-,-,-,-,-,-,-,-,-,-,-,high:3.6,high:3.2,high:3.6,high:3.2,high:3.6,high:3.2,-,-,-,-,-,-,-,-,-,-,-,-,-,-,-,-,-,-,-,-,-,-,-,-,-,-,-,-,-,-,-,-,-,-,-,-,-,-,-,-,-,-,-,-,-,-,-,-,-,-,-,-,-,-,-,-,-,-,-,-,-,-,-,-,-,-,-,-,-,-,-,-,-,-,-,-,-,-,-,-,-,-,-,-,-,-,-,-,-,-,-,-,-,-,-,-,-,-,-,-,-,-,-,-,-,-,-,-,-,-,-,-,-,-,-,-,-
GADM-AGO,-,-,-,-,-,-,-,-,high:3.7,high:3.7,high:3.7,-,-,-,-,-,-,-,-,-,-,-,-,-,-,-,high:3.5;low:3.6,high:3.6,high:3.5;low:3.6,high:3.6,high:3.5;low:3.6,high:3.6,-,-,-,-,-,-,-,-,-,-,-,-,-,-,-,-,-,-,-,-,-,-,-,-,-,-,-,-,-,-,-,-,-,-,-,-,-,-,-,-,-,-,-,-,-,-,-,-,-,-,-,-,-,-,-,-,-,-,-,-,-,-,-,-,-,-,-,-,-,-,-,-,-,-,-,-,-,-,-,-,-,-,-,-,-,-,-,-,-,-,-,-,-,-,-,-,-,-,-,-,-,-,-,-,-,-,-,-,-,-,-,-,-,-,-,-,-
GADM-ATG,-,-,-,-,-,-,-,-,high:4.3,high:4.3,high:4.3,-,-,-,-,-,-,-,-,-,-,-,-,-,-,-,high:3.2,high:3.1;low:3.2,high:3.2,high:3.1;low:3.2,high:3.2,high:3.1;low:3.2,-,-,-,-,-,-,-,-,-,-,-,-,-,-,-,-,-,-,-,-,-,-,-,-,-,-,-,-,-,-,-,-,-,-,-,-,-,-,-,-,-,-,-,-,-,-,-,-,-,-,-,-,-,-,-,-,-,-,-,-,-,-,-,-,-,-,-,-,-,-,-,-,-,-,-,-,-,-,-,-,-,-,-,-,-,-,-,-,-,-,-,-,-,-,-,-,-,-,-,-,-,-,-,-,-,-,-,-,-,-,-,-,-,-,-,-,-
GADM-ARG,-,-,-,-,-,-,-,-,high:4.3,high:4.3,high:4.3,-,-,-,-,-,-,-,-,-,-,-,-,-,-,-,high:3.2,high:3.1;low:3.2,high:3.2,high:3.1;low:3.2,high:3.2,high:3.1;low:3.2,-,-,-,-,-,-,-,-,-,-,-,-,-,-,-,-,-,-,-,-,-,-,-,-,-,-,-,-,-,-,-,-,-,-,-,-,-,-,-,-,-,-,-,-,-,-,-,-,-,-,-,-,-,-,-,-,-,-,-,-,-,-,-,-,-,-,-,-,-,-,-,-,-,-,-,-,-,-,-,-,-,-,-,-,-,-,-,-,-,-,-,-,-,-,-,-,-,-,-,-,-,-,-,-,-,-,-,-,-,-,-,-,-,-,-,-,-
GADM-ARM,-,-,-,-,-,-,-,-,high:4.2,high:4.2,high:4.2,-,-,-,-,-,-,-,-,-,-,-,-,-,-,-,high:3.3;low:3.2,high:3.2;low:3.7,high:3.3;low:3.2,high:3.2;low:3.7,high:3.3;low:3.2,high:3.2;low:3.7,-,-,-,-,-,-,-,-,-,-,-,-,-,-,-,-,-,-,-,-,-,-,-,-,-,-,-,-,-,-,-,-,-,-,-,-,-,-,-,-,-,-,-,-,-,-,-,-,-,-,-,-,-,-,-,-,-,-,-,-,-,-,-,-,-,-,-,-,-,-,-,-,-,-,-,-,-,-,-,-,-,-,-,-,-,-,-,-,-,-,-,-,-,-,-,-,-,-,-,-,-,-,-,-,-,-,-,-,-,-,-,-,-,-,-,-,-
GADM-AUS,-,-,-,-,-,-,-,-,-,-,-,-,-,-,-,-,-,-,-,-,-,-,-,-,-,-,high:3.7,high:3.7,high:3.7,high:3.7,high:3.7,high:3.7,-,-,-,-,-,-,-,-,-,-,-,-,-,-,-,-,-,-,-,-,-,-,-,-,-,-,-,-,-,-,-,-,-,-,-,-,-,-,-,-,-,-,-,-,-,-,-,-,-,-,-,-,-,-,-,-,-,-,-,-,-,-,-,-,-,-,-,-,-,-,-,-,-,-,-,-,-,-,-,-,-,-,-,-,-,-,-,-,-,-,-,-,-,-,-,-,-,-,-,-,-,-,-,-,-,-,-,-,-,-,-,-,-,-,-,-,-
GADM-AUT,-,-,-,-,-,-,-,-,high:4.6,high:4.6,high:4.6,-,-,-,-,-,-,-,-,-,-,-,-,-,-,-,high:3.6,high:3.2,high:3.6,high:3.2,high:3.6,high:3.2,-,-,-,-,-,-,-,-,-,-,-,-,-,-,-,-,-,-,-,-,-,-,-,-,-,-,-,-,-,-,-,-,-,-,-,-,-,-,-,-,-,-,-,-,-,-,-,-,-,-,-,-,-,-,-,-,-,-,-,-,-,-,-,-,-,-,-,-,-,-,-,-,-,-,-,-,-,-,-,-,-,-,-,-,-,-,-,-,-,-,-,-,-,-,-,-,-,-,-,-,-,-,-,-,-,-,-,-,-,-,-,-,-,-,-,-,-
GADM-AZE,-,-,-,-,-,-,-,-,high:4.2,high:4.2,high:4.2,-,-,-,-,-,-,-,-,-,-,-,-,-,-,-,high:3.3;low:3.2,high:3.2;low:3.7,high:3.3;low:3.2,high:3.2;low:3.7,high:3.3;low:3.2,high:3.2;low:3.7,-,-,-,-,-,-,-,-,-,-,-,-,-,-,-,-,-,-,-,-,-,-,-,-,-,-,-,-,-,-,-,-,-,-,-,-,-,-,-,-,-,-,-,-,-,-,-,-,-,-,-,-,-,-,-,-,-,-,-,-,-,-,-,-,-,-,-,-,-,-,-,-,-,-,-,-,-,-,-,-,-,-,-,-,-,-,-,-,-,-,-,-,-,-,-,-,-,-,-,-,-,-,-,-,-,-,-,-,-,-,-,-,-,-,-,-,-
GADM-BHS,-,-,-,-,-,-,-,-,high:4.3,high:4.3,high:4.3,-,-,-,-,-,-,-,-,-,-,-,-,-,-,-,high:3.2,high:3.1;low:3.2,high:3.2,high:3.1;low:3.2,high:3.2,high:3.1;low:3.2,-,-,-,-,-,-,-,-,-,-,-,-,-,-,-,-,-,-,-,-,-,-,-,-,-,-,-,-,-,-,-,-,-,-,-,-,-,-,-,-,-,-,-,-,-,-,-,-,-,-,-,-,-,-,-,-,-,-,-,-,-,-,-,-,-,-,-,-,-,-,-,-,-,-,-,-,-,-,-,-,-,-,-,-,-,-,-,-,-,-,-,-,-,-,-,-,-,-,-,-,-,-,-,-,-,-,-,-,-,-,-,-,-,-,-,-,-
GADM-BHR,-,-,-,-,-,-,-,-,high:4.2,high:4.2,high:4.2,-,-,-,-,-,-,-,-,-,-,-,-,-,-,-,high:3.3;low:3.2,high:3.2;low:3.7,high:3.3;low:3.2,high:3.2;low:3.7,high:3.3;low:3.2,high:3.2;low:3.7,-,-,-,-,-,-,-,-,-,-,-,-,-,-,-,-,-,-,-,-,-,-,-,-,-,-,-,-,-,-,-,-,-,-,-,-,-,-,-,-,-,-,-,-,-,-,-,-,-,-,-,-,-,-,-,-,-,-,-,-,-,-,-,-,-,-,-,-,-,-,-,-,-,-,-,-,-,-,-,-,-,-,-,-,-,-,-,-,-,-,-,-,-,-,-,-,-,-,-,-,-,-,-,-,-,-,-,-,-,-,-,-,-,-,-,-,-
GADM-BGD,-,-,-,-,-,-,-,-,high:3.5,high:3.5,high:3.5,-,-,-,-,-,-,-,-,-,-,-,-,-,-,-,high:3.6;low:3.7,high:3.6;low:3.7,high:3.6;low:3.7,high:3.6;low:3.7,high:3.6;low:3.7,high:3.6;low:3.7,-,-,-,-,-,-,-,-,-,-,-,-,-,-,-,-,-,-,-,-,-,-,-,-,-,-,-,-,-,-,-,-,-,-,-,-,-,-,-,-,-,-,-,-,-,-,-,-,-,-,-,-,-,-,-,-,-,-,-,-,-,-,-,-,-,-,-,-,-,-,-,-,-,-,-,-,-,-,-,-,-,-,-,-,-,-,-,-,-,-,-,-,-,-,-,-,-,-,-,-,-,-,-,-,-,-,-,-,-,-,-,-,-,-,-,-,-
GADM-BRB,-,-,-,-,-,-,-,-,high:4.3,high:4.3,high:4.3,-,-,-,-,-,-,-,-,-,-,-,-,-,-,-,high:3.2,high:3.1;low:3.2,high:3.2,high:3.1;low:3.2,high:3.2,high:3.1;low:3.2,-,-,-,-,-,-,-,-,-,-,-,-,-,-,-,-,-,-,-,-,-,-,-,-,-,-,-,-,-,-,-,-,-,-,-,-,-,-,-,-,-,-,-,-,-,-,-,-,-,-,-,-,-,-,-,-,-,-,-,-,-,-,-,-,-,-,-,-,-,-,-,-,-,-,-,-,-,-,-,-,-,-,-,-,-,-,-,-,-,-,-,-,-,-,-,-,-,-,-,-,-,-,-,-,-,-,-,-,-,-,-,-,-,-,-,-,-
GADM-BLR,-,-,-,-,-,-,-,-,high:4.3,high:4.3,high:4.3,-,-,-,-,-,-,-,-,-,-,-,-,-,-,-,high:3.7,high:3.2,high:3.7,high:3.2,high:3.7,high:3.2,-,-,-,-,-,-,-,-,-,-,-,-,-,-,-,-,-,-,-,-,-,-,-,-,-,-,-,-,-,-,-,-,-,-,-,-,-,-,-,-,-,-,-,-,-,-,-,-,-,-,-,-,-,-,-,-,-,-,-,-,-,-,-,-,-,-,-,-,-,-,-,-,-,-,-,-,-,-,-,-,-,-,-,-,-,-,-,-,-,-,-,-,-,-,-,-,-,-,-,-,-,-,-,-,-,-,-,-,-,-,-,-,-,-,-,-,-
GADM-BEL,-,-,-,-,-,-,-,-,high:4.6,high:4.6,high:4.6,-,-,-,-,-,-,-,-,-,-,-,-,-,-,-,high:3.6,high:3.2,high:3.6,high:3.2,high:3.6,high:3.2,-,-,-,-,-,-,-,-,-,-,-,-,-,-,-,-,-,-,-,-,-,-,-,-,-,-,-,-,-,-,-,-,-,-,-,-,-,-,-,-,-,-,-,-,-,-,-,-,-,-,-,-,-,-,-,-,-,-,-,-,-,-,-,-,-,-,-,-,-,-,-,-,-,-,-,-,-,-,-,-,-,-,-,-,-,-,-,-,-,-,-,-,-,-,-,-,-,-,-,-,-,-,-,-,-,-,-,-,-,-,-,-,-,-,-,-,-
GADM-BLZ,-,-,-,-,-,-,-,-,high:4.3,high:4.3,high:4.3,-,-,-,-,-,-,-,-,-,-,-,-,-,-,-,high:3.2,high:3.1;low:3.2,high:3.2,high:3.1;low:3.2,high:3.2,high:3.1;low:3.2,-,-,-,-,-,-,-,-,-,-,-,-,-,-,-,-,-,-,-,-,-,-,-,-,-,-,-,-,-,-,-,-,-,-,-,-,-,-,-,-,-,-,-,-,-,-,-,-,-,-,-,-,-,-,-,-,-,-,-,-,-,-,-,-,-,-,-,-,-,-,-,-,-,-,-,-,-,-,-,-,-,-,-,-,-,-,-,-,-,-,-,-,-,-,-,-,-,-,-,-,-,-,-,-,-,-,-,-,-,-,-,-,-,-,-,-,-
GADM-BEN,-,-,-,-,-,-,-,-,high:3.7,high:3.7,high:3.7,-,-,-,-,-,-,-,-,-,-,-,-,-,-,-,high:3.5;low:3.6,high:3.6,high:3.5;low:3.6,high:3.6,high:3.5;low:3.6,high:3.6,-,-,-,-,-,-,-,-,-,-,-,-,-,-,-,-,-,-,-,-,-,-,-,-,-,-,-,-,-,-,-,-,-,-,-,-,-,-,-,-,-,-,-,-,-,-,-,-,-,-,-,-,-,-,-,-,-,-,-,-,-,-,-,-,-,-,-,-,-,-,-,-,-,-,-,-,-,-,-,-,-,-,-,-,-,-,-,-,-,-,-,-,-,-,-,-,-,-,-,-,-,-,-,-,-,-,-,-,-,-,-,-,-,-,-,-,-
GADM-BTN,-,-,-,-,-,-,-,-,high:3.5,high:3.5,high:3.5,-,-,-,-,-,-,-,-,-,-,-,-,-,-,-,high:3.6;low:3.7,high:3.6;low:3.7,high:3.6;low:3.7,high:3.6;low:3.7,high:3.6;low:3.7,high:3.6;low:3.7,-,-,-,-,-,-,-,-,-,-,-,-,-,-,-,-,-,-,-,-,-,-,-,-,-,-,-,-,-,-,-,-,-,-,-,-,-,-,-,-,-,-,-,-,-,-,-,-,-,-,-,-,-,-,-,-,-,-,-,-,-,-,-,-,-,-,-,-,-,-,-,-,-,-,-,-,-,-,-,-,-,-,-,-,-,-,-,-,-,-,-,-,-,-,-,-,-,-,-,-,-,-,-,-,-,-,-,-,-,-,-,-,-,-,-,-,-
GADM-BOL,-,-,-,-,-,-,-,-,high:4.3,high:4.3,high:4.3,-,-,-,-,-,-,-,-,-,-,-,-,-,-,-,high:3.2,high:3.1;low:3.2,high:3.2,high:3.1;low:3.2,high:3.2,high:3.1;low:3.2,-,-,-,-,-,-,-,-,-,-,-,-,-,-,-,-,-,-,-,-,-,-,-,-,-,-,-,-,-,-,-,-,-,-,-,-,-,-,-,-,-,-,-,-,-,-,-,-,-,-,-,-,-,-,-,-,-,-,-,-,-,-,-,-,-,-,-,-,-,-,-,-,-,-,-,-,-,-,-,-,-,-,-,-,-,-,-,-,-,-,-,-,-,-,-,-,-,-,-,-,-,-,-,-,-,-,-,-,-,-,-,-,-,-,-,-,-
GADM-BIH,-,-,-,-,-,-,-,-,high:4.3,high:4.3,high:4.3,-,-,-,-,-,-,-,-,-,-,-,-,-,-,-,high:3.7,high:3.2,high:3.7,high:3.2,high:3.7,high:3.2,-,-,-,-,-,-,-,-,-,-,-,-,-,-,-,-,-,-,-,-,-,-,-,-,-,-,-,-,-,-,-,-,-,-,-,-,-,-,-,-,-,-,-,-,-,-,-,-,-,-,-,-,-,-,-,-,-,-,-,-,-,-,-,-,-,-,-,-,-,-,-,-,-,-,-,-,-,-,-,-,-,-,-,-,-,-,-,-,-,-,-,-,-,-,-,-,-,-,-,-,-,-,-,-,-,-,-,-,-,-,-,-,-,-,-,-,-
GADM-BWA,-,-,-,-,-,-,-,-,high:3.7,high:3.7,high:3.7,-,-,-,-,-,-,-,-,-,-,-,-,-,-,-,high:3.5;low:3.6,high:3.6,high:3.5;low:3.6,high:3.6,high:3.5;low:3.6,high:3.6,-,-,-,-,-,-,-,-,-,-,-,-,-,-,-,-,-,-,-,-,-,-,-,-,-,-,-,-,-,-,-,-,-,-,-,-,-,-,-,-,-,-,-,-,-,-,-,-,-,-,-,-,-,-,-,-,-,-,-,-,-,-,-,-,-,-,-,-,-,-,-,-,-,-,-,-,-,-,-,-,-,-,-,-,-,-,-,-,-,-,-,-,-,-,-,-,-,-,-,-,-,-,-,-,-,-,-,-,-,-,-,-,-,-,-,-,-
GADM-BRA,-,-,-,-,-,-,-,-,high:4.3,high:4.3,high:4.3,-,-,-,-,-,-,-,-,-,-,-,-,-,-,-,high:3.2,high:3.1;low:3.2,high:3.2,high:3.1;low:3.2,high:3.2,high:3.1;low:3.2,-,-,-,-,-,-,-,-,-,-,-,-,-,-,-,-,-,-,-,-,-,-,-,-,-,-,-,-,-,-,-,-,-,-,-,-,-,-,-,-,-,-,-,-,-,-,-,-,-,-,-,-,-,-,-,-,-,-,-,-,-,-,-,-,-,-,-,-,-,-,-,-,-,-,-,-,-,-,-,-,-,-,-,-,-,-,-,-,-,-,-,-,-,-,-,-,-,-,-,-,-,-,-,-,-,-,-,-,-,-,-,-,-,-,-,-,-
GADM-BRN,-,-,-,-,-,-,-,-,high:5.2,high:5.2,high:5.2,-,-,-,-,-,-,-,-,-,-,-,-,-,-,-,high:3.3,high:3.1;low:3.2,high:3.3,high:3.1;low:3.2,high:3.3,high:3.1;low:3.2,-,-,-,-,-,-,-,-,-,-,-,-,-,-,-,-,-,-,-,-,-,-,-,-,-,-,-,-,-,-,-,-,-,-,-,-,-,-,-,-,-,-,-,-,-,-,-,-,-,-,-,-,-,-,-,-,-,-,-,-,-,-,-,-,-,-,-,-,-,-,-,-,-,-,-,-,-,-,-,-,-,-,-,-,-,-,-,-,-,-,-,-,-,-,-,-,-,-,-,-,-,-,-,-,-,-,-,-,-,-,-,-,-,-,-,-,-
GADM-BGR,-,-,-,-,-,-,-,-,high:4.3,high:4.3,high:4.3,-,-,-,-,-,-,-,-,-,-,-,-,-,-,-,high:3.7,high:3.2,high:3.7,high:3.2,high:3.7,high:3.2,-,-,-,-,-,-,-,-,-,-,-,-,-,-,-,-,-,-,-,-,-,-,-,-,-,-,-,-,-,-,-,-,-,-,-,-,-,-,-,-,-,-,-,-,-,-,-,-,-,-,-,-,-,-,-,-,-,-,-,-,-,-,-,-,-,-,-,-,-,-,-,-,-,-,-,-,-,-,-,-,-,-,-,-,-,-,-,-,-,-,-,-,-,-,-,-,-,-,-,-,-,-,-,-,-,-,-,-,-,-,-,-,-,-,-,-,-
GADM-BFA,-,-,-,-,-,-,-,-,high:3.7,high:3.7,high:3.7,-,-,-,-,-,-,-,-,-,-,-,-,-,-,-,high:3.5;low:3.6,high:3.6,high:3.5;low:3.6,high:3.6,high:3.5;low:3.6,high:3.6,-,-,-,-,-,-,-,-,-,-,-,-,-,-,-,-,-,-,-,-,-,-,-,-,-,-,-,-,-,-,-,-,-,-,-,-,-,-,-,-,-,-,-,-,-,-,-,-,-,-,-,-,-,-,-,-,-,-,-,-,-,-,-,-,-,-,-,-,-,-,-,-,-,-,-,-,-,-,-,-,-,-,-,-,-,-,-,-,-,-,-,-,-,-,-,-,-,-,-,-,-,-,-,-,-,-,-,-,-,-,-,-,-,-,-,-,-
GADM-BDI,-,-,-,-,-,-,-,-,high:3.7,high:3.7,high:3.7,-,-,-,-,-,-,-,-,-,-,-,-,-,-,-,high:3.5;low:3.6,high:3.6,high:3.5;low:3.6,high:3.6,high:3.5;low:3.6,high:3.6,-,-,-,-,-,-,-,-,-,-,-,-,-,-,-,-,-,-,-,-,-,-,-,-,-,-,-,-,-,-,-,-,-,-,-,-,-,-,-,-,-,-,-,-,-,-,-,-,-,-,-,-,-,-,-,-,-,-,-,-,-,-,-,-,-,-,-,-,-,-,-,-,-,-,-,-,-,-,-,-,-,-,-,-,-,-,-,-,-,-,-,-,-,-,-,-,-,-,-,-,-,-,-,-,-,-,-,-,-,-,-,-,-,-,-,-,-
GADM-KHM,-,-,-,-,-,-,-,-,high:5.2,high:5.2,high:5.2,-,-,-,-,-,-,-,-,-,-,-,-,-,-,-,high:3.3,high:3.1;low:3.2,high:3.3,high:3.1;low:3.2,high:3.3,high:3.1;low:3.2,-,-,-,-,-,-,-,-,-,-,-,-,-,-,-,-,-,-,-,-,-,-,-,-,-,-,-,-,-,-,-,-,-,-,-,-,-,-,-,-,-,-,-,-,-,-,-,-,-,-,-,-,-,-,-,-,-,-,-,-,-,-,-,-,-,-,-,-,-,-,-,-,-,-,-,-,-,-,-,-,-,-,-,-,-,-,-,-,-,-,-,-,-,-,-,-,-,-,-,-,-,-,-,-,-,-,-,-,-,-,-,-,-,-,-,-,-
GADM-CMR,-,-,-,-,-,-,-,-,high:3.7,high:3.7,high:3.7,-,-,-,-,-,-,-,-,-,-,-,-,-,-,-,high:3.5;low:3.6,high:3.6,high:3.5;low:3.6,high:3.6,high:3.5;low:3.6,high:3.6,-,-,-,-,-,-,-,-,-,-,-,-,-,-,-,-,-,-,-,-,-,-,-,-,-,-,-,-,-,-,-,-,-,-,-,-,-,-,-,-,-,-,-,-,-,-,-,-,-,-,-,-,-,-,-,-,-,-,-,-,-,-,-,-,-,-,-,-,-,-,-,-,-,-,-,-,-,-,-,-,-,-,-,-,-,-,-,-,-,-,-,-,-,-,-,-,-,-,-,-,-,-,-,-,-,-,-,-,-,-,-,-,-,-,-,-,-
GADM-CAN,-,-,-,-,-,-,-,-,-,-,-,-,-,-,-,-,-,-,-,-,-,-,-,-,-,-,high:3.5,high:3.2,high:3.5,high:3.2,high:3.5,high:3.2,-,-,-,-,-,-,-,-,-,-,-,-,-,-,-,-,-,-,-,-,-,-,-,-,-,-,-,-,-,-,-,-,-,-,-,-,-,-,-,-,-,-,-,-,-,-,-,-,-,-,-,-,-,-,-,-,-,-,-,-,-,-,-,-,-,-,-,-,-,-,-,-,-,-,-,-,-,-,-,-,-,-,-,-,-,-,-,-,-,-,-,-,-,-,-,-,-,-,-,-,-,-,-,-,-,-,-,-,-,-,-,-,-,-,-,-,-
GADM-CPV,-,-,-,-,-,-,-,-,high:3.7,high:3.7,high:3.7,-,-,-,-,-,-,-,-,-,-,-,-,-,-,-,high:3.5;low:3.6,high:3.6,high:3.5;low:3.6,high:3.6,high:3.5;low:3.6,high:3.6,-,-,-,-,-,-,-,-,-,-,-,-,-,-,-,-,-,-,-,-,-,-,-,-,-,-,-,-,-,-,-,-,-,-,-,-,-,-,-,-,-,-,-,-,-,-,-,-,-,-,-,-,-,-,-,-,-,-,-,-,-,-,-,-,-,-,-,-,-,-,-,-,-,-,-,-,-,-,-,-,-,-,-,-,-,-,-,-,-,-,-,-,-,-,-,-,-,-,-,-,-,-,-,-,-,-,-,-,-,-,-,-,-,-,-,-,-
GADM-CAF,-,-,-,-,-,-,-,-,high:3.7,high:3.7,high:3.7,-,-,-,-,-,-,-,-,-,-,-,-,-,-,-,high:3.5;low:3.6,high:3.6,high:3.5;low:3.6,high:3.6,high:3.5;low:3.6,high:3.6,-,-,-,-,-,-,-,-,-,-,-,-,-,-,-,-,-,-,-,-,-,-,-,-,-,-,-,-,-,-,-,-,-,-,-,-,-,-,-,-,-,-,-,-,-,-,-,-,-,-,-,-,-,-,-,-,-,-,-,-,-,-,-,-,-,-,-,-,-,-,-,-,-,-,-,-,-,-,-,-,-,-,-,-,-,-,-,-,-,-,-,-,-,-,-,-,-,-,-,-,-,-,-,-,-,-,-,-,-,-,-,-,-,-,-,-,-
GADM-TCD,-,-,-,-,-,-,-,-,high:3.7,high:3.7,high:3.7,-,-,-,-,-,-,-,-,-,-,-,-,-,-,-,high:3.5;low:3.6,high:3.6,high:3.5;low:3.6,high:3.6,high:3.5;low:3.6,high:3.6,-,-,-,-,-,-,-,-,-,-,-,-,-,-,-,-,-,-,-,-,-,-,-,-,-,-,-,-,-,-,-,-,-,-,-,-,-,-,-,-,-,-,-,-,-,-,-,-,-,-,-,-,-,-,-,-,-,-,-,-,-,-,-,-,-,-,-,-,-,-,-,-,-,-,-,-,-,-,-,-,-,-,-,-,-,-,-,-,-,-,-,-,-,-,-,-,-,-,-,-,-,-,-,-,-,-,-,-,-,-,-,-,-,-,-,-,-
GADM-CHL,-,-,-,-,-,-,-,-,high:4.3,high:4.3,high:4.3,-,-,-,-,-,-,-,-,-,-,-,-,-,-,-,high:3.2,high:3.1;low:3.2,high:3.2,high:3.1;low:3.2,high:3.2,high:3.1;low:3.2,-,-,-,-,-,-,-,-,-,-,-,-,-,-,-,-,-,-,-,-,-,-,-,-,-,-,-,-,-,-,-,-,-,-,-,-,-,-,-,-,-,-,-,-,-,-,-,-,-,-,-,-,-,-,-,-,-,-,-,-,-,-,-,-,-,-,-,-,-,-,-,-,-,-,-,-,-,-,-,-,-,-,-,-,-,-,-,-,-,-,-,-,-,-,-,-,-,-,-,-,-,-,-,-,-,-,-,-,-,-,-,-,-,-,-,-,-
GADM-CHN,-,-,-,-,-,-,-,-,high:5.2,high:5.2,high:5.2,-,-,-,-,-,-,-,-,-,-,-,-,-,-,-,high:3.3,high:3.1;low:3.2,high:3.3,high:3.1;low:3.2,high:3.3,high:3.1;low:3.2,-,-,-,-,-,-,-,-,-,-,-,-,-,-,-,-,-,-,-,-,-,-,-,-,-,-,-,-,-,-,-,-,-,-,-,-,-,-,-,-,-,-,-,-,-,-,-,-,-,-,-,-,-,-,-,-,-,-,-,-,-,-,-,-,-,-,-,-,-,-,-,-,-,-,-,-,-,-,-,-,-,-,-,-,-,-,-,-,-,-,-,-,-,-,-,-,-,-,-,-,-,-,-,-,-,-,-,-,-,-,-,-,-,-,-,-,-
GADM-COL,-,-,-,-,-,-,-,-,high:4.3,high:4.3,high:4.3,-,-,-,-,-,-,-,-,-,-,-,-,-,-,-,high:3.2,high:3.1;low:3.2,high:3.2,high:3.1;low:3.2,high:3.2,high:3.1;low:3.2,-,-,-,-,-,-,-,-,-,-,-,-,-,-,-,-,-,-,-,-,-,-,-,-,-,-,-,-,-,-,-,-,-,-,-,-,-,-,-,-,-,-,-,-,-,-,-,-,-,-,-,-,-,-,-,-,-,-,-,-,-,-,-,-,-,-,-,-,-,-,-,-,-,-,-,-,-,-,-,-,-,-,-,-,-,-,-,-,-,-,-,-,-,-,-,-,-,-,-,-,-,-,-,-,-,-,-,-,-,-,-,-,-,-,-,-,-
GADM-COM,-,-,-,-,-,-,-,-,high:3.7,high:3.7,high:3.7,-,-,-,-,-,-,-,-,-,-,-,-,-,-,-,high:3.5;low:3.6,high:3.6,high:3.5;low:3.6,high:3.6,high:3.5;low:3.6,high:3.6,-,-,-,-,-,-,-,-,-,-,-,-,-,-,-,-,-,-,-,-,-,-,-,-,-,-,-,-,-,-,-,-,-,-,-,-,-,-,-,-,-,-,-,-,-,-,-,-,-,-,-,-,-,-,-,-,-,-,-,-,-,-,-,-,-,-,-,-,-,-,-,-,-,-,-,-,-,-,-,-,-,-,-,-,-,-,-,-,-,-,-,-,-,-,-,-,-,-,-,-,-,-,-,-,-,-,-,-,-,-,-,-,-,-,-,-,-
GADM-CRI,-,-,-,-,-,-,-,-,high:4.3,high:4.3,high:4.3,-,-,-,-,-,-,-,-,-,-,-,-,-,-,-,high:3.2,high:3.1;low:3.2,high:3.2,high:3.1;low:3.2,high:3.2,high:3.1;low:3.2,-,-,-,-,-,-,-,-,-,-,-,-,-,-,-,-,-,-,-,-,-,-,-,-,-,-,-,-,-,-,-,-,-,-,-,-,-,-,-,-,-,-,-,-,-,-,-,-,-,-,-,-,-,-,-,-,-,-,-,-,-,-,-,-,-,-,-,-,-,-,-,-,-,-,-,-,-,-,-,-,-,-,-,-,-,-,-,-,-,-,-,-,-,-,-,-,-,-,-,-,-,-,-,-,-,-,-,-,-,-,-,-,-,-,-,-,-
GADM-CIV,-,-,-,-,-,-,-,-,high:3.7,high:3.7,high:3.7,-,-,-,-,-,-,-,-,-,-,-,-,-,-,-,high:3.5;low:3.6,high:3.6,high:3.5;low:3.6,high:3.6,high:3.5;low:3.6,high:3.6,-,-,-,-,-,-,-,-,-,-,-,-,-,-,-,-,-,-,-,-,-,-,-,-,-,-,-,-,-,-,-,-,-,-,-,-,-,-,-,-,-,-,-,-,-,-,-,-,-,-,-,-,-,-,-,-,-,-,-,-,-,-,-,-,-,-,-,-,-,-,-,-,-,-,-,-,-,-,-,-,-,-,-,-,-,-,-,-,-,-,-,-,-,-,-,-,-,-,-,-,-,-,-,-,-,-,-,-,-,-,-,-,-,-,-,-,-
GADM-HRV,-,-,-,-,-,-,-,-,high:4.3,high:4.3,high:4.3,-,-,-,-,-,-,-,-,-,-,-,-,-,-,-,high:3.7,high:3.2,high:3.7,high:3.2,high:3.7,high:3.2,-,-,-,-,-,-,-,-,-,-,-,-,-,-,-,-,-,-,-,-,-,-,-,-,-,-,-,-,-,-,-,-,-,-,-,-,-,-,-,-,-,-,-,-,-,-,-,-,-,-,-,-,-,-,-,-,-,-,-,-,-,-,-,-,-,-,-,-,-,-,-,-,-,-,-,-,-,-,-,-,-,-,-,-,-,-,-,-,-,-,-,-,-,-,-,-,-,-,-,-,-,-,-,-,-,-,-,-,-,-,-,-,-,-,-,-,-
GADM-CUB,-,-,-,-,-,-,-,-,high:4.3,high:4.3,high:4.3,-,-,-,-,-,-,-,-,-,-,-,-,-,-,-,high:3.2,high:3.1;low:3.2,high:3.2,high:3.1;low:3.2,high:3.2,high:3.1;low:3.2,-,-,-,-,-,-,-,-,-,-,-,-,-,-,-,-,-,-,-,-,-,-,-,-,-,-,-,-,-,-,-,-,-,-,-,-,-,-,-,-,-,-,-,-,-,-,-,-,-,-,-,-,-,-,-,-,-,-,-,-,-,-,-,-,-,-,-,-,-,-,-,-,-,-,-,-,-,-,-,-,-,-,-,-,-,-,-,-,-,-,-,-,-,-,-,-,-,-,-,-,-,-,-,-,-,-,-,-,-,-,-,-,-,-,-,-,-
GADM-CYP,-,-,-,-,-,-,-,-,high:4.2,high:4.2,high:4.2,-,-,-,-,-,-,-,-,-,-,-,-,-,-,-,high:3.3;low:3.2,high:3.2;low:3.7,high:3.3;low:3.2,high:3.2;low:3.7,high:3.3;low:3.2,high:3.2;low:3.7,-,-,-,-,-,-,-,-,-,-,-,-,-,-,-,-,-,-,-,-,-,-,-,-,-,-,-,-,-,-,-,-,-,-,-,-,-,-,-,-,-,-,-,-,-,-,-,-,-,-,-,-,-,-,-,-,-,-,-,-,-,-,-,-,-,-,-,-,-,-,-,-,-,-,-,-,-,-,-,-,-,-,-,-,-,-,-,-,-,-,-,-,-,-,-,-,-,-,-,-,-,-,-,-,-,-,-,-,-,-,-,-,-,-,-,-,-
GADM-CZE,-,-,-,-,-,-,-,-,high:4.3,high:4.3,high:4.3,-,-,-,-,-,-,-,-,-,-,-,-,-,-,-,high:3.7,high:3.2,high:3.7,high:3.2,high:3.7,high:3.2,-,-,-,-,-,-,-,-,-,-,-,-,-,-,-,-,-,-,-,-,-,-,-,-,-,-,-,-,-,-,-,-,-,-,-,-,-,-,-,-,-,-,-,-,-,-,-,-,-,-,-,-,-,-,-,-,-,-,-,-,-,-,-,-,-,-,-,-,-,-,-,-,-,-,-,-,-,-,-,-,-,-,-,-,-,-,-,-,-,-,-,-,-,-,-,-,-,-,-,-,-,-,-,-,-,-,-,-,-,-,-,-,-,-,-,-,-
GADM-COD,-,-,-,-,-,-,-,-,high:3.7,high:3.7,high:3.7,-,-,-,-,-,-,-,-,-,-,-,-,-,-,-,high:3.5;low:3.6,high:3.6,high:3.5;low:3.6,high:3.6,high:3.5;low:3.6,high:3.6,-,-,-,-,-,-,-,-,-,-,-,-,-,-,-,-,-,-,-,-,-,-,-,-,-,-,-,-,-,-,-,-,-,-,-,-,-,-,-,-,-,-,-,-,-,-,-,-,-,-,-,-,-,-,-,-,-,-,-,-,-,-,-,-,-,-,-,-,-,-,-,-,-,-,-,-,-,-,-,-,-,-,-,-,-,-,-,-,-,-,-,-,-,-,-,-,-,-,-,-,-,-,-,-,-,-,-,-,-,-,-,-,-,-,-,-,-
GADM-DNK,-,-,-,-,-,-,-,-,high:4.6,high:4.6,high:4.6,-,-,-,-,-,-,-,-,-,-,-,-,-,-,-,high:3.6,high:3.2,high:3.6,high:3.2,high:3.6,high:3.2,-,-,-,-,-,-,-,-,-,-,-,-,-,-,-,-,-,-,-,-,-,-,-,-,-,-,-,-,-,-,-,-,-,-,-,-,-,-,-,-,-,-,-,-,-,-,-,-,-,-,-,-,-,-,-,-,-,-,-,-,-,-,-,-,-,-,-,-,-,-,-,-,-,-,-,-,-,-,-,-,-,-,-,-,-,-,-,-,-,-,-,-,-,-,-,-,-,-,-,-,-,-,-,-,-,-,-,-,-,-,-,-,-,-,-,-,-
GADM-DJI,-,-,-,-,-,-,-,-,high:3.7,high:3.7,high:3.7,-,-,-,-,-,-,-,-,-,-,-,-,-,-,-,high:3.5;low:3.6,high:3.6,high:3.5;low:3.6,high:3.6,high:3.5;low:3.6,high:3.6,-,-,-,-,-,-,-,-,-,-,-,-,-,-,-,-,-,-,-,-,-,-,-,-,-,-,-,-,-,-,-,-,-,-,-,-,-,-,-,-,-,-,-,-,-,-,-,-,-,-,-,-,-,-,-,-,-,-,-,-,-,-,-,-,-,-,-,-,-,-,-,-,-,-,-,-,-,-,-,-,-,-,-,-,-,-,-,-,-,-,-,-,-,-,-,-,-,-,-,-,-,-,-,-,-,-,-,-,-,-,-,-,-,-,-,-,-
GADM-DMA,-,-,-,-,-,-,-,-,high:4.3,high:4.3,high:4.3,-,-,-,-,-,-,-,-,-,-,-,-,-,-,-,high:3.2,high:3.1;low:3.2,high:3.2,high:3.1;low:3.2,high:3.2,high:3.1;low:3.2,-,-,-,-,-,-,-,-,-,-,-,-,-,-,-,-,-,-,-,-,-,-,-,-,-,-,-,-,-,-,-,-,-,-,-,-,-,-,-,-,-,-,-,-,-,-,-,-,-,-,-,-,-,-,-,-,-,-,-,-,-,-,-,-,-,-,-,-,-,-,-,-,-,-,-,-,-,-,-,-,-,-,-,-,-,-,-,-,-,-,-,-,-,-,-,-,-,-,-,-,-,-,-,-,-,-,-,-,-,-,-,-,-,-,-,-,-
GADM-DOM,-,-,-,-,-,-,-,-,high:4.3,high:4.3,high:4.3,-,-,-,-,-,-,-,-,-,-,-,-,-,-,-,high:3.2,high:3.1;low:3.2,high:3.2,high:3.1;low:3.2,high:3.2,high:3.1;low:3.2,-,-,-,-,-,-,-,-,-,-,-,-,-,-,-,-,-,-,-,-,-,-,-,-,-,-,-,-,-,-,-,-,-,-,-,-,-,-,-,-,-,-,-,-,-,-,-,-,-,-,-,-,-,-,-,-,-,-,-,-,-,-,-,-,-,-,-,-,-,-,-,-,-,-,-,-,-,-,-,-,-,-,-,-,-,-,-,-,-,-,-,-,-,-,-,-,-,-,-,-,-,-,-,-,-,-,-,-,-,-,-,-,-,-,-,-,-
GADM-ECU,-,-,-,-,-,-,-,-,high:4.3,high:4.3,high:4.3,-,-,-,-,-,-,-,-,-,-,-,-,-,-,-,high:3.2,high:3.1;low:3.2,high:3.2,high:3.1;low:3.2,high:3.2,high:3.1;low:3.2,-,-,-,-,-,-,-,-,-,-,-,-,-,-,-,-,-,-,-,-,-,-,-,-,-,-,-,-,-,-,-,-,-,-,-,-,-,-,-,-,-,-,-,-,-,-,-,-,-,-,-,-,-,-,-,-,-,-,-,-,-,-,-,-,-,-,-,-,-,-,-,-,-,-,-,-,-,-,-,-,-,-,-,-,-,-,-,-,-,-,-,-,-,-,-,-,-,-,-,-,-,-,-,-,-,-,-,-,-,-,-,-,-,-,-,-,-
GADM-EGY,-,-,-,-,-,-,-,-,high:3.7,high:3.7,high:3.7,-,-,-,-,-,-,-,-,-,-,-,-,-,-,-,high:3.5;low:3.6,high:3.6,high:3.5;low:3.6,high:3.6,high:3.5;low:3.6,high:3.6,-,-,-,-,-,-,-,-,-,-,-,-,-,-,-,-,-,-,-,-,-,-,-,-,-,-,-,-,-,-,-,-,-,-,-,-,-,-,-,-,-,-,-,-,-,-,-,-,-,-,-,-,-,-,-,-,-,-,-,-,-,-,-,-,-,-,-,-,-,-,-,-,-,-,-,-,-,-,-,-,-,-,-,-,-,-,-,-,-,-,-,-,-,-,-,-,-,-,-,-,-,-,-,-,-,-,-,-,-,-,-,-,-,-,-,-,-
GADM-SLV,-,-,-,-,-,-,-,-,high:4.3,high:4.3,high:4.3,-,-,-,-,-,-,-,-,-,-,-,-,-,-,-,high:3.2,high:3.1;low:3.2,high:3.2,high:3.1;low:3.2,high:3.2,high:3.1;low:3.2,-,-,-,-,-,-,-,-,-,-,-,-,-,-,-,-,-,-,-,-,-,-,-,-,-,-,-,-,-,-,-,-,-,-,-,-,-,-,-,-,-,-,-,-,-,-,-,-,-,-,-,-,-,-,-,-,-,-,-,-,-,-,-,-,-,-,-,-,-,-,-,-,-,-,-,-,-,-,-,-,-,-,-,-,-,-,-,-,-,-,-,-,-,-,-,-,-,-,-,-,-,-,-,-,-,-,-,-,-,-,-,-,-,-,-,-,-
GADM-GNQ,-,-,-,-,-,-,-,-,high:3.7,high:3.7,high:3.7,-,-,-,-,-,-,-,-,-,-,-,-,-,-,-,high:3.5;low:3.6,high:3.6,high:3.5;low:3.6,high:3.6,high:3.5;low:3.6,high:3.6,-,-,-,-,-,-,-,-,-,-,-,-,-,-,-,-,-,-,-,-,-,-,-,-,-,-,-,-,-,-,-,-,-,-,-,-,-,-,-,-,-,-,-,-,-,-,-,-,-,-,-,-,-,-,-,-,-,-,-,-,-,-,-,-,-,-,-,-,-,-,-,-,-,-,-,-,-,-,-,-,-,-,-,-,-,-,-,-,-,-,-,-,-,-,-,-,-,-,-,-,-,-,-,-,-,-,-,-,-,-,-,-,-,-,-,-,-
GADM-ERI,-,-,-,-,-,-,-,-,high:3.7,high:3.7,high:3.7,-,-,-,-,-,-,-,-,-,-,-,-,-,-,-,high:3.5;low:3.6,high:3.6,high:3.5;low:3.6,high:3.6,high:3.5;low:3.6,high:3.6,-,-,-,-,-,-,-,-,-,-,-,-,-,-,-,-,-,-,-,-,-,-,-,-,-,-,-,-,-,-,-,-,-,-,-,-,-,-,-,-,-,-,-,-,-,-,-,-,-,-,-,-,-,-,-,-,-,-,-,-,-,-,-,-,-,-,-,-,-,-,-,-,-,-,-,-,-,-,-,-,-,-,-,-,-,-,-,-,-,-,-,-,-,-,-,-,-,-,-,-,-,-,-,-,-,-,-,-,-,-,-,-,-,-,-,-,-
GADM-EST,-,-,-,-,-,-,-,-,high:4.6,high:4.6,high:4.6,-,-,-,-,-,-,-,-,-,-,-,-,-,-,-,high:3.6,high:3.2,high:3.6,high:3.2,high:3.6,high:3.2,-,-,-,-,-,-,-,-,-,-,-,-,-,-,-,-,-,-,-,-,-,-,-,-,-,-,-,-,-,-,-,-,-,-,-,-,-,-,-,-,-,-,-,-,-,-,-,-,-,-,-,-,-,-,-,-,-,-,-,-,-,-,-,-,-,-,-,-,-,-,-,-,-,-,-,-,-,-,-,-,-,-,-,-,-,-,-,-,-,-,-,-,-,-,-,-,-,-,-,-,-,-,-,-,-,-,-,-,-,-,-,-,-,-,-,-,-
GADM-ETH,-,-,-,-,-,-,-,-,high:3.7,high:3.7,high:3.7,-,-,-,-,-,-,-,-,-,-,-,-,-,-,-,high:3.5;low:3.6,high:3.6,high:3.5;low:3.6,high:3.6,high:3.5;low:3.6,high:3.6,-,-,-,-,-,-,-,-,-,-,-,-,-,-,-,-,-,-,-,-,-,-,-,-,-,-,-,-,-,-,-,-,-,-,-,-,-,-,-,-,-,-,-,-,-,-,-,-,-,-,-,-,-,-,-,-,-,-,-,-,-,-,-,-,-,-,-,-,-,-,-,-,-,-,-,-,-,-,-,-,-,-,-,-,-,-,-,-,-,-,-,-,-,-,-,-,-,-,-,-,-,-,-,-,-,-,-,-,-,-,-,-,-,-,-,-,-
GADM-FJI,-,-,-,-,-,-,-,-,-,-,-,-,-,-,-,-,-,-,-,-,-,-,-,-,-,-,high:3.7,high:3.7,high:3.7,high:3.7,high:3.7,high:3.7,-,-,-,-,-,-,-,-,-,-,-,-,-,-,-,-,-,-,-,-,-,-,-,-,-,-,-,-,-,-,-,-,-,-,-,-,-,-,-,-,-,-,-,-,-,-,-,-,-,-,-,-,-,-,-,-,-,-,-,-,-,-,-,-,-,-,-,-,-,-,-,-,-,-,-,-,-,-,-,-,-,-,-,-,-,-,-,-,-,-,-,-,-,-,-,-,-,-,-,-,-,-,-,-,-,-,-,-,-,-,-,-,-,-,-,-,-
GADM-FIN,-,-,-,-,-,-,-,-,high:4.3,high:4.3,high:4.3,-,-,-,-,-,-,-,-,-,-,-,-,-,-,-,high:3.7,high:3.2,high:3.7,high:3.2,high:3.7,high:3.2,-,-,-,-,-,-,-,-,-,-,-,-,-,-,-,-,-,-,-,-,-,-,-,-,-,-,-,-,-,-,-,-,-,-,-,-,-,-,-,-,-,-,-,-,-,-,-,-,-,-,-,-,-,-,-,-,-,-,-,-,-,-,-,-,-,-,-,-,-,-,-,-,-,-,-,-,-,-,-,-,-,-,-,-,-,-,-,-,-,-,-,-,-,-,-,-,-,-,-,-,-,-,-,-,-,-,-,-,-,-,-,-,-,-,-,-,-
GADM-FRA,-,-,-,-,-,-,-,-,high:4.6,high:4.6,high:4.6,-,-,-,-,-,-,-,-,-,-,-,-,-,-,-,high:3.6,high:3.2,high:3.6,high:3.2,high:3.6,high:3.2,-,-,-,-,-,-,-,-,-,-,-,-,-,-,-,-,-,-,-,-,-,-,-,-,-,-,-,-,-,-,-,-,-,-,-,-,-,-,-,-,-,-,-,-,-,-,-,-,-,-,-,-,-,-,-,-,-,-,-,-,-,-,-,-,-,-,-,-,-,-,-,-,-,-,-,-,-,-,-,-,-,-,-,-,-,-,-,-,-,-,-,-,-,-,-,-,-,-,-,-,-,-,-,-,-,-,-,-,-,-,-,-,-,-,-,-,-
GADM-GAB,-,-,-,-,-,-,-,-,high:3.7,high:3.7,high:3.7,-,-,-,-,-,-,-,-,-,-,-,-,-,-,-,high:3.5;low:3.6,high:3.6,high:3.5;low:3.6,high:3.6,high:3.5;low:3.6,high:3.6,-,-,-,-,-,-,-,-,-,-,-,-,-,-,-,-,-,-,-,-,-,-,-,-,-,-,-,-,-,-,-,-,-,-,-,-,-,-,-,-,-,-,-,-,-,-,-,-,-,-,-,-,-,-,-,-,-,-,-,-,-,-,-,-,-,-,-,-,-,-,-,-,-,-,-,-,-,-,-,-,-,-,-,-,-,-,-,-,-,-,-,-,-,-,-,-,-,-,-,-,-,-,-,-,-,-,-,-,-,-,-,-,-,-,-,-,-
GADM-GMB,-,-,-,-,-,-,-,-,high:3.7,high:3.7,high:3.7,-,-,-,-,-,-,-,-,-,-,-,-,-,-,-,high:3.5;low:3.6,high:3.6,high:3.5;low:3.6,high:3.6,high:3.5;low:3.6,high:3.6,-,-,-,-,-,-,-,-,-,-,-,-,-,-,-,-,-,-,-,-,-,-,-,-,-,-,-,-,-,-,-,-,-,-,-,-,-,-,-,-,-,-,-,-,-,-,-,-,-,-,-,-,-,-,-,-,-,-,-,-,-,-,-,-,-,-,-,-,-,-,-,-,-,-,-,-,-,-,-,-,-,-,-,-,-,-,-,-,-,-,-,-,-,-,-,-,-,-,-,-,-,-,-,-,-,-,-,-,-,-,-,-,-,-,-,-,-
GADM-GEO,-,-,-,-,-,-,-,-,high:4.2,high:4.2,high:4.2,-,-,-,-,-,-,-,-,-,-,-,-,-,-,-,high:3.3;low:3.2,high:3.2;low:3.7,high:3.3;low:3.2,high:3.2;low:3.7,high:3.3;low:3.2,high:3.2;low:3.7,-,-,-,-,-,-,-,-,-,-,-,-,-,-,-,-,-,-,-,-,-,-,-,-,-,-,-,-,-,-,-,-,-,-,-,-,-,-,-,-,-,-,-,-,-,-,-,-,-,-,-,-,-,-,-,-,-,-,-,-,-,-,-,-,-,-,-,-,-,-,-,-,-,-,-,-,-,-,-,-,-,-,-,-,-,-,-,-,-,-,-,-,-,-,-,-,-,-,-,-,-,-,-,-,-,-,-,-,-,-,-,-,-,-,-,-,-
GADM-DEU,-,-,-,-,-,-,-,-,high:4.6,high:4.6,high:4.6,-,-,-,-,-,-,-,-,-,-,-,-,-,-,-,high:3.6,high:3.2,high:3.6,high:3.2,high:3.6,high:3.2,-,-,-,-,-,-,-,-,-,-,-,-,-,-,-,-,-,-,-,-,-,-,-,-,-,-,-,-,-,-,-,-,-,-,-,-,-,-,-,-,-,-,-,-,-,-,-,-,-,-,-,-,-,-,-,-,-,-,-,-,-,-,-,-,-,-,-,-,-,-,-,-,-,-,-,-,-,-,-,-,-,-,-,-,-,-,-,-,-,-,-,-,-,-,-,-,-,-,-,-,-,-,-,-,-,-,-,-,-,-,-,-,-,-,-,-,-
GADM-GHA,-,-,-,-,-,-,-,-,high:3.7,high:3.7,high:3.7,-,-,-,-,-,-,-,-,-,-,-,-,-,-,-,high:3.5;low:3.6,high:3.6,high:3.5;low:3.6,high:3.6,high:3.5;low:3.6,high:3.6,-,-,-,-,-,-,-,-,-,-,-,-,-,-,-,-,-,-,-,-,-,-,-,-,-,-,-,-,-,-,-,-,-,-,-,-,-,-,-,-,-,-,-,-,-,-,-,-,-,-,-,-,-,-,-,-,-,-,-,-,-,-,-,-,-,-,-,-,-,-,-,-,-,-,-,-,-,-,-,-,-,-,-,-,-,-,-,-,-,-,-,-,-,-,-,-,-,-,-,-,-,-,-,-,-,-,-,-,-,-,-,-,-,-,-,-,-
GADM-GRC,-,-,-,-,-,-,-,-,high:4.3,high:4.3,high:4.3,-,-,-,-,-,-,-,-,-,-,-,-,-,-,-,high:3.7,high:3.2,high:3.7,high:3.2,high:3.7,high:3.2,-,-,-,-,-,-,-,-,-,-,-,-,-,-,-,-,-,-,-,-,-,-,-,-,-,-,-,-,-,-,-,-,-,-,-,-,-,-,-,-,-,-,-,-,-,-,-,-,-,-,-,-,-,-,-,-,-,-,-,-,-,-,-,-,-,-,-,-,-,-,-,-,-,-,-,-,-,-,-,-,-,-,-,-,-,-,-,-,-,-,-,-,-,-,-,-,-,-,-,-,-,-,-,-,-,-,-,-,-,-,-,-,-,-,-,-,-
GADM-GRD,-,-,-,-,-,-,-,-,high:4.3,high:4.3,high:4.3,-,-,-,-,-,-,-,-,-,-,-,-,-,-,-,high:3.2,high:3.1;low:3.2,high:3.2,high:3.1;low:3.2,high:3.2,high:3.1;low:3.2,-,-,-,-,-,-,-,-,-,-,-,-,-,-,-,-,-,-,-,-,-,-,-,-,-,-,-,-,-,-,-,-,-,-,-,-,-,-,-,-,-,-,-,-,-,-,-,-,-,-,-,-,-,-,-,-,-,-,-,-,-,-,-,-,-,-,-,-,-,-,-,-,-,-,-,-,-,-,-,-,-,-,-,-,-,-,-,-,-,-,-,-,-,-,-,-,-,-,-,-,-,-,-,-,-,-,-,-,-,-,-,-,-,-,-,-,-
GADM-GTM,-,-,-,-,-,-,-,-,high:4.3,high:4.3,high:4.3,-,-,-,-,-,-,-,-,-,-,-,-,-,-,-,high:3.2,high:3.1;low:3.2,high:3.2,high:3.1;low:3.2,high:3.2,high:3.1;low:3.2,-,-,-,-,-,-,-,-,-,-,-,-,-,-,-,-,-,-,-,-,-,-,-,-,-,-,-,-,-,-,-,-,-,-,-,-,-,-,-,-,-,-,-,-,-,-,-,-,-,-,-,-,-,-,-,-,-,-,-,-,-,-,-,-,-,-,-,-,-,-,-,-,-,-,-,-,-,-,-,-,-,-,-,-,-,-,-,-,-,-,-,-,-,-,-,-,-,-,-,-,-,-,-,-,-,-,-,-,-,-,-,-,-,-,-,-,-
GADM-GIN,-,-,-,-,-,-,-,-,high:3.7,high:3.7,high:3.7,-,-,-,-,-,-,-,-,-,-,-,-,-,-,-,high:3.5;low:3.6,high:3.6,high:3.5;low:3.6,high:3.6,high:3.5;low:3.6,high:3.6,-,-,-,-,-,-,-,-,-,-,-,-,-,-,-,-,-,-,-,-,-,-,-,-,-,-,-,-,-,-,-,-,-,-,-,-,-,-,-,-,-,-,-,-,-,-,-,-,-,-,-,-,-,-,-,-,-,-,-,-,-,-,-,-,-,-,-,-,-,-,-,-,-,-,-,-,-,-,-,-,-,-,-,-,-,-,-,-,-,-,-,-,-,-,-,-,-,-,-,-,-,-,-,-,-,-,-,-,-,-,-,-,-,-,-,-,-
GADM-GNB,-,-,-,-,-,-,-,-,high:3.7,high:3.7,high:3.7,-,-,-,-,-,-,-,-,-,-,-,-,-,-,-,high:3.5;low:3.6,high:3.6,high:3.5;low:3.6,high:3.6,high:3.5;low:3.6,high:3.6,-,-,-,-,-,-,-,-,-,-,-,-,-,-,-,-,-,-,-,-,-,-,-,-,-,-,-,-,-,-,-,-,-,-,-,-,-,-,-,-,-,-,-,-,-,-,-,-,-,-,-,-,-,-,-,-,-,-,-,-,-,-,-,-,-,-,-,-,-,-,-,-,-,-,-,-,-,-,-,-,-,-,-,-,-,-,-,-,-,-,-,-,-,-,-,-,-,-,-,-,-,-,-,-,-,-,-,-,-,-,-,-,-,-,-,-,-
GADM-GUY,-,-,-,-,-,-,-,-,high:4.3,high:4.3,high:4.3,-,-,-,-,-,-,-,-,-,-,-,-,-,-,-,high:3.2,high:3.1;low:3.2,high:3.2,high:3.1;low:3.2,high:3.2,high:3.1;low:3.2,-,-,-,-,-,-,-,-,-,-,-,-,-,-,-,-,-,-,-,-,-,-,-,-,-,-,-,-,-,-,-,-,-,-,-,-,-,-,-,-,-,-,-,-,-,-,-,-,-,-,-,-,-,-,-,-,-,-,-,-,-,-,-,-,-,-,-,-,-,-,-,-,-,-,-,-,-,-,-,-,-,-,-,-,-,-,-,-,-,-,-,-,-,-,-,-,-,-,-,-,-,-,-,-,-,-,-,-,-,-,-,-,-,-,-,-,-
GADM-HTI,-,-,-,-,-,-,-,-,high:4.3,high:4.3,high:4.3,-,-,-,-,-,-,-,-,-,-,-,-,-,-,-,high:3.2,high:3.1;low:3.2,high:3.2,high:3.1;low:3.2,high:3.2,high:3.1;low:3.2,-,-,-,-,-,-,-,-,-,-,-,-,-,-,-,-,-,-,-,-,-,-,-,-,-,-,-,-,-,-,-,-,-,-,-,-,-,-,-,-,-,-,-,-,-,-,-,-,-,-,-,-,-,-,-,-,-,-,-,-,-,-,-,-,-,-,-,-,-,-,-,-,-,-,-,-,-,-,-,-,-,-,-,-,-,-,-,-,-,-,-,-,-,-,-,-,-,-,-,-,-,-,-,-,-,-,-,-,-,-,-,-,-,-,-,-,-
GADM-HND,-,-,-,-,-,-,-,-,high:4.3,high:4.3,high:4.3,-,-,-,-,-,-,-,-,-,-,-,-,-,-,-,high:3.2,high:3.1;low:3.2,high:3.2,high:3.1;low:3.2,high:3.2,high:3.1;low:3.2,-,-,-,-,-,-,-,-,-,-,-,-,-,-,-,-,-,-,-,-,-,-,-,-,-,-,-,-,-,-,-,-,-,-,-,-,-,-,-,-,-,-,-,-,-,-,-,-,-,-,-,-,-,-,-,-,-,-,-,-,-,-,-,-,-,-,-,-,-,-,-,-,-,-,-,-,-,-,-,-,-,-,-,-,-,-,-,-,-,-,-,-,-,-,-,-,-,-,-,-,-,-,-,-,-,-,-,-,-,-,-,-,-,-,-,-,-
GADM-HUN,-,-,-,-,-,-,-,-,high:4.3,high:4.3,high:4.3,-,-,-,-,-,-,-,-,-,-,-,-,-,-,-,high:3.7,high:3.2,high:3.7,high:3.2,high:3.7,high:3.2,-,-,-,-,-,-,-,-,-,-,-,-,-,-,-,-,-,-,-,-,-,-,-,-,-,-,-,-,-,-,-,-,-,-,-,-,-,-,-,-,-,-,-,-,-,-,-,-,-,-,-,-,-,-,-,-,-,-,-,-,-,-,-,-,-,-,-,-,-,-,-,-,-,-,-,-,-,-,-,-,-,-,-,-,-,-,-,-,-,-,-,-,-,-,-,-,-,-,-,-,-,-,-,-,-,-,-,-,-,-,-,-,-,-,-,-,-
GADM-ISL,-,-,-,-,-,-,-,-,high:4.6,high:4.6,high:4.6,-,-,-,-,-,-,-,-,-,-,-,-,-,-,-,high:3.6,high:3.2,high:3.6,high:3.2,high:3.6,high:3.2,-,-,-,-,-,-,-,-,-,-,-,-,-,-,-,-,-,-,-,-,-,-,-,-,-,-,-,-,-,-,-,-,-,-,-,-,-,-,-,-,-,-,-,-,-,-,-,-,-,-,-,-,-,-,-,-,-,-,-,-,-,-,-,-,-,-,-,-,-,-,-,-,-,-,-,-,-,-,-,-,-,-,-,-,-,-,-,-,-,-,-,-,-,-,-,-,-,-,-,-,-,-,-,-,-,-,-,-,-,-,-,-,-,-,-,-,-
GADM-IND,-,-,-,-,-,-,-,-,high:3.5,high:3.5,high:3.5,-,-,-,-,-,-,-,-,-,-,-,-,-,-,-,high:3.6;low:3.7,high:3.6;low:3.7,high:3.6;low:3.7,high:3.6;low:3.7,high:3.6;low:3.7,high:3.6;low:3.7,-,-,-,-,-,-,-,-,-,-,-,-,-,-,-,-,-,-,-,-,-,-,-,-,-,-,-,-,-,-,-,-,-,-,-,-,-,-,-,-,-,-,-,-,-,-,-,-,-,-,-,-,-,-,-,-,-,-,-,-,-,-,-,-,-,-,-,-,-,-,-,-,-,-,-,-,-,-,-,-,-,-,-,-,-,-,-,-,-,-,-,-,-,-,-,-,-,-,-,-,-,-,-,-,-,-,-,-,-,-,-,-,-,-,-,-,-
GADM-IDN,-,-,-,-,-,-,-,-,high:5.2,high:5.2,high:5.2,-,-,-,-,-,-,-,-,-,-,-,-,-,-,-,high:3.3,high:3.1;low:3.2,high:3.3,high:3.1;low:3.2,high:3.3,high:3.1;low:3.2,-,-,-,-,-,-,-,-,-,-,-,-,-,-,-,-,-,-,-,-,-,-,-,-,-,-,-,-,-,-,-,-,-,-,-,-,-,-,-,-,-,-,-,-,-,-,-,-,-,-,-,-,-,-,-,-,-,-,-,-,-,-,-,-,-,-,-,-,-,-,-,-,-,-,-,-,-,-,-,-,-,-,-,-,-,-,-,-,-,-,-,-,-,-,-,-,-,-,-,-,-,-,-,-,-,-,-,-,-,-,-,-,-,-,-,-,-
GADM-IRN,-,-,-,-,-,-,-,-,high:5.2,high:5.2,high:5.2,-,-,-,-,-,-,-,-,-,-,-,-,-,-,-,high:3.3,high:3.1;low:3.2,high:3.3,high:3.1;low:3.2,high:3.3,high:3.1;low:3.2,-,-,-,-,-,-,-,-,-,-,-,-,-,-,-,-,-,-,-,-,-,-,-,-,-,-,-,-,-,-,-,-,-,-,-,-,-,-,-,-,-,-,-,-,-,-,-,-,-,-,-,-,-,-,-,-,-,-,-,-,-,-,-,-,-,-,-,-,-,-,-,-,-,-,-,-,-,-,-,-,-,-,-,-,-,-,-,-,-,-,-,-,-,-,-,-,-,-,-,-,-,-,-,-,-,-,-,-,-,-,-,-,-,-,-,-,-
GADM-IRQ,-,-,-,-,-,-,-,-,high:4.2,high:4.2,high:4.2,-,-,-,-,-,-,-,-,-,-,-,-,-,-,-,high:3.3;low:3.2,high:3.2;low:3.7,high:3.3;low:3.2,high:3.2;low:3.7,high:3.3;low:3.2,high:3.2;low:3.7,-,-,-,-,-,-,-,-,-,-,-,-,-,-,-,-,-,-,-,-,-,-,-,-,-,-,-,-,-,-,-,-,-,-,-,-,-,-,-,-,-,-,-,-,-,-,-,-,-,-,-,-,-,-,-,-,-,-,-,-,-,-,-,-,-,-,-,-,-,-,-,-,-,-,-,-,-,-,-,-,-,-,-,-,-,-,-,-,-,-,-,-,-,-,-,-,-,-,-,-,-,-,-,-,-,-,-,-,-,-,-,-,-,-,-,-,-
GADM-IRL,-,-,-,-,-,-,-,-,high:4.6,high:4.6,high:4.6,-,-,-,-,-,-,-,-,-,-,-,-,-,-,-,high:3.6,high:3.2,high:3.6,high:3.2,high:3.6,high:3.2,-,-,-,-,-,-,-,-,-,-,-,-,-,-,-,-,-,-,-,-,-,-,-,-,-,-,-,-,-,-,-,-,-,-,-,-,-,-,-,-,-,-,-,-,-,-,-,-,-,-,-,-,-,-,-,-,-,-,-,-,-,-,-,-,-,-,-,-,-,-,-,-,-,-,-,-,-,-,-,-,-,-,-,-,-,-,-,-,-,-,-,-,-,-,-,-,-,-,-,-,-,-,-,-,-,-,-,-,-,-,-,-,-,-,-,-,-
GADM-ISR,-,-,-,-,-,-,-,-,high:4.2,high:4.2,high:4.2,-,-,-,-,-,-,-,-,-,-,-,-,-,-,-,high:3.3;low:3.2,high:3.2;low:3.7,high:3.3;low:3.2,high:3.2;low:3.7,high:3.3;low:3.2,high:3.2;low:3.7,-,-,-,-,-,-,-,-,-,-,-,-,-,-,-,-,-,-,-,-,-,-,-,-,-,-,-,-,-,-,-,-,-,-,-,-,-,-,-,-,-,-,-,-,-,-,-,-,-,-,-,-,-,-,-,-,-,-,-,-,-,-,-,-,-,-,-,-,-,-,-,-,-,-,-,-,-,-,-,-,-,-,-,-,-,-,-,-,-,-,-,-,-,-,-,-,-,-,-,-,-,-,-,-,-,-,-,-,-,-,-,-,-,-,-,-,-
GADM-ITA,-,-,-,-,-,-,-,-,high:4.6,high:4.6,high:4.6,-,-,-,-,-,-,-,-,-,-,-,-,-,-,-,high:3.6,high:3.2,high:3.6,high:3.2,high:3.6,high:3.2,-,-,-,-,-,-,-,-,-,-,-,-,-,-,-,-,-,-,-,-,-,-,-,-,-,-,-,-,-,-,-,-,-,-,-,-,-,-,-,-,-,-,-,-,-,-,-,-,-,-,-,-,-,-,-,-,-,-,-,-,-,-,-,-,-,-,-,-,-,-,-,-,-,-,-,-,-,-,-,-,-,-,-,-,-,-,-,-,-,-,-,-,-,-,-,-,-,-,-,-,-,-,-,-,-,-,-,-,-,-,-,-,-,-,-,-,-
GADM-JAM,-,-,-,-,-,-,-,-,high:4.3,high:4.3,high:4.3,-,-,-,-,-,-,-,-,-,-,-,-,-,-,-,high:3.2,high:3.1;low:3.2,high:3.2,high:3.1;low:3.2,high:3.2,high:3.1;low:3.2,-,-,-,-,-,-,-,-,-,-,-,-,-,-,-,-,-,-,-,-,-,-,-,-,-,-,-,-,-,-,-,-,-,-,-,-,-,-,-,-,-,-,-,-,-,-,-,-,-,-,-,-,-,-,-,-,-,-,-,-,-,-,-,-,-,-,-,-,-,-,-,-,-,-,-,-,-,-,-,-,-,-,-,-,-,-,-,-,-,-,-,-,-,-,-,-,-,-,-,-,-,-,-,-,-,-,-,-,-,-,-,-,-,-,-,-,-
GADM-JPN,-,-,-,-,-,-,-,-,high:5.2,high:5.2,high:5.2,-,-,-,-,-,-,-,-,-,-,-,-,-,-,-,high:3.3,high:3.1;low:3.2,high:3.3,high:3.1;low:3.2,high:3.3,high:3.1;low:3.2,-,-,-,-,-,-,-,-,-,-,-,-,-,-,-,-,-,-,-,-,-,-,-,-,-,-,-,-,-,-,-,-,-,-,-,-,-,-,-,-,-,-,-,-,-,-,-,-,-,-,-,-,-,-,-,-,-,-,-,-,-,-,-,-,-,-,-,-,-,-,-,-,-,-,-,-,-,-,-,-,-,-,-,-,-,-,-,-,-,-,-,-,-,-,-,-,-,-,-,-,-,-,-,-,-,-,-,-,-,-,-,-,-,-,-,-,-
GADM-JOR,-,-,-,-,-,-,-,-,high:4.2,high:4.2,high:4.2,-,-,-,-,-,-,-,-,-,-,-,-,-,-,-,high:3.3;low:3.2,high:3.2;low:3.7,high:3.3;low:3.2,high:3.2;low:3.7,high:3.3;low:3.2,high:3.2;low:3.7,-,-,-,-,-,-,-,-,-,-,-,-,-,-,-,-,-,-,-,-,-,-,-,-,-,-,-,-,-,-,-,-,-,-,-,-,-,-,-,-,-,-,-,-,-,-,-,-,-,-,-,-,-,-,-,-,-,-,-,-,-,-,-,-,-,-,-,-,-,-,-,-,-,-,-,-,-,-,-,-,-,-,-,-,-,-,-,-,-,-,-,-,-,-,-,-,-,-,-,-,-,-,-,-,-,-,-,-,-,-,-,-,-,-,-,-,-
GADM-KAZ,-,-,-,-,-,-,-,-,high:5.2,high:5.2,high:5.2,-,-,-,-,-,-,-,-,-,-,-,-,-,-,-,high:3.3,high:3.1;low:3.2,high:3.3,high:3.1;low:3.2,high:3.3,high:3.1;low:3.2,-,-,-,-,-,-,-,-,-,-,-,-,-,-,-,-,-,-,-,-,-,-,-,-,-,-,-,-,-,-,-,-,-,-,-,-,-,-,-,-,-,-,-,-,-,-,-,-,-,-,-,-,-,-,-,-,-,-,-,-,-,-,-,-,-,-,-,-,-,-,-,-,-,-,-,-,-,-,-,-,-,-,-,-,-,-,-,-,-,-,-,-,-,-,-,-,-,-,-,-,-,-,-,-,-,-,-,-,-,-,-,-,-,-,-,-,-
GADM-KEN,-,-,-,-,-,-,-,-,high:3.7,high:3.7,high:3.7,-,-,-,-,-,-,-,-,-,-,-,-,-,-,-,high:3.5;low:3.6,high:3.6,high:3.5;low:3.6,high:3.6,high:3.5;low:3.6,high:3.6,-,-,-,-,-,-,-,-,-,-,-,-,-,-,-,-,-,-,-,-,-,-,-,-,-,-,-,-,-,-,-,-,-,-,-,-,-,-,-,-,-,-,-,-,-,-,-,-,-,-,-,-,-,-,-,-,-,-,-,-,-,-,-,-,-,-,-,-,-,-,-,-,-,-,-,-,-,-,-,-,-,-,-,-,-,-,-,-,-,-,-,-,-,-,-,-,-,-,-,-,-,-,-,-,-,-,-,-,-,-,-,-,-,-,-,-,-
GADM-KIR,-,-,-,-,-,-,-,-,-,-,-,-,-,-,-,-,-,-,-,-,-,-,-,-,-,-,high:3.7,high:3.7,high:3.7,high:3.7,high:3.7,high:3.7,-,-,-,-,-,-,-,-,-,-,-,-,-,-,-,-,-,-,-,-,-,-,-,-,-,-,-,-,-,-,-,-,-,-,-,-,-,-,-,-,-,-,-,-,-,-,-,-,-,-,-,-,-,-,-,-,-,-,-,-,-,-,-,-,-,-,-,-,-,-,-,-,-,-,-,-,-,-,-,-,-,-,-,-,-,-,-,-,-,-,-,-,-,-,-,-,-,-,-,-,-,-,-,-,-,-,-,-,-,-,-,-,-,-,-,-,-
GADM-XKO,-,-,-,-,-,-,-,-,high:4.3,high:4.3,high:4.3,-,-,-,-,-,-,-,-,-,-,-,-,-,-,-,high:3.7,high:3.2,high:3.7,high:3.2,high:3.7,high:3.2,-,-,-,-,-,-,-,-,-,-,-,-,-,-,-,-,-,-,-,-,-,-,-,-,-,-,-,-,-,-,-,-,-,-,-,-,-,-,-,-,-,-,-,-,-,-,-,-,-,-,-,-,-,-,-,-,-,-,-,-,-,-,-,-,-,-,-,-,-,-,-,-,-,-,-,-,-,-,-,-,-,-,-,-,-,-,-,-,-,-,-,-,-,-,-,-,-,-,-,-,-,-,-,-,-,-,-,-,-,-,-,-,-,-,-,-,-
GADM-KWT,-,-,-,-,-,-,-,-,high:4.2,high:4.2,high:4.2,-,-,-,-,-,-,-,-,-,-,-,-,-,-,-,high:3.3;low:3.2,high:3.2;low:3.7,high:3.3;low:3.2,high:3.2;low:3.7,high:3.3;low:3.2,high:3.2;low:3.7,-,-,-,-,-,-,-,-,-,-,-,-,-,-,-,-,-,-,-,-,-,-,-,-,-,-,-,-,-,-,-,-,-,-,-,-,-,-,-,-,-,-,-,-,-,-,-,-,-,-,-,-,-,-,-,-,-,-,-,-,-,-,-,-,-,-,-,-,-,-,-,-,-,-,-,-,-,-,-,-,-,-,-,-,-,-,-,-,-,-,-,-,-,-,-,-,-,-,-,-,-,-,-,-,-,-,-,-,-,-,-,-,-,-,-,-,-
GADM-KGZ,-,-,-,-,-,-,-,-,high:5.2,high:5.2,high:5.2,-,-,-,-,-,-,-,-,-,-,-,-,-,-,-,high:3.3,high:3.1;low:3.2,high:3.3,high:3.1;low:3.2,high:3.3,high:3.1;low:3.2,-,-,-,-,-,-,-,-,-,-,-,-,-,-,-,-,-,-,-,-,-,-,-,-,-,-,-,-,-,-,-,-,-,-,-,-,-,-,-,-,-,-,-,-,-,-,-,-,-,-,-,-,-,-,-,-,-,-,-,-,-,-,-,-,-,-,-,-,-,-,-,-,-,-,-,-,-,-,-,-,-,-,-,-,-,-,-,-,-,-,-,-,-,-,-,-,-,-,-,-,-,-,-,-,-,-,-,-,-,-,-,-,-,-,-,-,-
GADM-LAO,-,-,-,-,-,-,-,-,high:5.2,high:5.2,high:5.2,-,-,-,-,-,-,-,-,-,-,-,-,-,-,-,high:3.3,high:3.1;low:3.2,high:3.3,high:3.1;low:3.2,high:3.3,high:3.1;low:3.2,-,-,-,-,-,-,-,-,-,-,-,-,-,-,-,-,-,-,-,-,-,-,-,-,-,-,-,-,-,-,-,-,-,-,-,-,-,-,-,-,-,-,-,-,-,-,-,-,-,-,-,-,-,-,-,-,-,-,-,-,-,-,-,-,-,-,-,-,-,-,-,-,-,-,-,-,-,-,-,-,-,-,-,-,-,-,-,-,-,-,-,-,-,-,-,-,-,-,-,-,-,-,-,-,-,-,-,-,-,-,-,-,-,-,-,-,-
GADM-LVA,-,-,-,-,-,-,-,-,high:4.3,high:4.3,high:4.3,-,-,-,-,-,-,-,-,-,-,-,-,-,-,-,high:3.7,high:3.2,high:3.7,high:3.2,high:3.7,high:3.2,-,-,-,-,-,-,-,-,-,-,-,-,-,-,-,-,-,-,-,-,-,-,-,-,-,-,-,-,-,-,-,-,-,-,-,-,-,-,-,-,-,-,-,-,-,-,-,-,-,-,-,-,-,-,-,-,-,-,-,-,-,-,-,-,-,-,-,-,-,-,-,-,-,-,-,-,-,-,-,-,-,-,-,-,-,-,-,-,-,-,-,-,-,-,-,-,-,-,-,-,-,-,-,-,-,-,-,-,-,-,-,-,-,-,-,-,-
GADM-LBN,-,-,-,-,-,-,-,-,high:4.2,high:4.2,high:4.2,-,-,-,-,-,-,-,-,-,-,-,-,-,-,-,high:3.3;low:3.2,high:3.2;low:3.7,high:3.3;low:3.2,high:3.2;low:3.7,high:3.3;low:3.2,high:3.2;low:3.7,-,-,-,-,-,-,-,-,-,-,-,-,-,-,-,-,-,-,-,-,-,-,-,-,-,-,-,-,-,-,-,-,-,-,-,-,-,-,-,-,-,-,-,-,-,-,-,-,-,-,-,-,-,-,-,-,-,-,-,-,-,-,-,-,-,-,-,-,-,-,-,-,-,-,-,-,-,-,-,-,-,-,-,-,-,-,-,-,-,-,-,-,-,-,-,-,-,-,-,-,-,-,-,-,-,-,-,-,-,-,-,-,-,-,-,-,-
GADM-LSO,-,-,-,-,-,-,-,-,high:3.7,high:3.7,high:3.7,-,-,-,-,-,-,-,-,-,-,-,-,-,-,-,high:3.5;low:3.6,high:3.6,high:3.5;low:3.6,high:3.6,high:3.5;low:3.6,high:3.6,-,-,-,-,-,-,-,-,-,-,-,-,-,-,-,-,-,-,-,-,-,-,-,-,-,-,-,-,-,-,-,-,-,-,-,-,-,-,-,-,-,-,-,-,-,-,-,-,-,-,-,-,-,-,-,-,-,-,-,-,-,-,-,-,-,-,-,-,-,-,-,-,-,-,-,-,-,-,-,-,-,-,-,-,-,-,-,-,-,-,-,-,-,-,-,-,-,-,-,-,-,-,-,-,-,-,-,-,-,-,-,-,-,-,-,-,-
GADM-LBR,-,-,-,-,-,-,-,-,high:3.7,high:3.7,high:3.7,-,-,-,-,-,-,-,-,-,-,-,-,-,-,-,high:3.5;low:3.6,high:3.6,high:3.5;low:3.6,high:3.6,high:3.5;low:3.6,high:3.6,-,-,-,-,-,-,-,-,-,-,-,-,-,-,-,-,-,-,-,-,-,-,-,-,-,-,-,-,-,-,-,-,-,-,-,-,-,-,-,-,-,-,-,-,-,-,-,-,-,-,-,-,-,-,-,-,-,-,-,-,-,-,-,-,-,-,-,-,-,-,-,-,-,-,-,-,-,-,-,-,-,-,-,-,-,-,-,-,-,-,-,-,-,-,-,-,-,-,-,-,-,-,-,-,-,-,-,-,-,-,-,-,-,-,-,-,-
GADM-LBY,-,-,-,-,-,-,-,-,high:3.7,high:3.7,high:3.7,-,-,-,-,-,-,-,-,-,-,-,-,-,-,-,high:3.5;low:3.6,high:3.6,high:3.5;low:3.6,high:3.6,high:3.5;low:3.6,high:3.6,-,-,-,-,-,-,-,-,-,-,-,-,-,-,-,-,-,-,-,-,-,-,-,-,-,-,-,-,-,-,-,-,-,-,-,-,-,-,-,-,-,-,-,-,-,-,-,-,-,-,-,-,-,-,-,-,-,-,-,-,-,-,-,-,-,-,-,-,-,-,-,-,-,-,-,-,-,-,-,-,-,-,-,-,-,-,-,-,-,-,-,-,-,-,-,-,-,-,-,-,-,-,-,-,-,-,-,-,-,-,-,-,-,-,-,-,-
GADM-LIE,-,-,-,-,-,-,-,-,high:4.6,high:4.6,high:4.6,-,-,-,-,-,-,-,-,-,-,-,-,-,-,-,high:3.6,high:3.2,high:3.6,high:3.2,high:3.6,high:3.2,-,-,-,-,-,-,-,-,-,-,-,-,-,-,-,-,-,-,-,-,-,-,-,-,-,-,-,-,-,-,-,-,-,-,-,-,-,-,-,-,-,-,-,-,-,-,-,-,-,-,-,-,-,-,-,-,-,-,-,-,-,-,-,-,-,-,-,-,-,-,-,-,-,-,-,-,-,-,-,-,-,-,-,-,-,-,-,-,-,-,-,-,-,-,-,-,-,-,-,-,-,-,-,-,-,-,-,-,-,-,-,-,-,-,-,-,-
GADM-LTU,-,-,-,-,-,-,-,-,high:4.3,high:4.3,high:4.3,-,-,-,-,-,-,-,-,-,-,-,-,-,-,-,high:3.7,high:3.2,high:3.7,high:3.2,high:3.7,high:3.2,-,-,-,-,-,-,-,-,-,-,-,-,-,-,-,-,-,-,-,-,-,-,-,-,-,-,-,-,-,-,-,-,-,-,-,-,-,-,-,-,-,-,-,-,-,-,-,-,-,-,-,-,-,-,-,-,-,-,-,-,-,-,-,-,-,-,-,-,-,-,-,-,-,-,-,-,-,-,-,-,-,-,-,-,-,-,-,-,-,-,-,-,-,-,-,-,-,-,-,-,-,-,-,-,-,-,-,-,-,-,-,-,-,-,-,-,-
GADM-LUX,-,-,-,-,-,-,-,-,high:4.6,high:4.6,high:4.6,-,-,-,-,-,-,-,-,-,-,-,-,-,-,-,high:3.6,high:3.2,high:3.6,high:3.2,high:3.6,high:3.2,-,-,-,-,-,-,-,-,-,-,-,-,-,-,-,-,-,-,-,-,-,-,-,-,-,-,-,-,-,-,-,-,-,-,-,-,-,-,-,-,-,-,-,-,-,-,-,-,-,-,-,-,-,-,-,-,-,-,-,-,-,-,-,-,-,-,-,-,-,-,-,-,-,-,-,-,-,-,-,-,-,-,-,-,-,-,-,-,-,-,-,-,-,-,-,-,-,-,-,-,-,-,-,-,-,-,-,-,-,-,-,-,-,-,-,-,-
GADM-MKD,-,-,-,-,-,-,-,-,high:4.3,high:4.3,high:4.3,-,-,-,-,-,-,-,-,-,-,-,-,-,-,-,high:3.7,high:3.2,high:3.7,high:3.2,high:3.7,high:3.2,-,-,-,-,-,-,-,-,-,-,-,-,-,-,-,-,-,-,-,-,-,-,-,-,-,-,-,-,-,-,-,-,-,-,-,-,-,-,-,-,-,-,-,-,-,-,-,-,-,-,-,-,-,-,-,-,-,-,-,-,-,-,-,-,-,-,-,-,-,-,-,-,-,-,-,-,-,-,-,-,-,-,-,-,-,-,-,-,-,-,-,-,-,-,-,-,-,-,-,-,-,-,-,-,-,-,-,-,-,-,-,-,-,-,-,-,-
GADM-MDG,-,-,-,-,-,-,-,-,high:3.7,high:3.7,high:3.7,-,-,-,-,-,-,-,-,-,-,-,-,-,-,-,high:3.5;low:3.6,high:3.6,high:3.5;low:3.6,high:3.6,high:3.5;low:3.6,high:3.6,-,-,-,-,-,-,-,-,-,-,-,-,-,-,-,-,-,-,-,-,-,-,-,-,-,-,-,-,-,-,-,-,-,-,-,-,-,-,-,-,-,-,-,-,-,-,-,-,-,-,-,-,-,-,-,-,-,-,-,-,-,-,-,-,-,-,-,-,-,-,-,-,-,-,-,-,-,-,-,-,-,-,-,-,-,-,-,-,-,-,-,-,-,-,-,-,-,-,-,-,-,-,-,-,-,-,-,-,-,-,-,-,-,-,-,-,-
GADM-MWI,-,-,-,-,-,-,-,-,high:3.7,high:3.7,high:3.7,-,-,-,-,-,-,-,-,-,-,-,-,-,-,-,high:3.5;low:3.6,high:3.6,high:3.5;low:3.6,high:3.6,high:3.5;low:3.6,high:3.6,-,-,-,-,-,-,-,-,-,-,-,-,-,-,-,-,-,-,-,-,-,-,-,-,-,-,-,-,-,-,-,-,-,-,-,-,-,-,-,-,-,-,-,-,-,-,-,-,-,-,-,-,-,-,-,-,-,-,-,-,-,-,-,-,-,-,-,-,-,-,-,-,-,-,-,-,-,-,-,-,-,-,-,-,-,-,-,-,-,-,-,-,-,-,-,-,-,-,-,-,-,-,-,-,-,-,-,-,-,-,-,-,-,-,-,-,-
GADM-MYS,-,-,-,-,-,-,-,-,high:5.2,high:5.2,high:5.2,-,-,-,-,-,-,-,-,-,-,-,-,-,-,-,high:3.3,high:3.1;low:3.2,high:3.3,high:3.1;low:3.2,high:3.3,high:3.1;low:3.2,-,-,-,-,-,-,-,-,-,-,-,-,-,-,-,-,-,-,-,-,-,-,-,-,-,-,-,-,-,-,-,-,-,-,-,-,-,-,-,-,-,-,-,-,-,-,-,-,-,-,-,-,-,-,-,-,-,-,-,-,-,-,-,-,-,-,-,-,-,-,-,-,-,-,-,-,-,-,-,-,-,-,-,-,-,-,-,-,-,-,-,-,-,-,-,-,-,-,-,-,-,-,-,-,-,-,-,-,-,-,-,-,-,-,-,-,-
GADM-MDV,-,-,-,-,-,-,-,-,high:3.5,high:3.5,high:3.5,-,-,-,-,-,-,-,-,-,-,-,-,-,-,-,high:3.6;low:3.7,high:3.6;low:3.7,high:3.6;low:3.7,high:3.6;low:3.7,high:3.6;low:3.7,high:3.6;low:3.7,-,-,-,-,-,-,-,-,-,-,-,-,-,-,-,-,-,-,-,-,-,-,-,-,-,-,-,-,-,-,-,-,-,-,-,-,-,-,-,-,-,-,-,-,-,-,-,-,-,-,-,-,-,-,-,-,-,-,-,-,-,-,-,-,-,-,-,-,-,-,-,-,-,-,-,-,-,-,-,-,-,-,-,-,-,-,-,-,-,-,-,-,-,-,-,-,-,-,-,-,-,-,-,-,-,-,-,-,-,-,-,-,-,-,-,-,-
GADM-MLI,-,-,-,-,-,-,-,-,high:3.7,high:3.7,high:3.7,-,-,-,-,-,-,-,-,-,-,-,-,-,-,-,high:3.5;low:3.6,high:3.6,high:3.5;low:3.6,high:3.6,high:3.5;low:3.6,high:3.6,-,-,-,-,-,-,-,-,-,-,-,-,-,-,-,-,-,-,-,-,-,-,-,-,-,-,-,-,-,-,-,-,-,-,-,-,-,-,-,-,-,-,-,-,-,-,-,-,-,-,-,-,-,-,-,-,-,-,-,-,-,-,-,-,-,-,-,-,-,-,-,-,-,-,-,-,-,-,-,-,-,-,-,-,-,-,-,-,-,-,-,-,-,-,-,-,-,-,-,-,-,-,-,-,-,-,-,-,-,-,-,-,-,-,-,-,-
GADM-MLT,-,-,-,-,-,-,-,-,high:4.6,high:4.6,high:4.6,-,-,-,-,-,-,-,-,-,-,-,-,-,-,-,high:3.6,high:3.2,high:3.6,high:3.2,high:3.6,high:3.2,-,-,-,-,-,-,-,-,-,-,-,-,-,-,-,-,-,-,-,-,-,-,-,-,-,-,-,-,-,-,-,-,-,-,-,-,-,-,-,-,-,-,-,-,-,-,-,-,-,-,-,-,-,-,-,-,-,-,-,-,-,-,-,-,-,-,-,-,-,-,-,-,-,-,-,-,-,-,-,-,-,-,-,-,-,-,-,-,-,-,-,-,-,-,-,-,-,-,-,-,-,-,-,-,-,-,-,-,-,-,-,-,-,-,-,-,-
GADM-MHL,-,-,-,-,-,-,-,-,-,-,-,-,-,-,-,-,-,-,-,-,-,-,-,-,-,-,high:3.7,high:3.7,high:3.7,high:3.7,high:3.7,high:3.7,-,-,-,-,-,-,-,-,-,-,-,-,-,-,-,-,-,-,-,-,-,-,-,-,-,-,-,-,-,-,-,-,-,-,-,-,-,-,-,-,-,-,-,-,-,-,-,-,-,-,-,-,-,-,-,-,-,-,-,-,-,-,-,-,-,-,-,-,-,-,-,-,-,-,-,-,-,-,-,-,-,-,-,-,-,-,-,-,-,-,-,-,-,-,-,-,-,-,-,-,-,-,-,-,-,-,-,-,-,-,-,-,-,-,-,-,-
GADM-MRT,-,-,-,-,-,-,-,-,high:3.7,high:3.7,high:3.7,-,-,-,-,-,-,-,-,-,-,-,-,-,-,-,high:3.5;low:3.6,high:3.6,high:3.5;low:3.6,high:3.6,high:3.5;low:3.6,high:3.6,-,-,-,-,-,-,-,-,-,-,-,-,-,-,-,-,-,-,-,-,-,-,-,-,-,-,-,-,-,-,-,-,-,-,-,-,-,-,-,-,-,-,-,-,-,-,-,-,-,-,-,-,-,-,-,-,-,-,-,-,-,-,-,-,-,-,-,-,-,-,-,-,-,-,-,-,-,-,-,-,-,-,-,-,-,-,-,-,-,-,-,-,-,-,-,-,-,-,-,-,-,-,-,-,-,-,-,-,-,-,-,-,-,-,-,-,-
GADM-MUS,-,-,-,-,-,-,-,-,high:3.7,high:3.7,high:3.7,-,-,-,-,-,-,-,-,-,-,-,-,-,-,-,high:3.5;low:3.6,high:3.6,high:3.5;low:3.6,high:3.6,high:3.5;low:3.6,high:3.6,-,-,-,-,-,-,-,-,-,-,-,-,-,-,-,-,-,-,-,-,-,-,-,-,-,-,-,-,-,-,-,-,-,-,-,-,-,-,-,-,-,-,-,-,-,-,-,-,-,-,-,-,-,-,-,-,-,-,-,-,-,-,-,-,-,-,-,-,-,-,-,-,-,-,-,-,-,-,-,-,-,-,-,-,-,-,-,-,-,-,-,-,-,-,-,-,-,-,-,-,-,-,-,-,-,-,-,-,-,-,-,-,-,-,-,-,-
GADM-MEX,-,-,-,-,-,-,-,-,high:4.3,high:4.3,high:4.3,-,-,-,-,-,-,-,-,-,-,-,-,-,-,-,high:3.2,high:3.1;low:3.2,high:3.2,high:3.1;low:3.2,high:3.2,high:3.1;low:3.2,-,-,-,-,-,-,-,-,-,-,-,-,-,-,-,-,-,-,-,-,-,-,-,-,-,-,-,-,-,-,-,-,-,-,-,-,-,-,-,-,-,-,-,-,-,-,-,-,-,-,-,-,-,-,-,-,-,-,-,-,-,-,-,-,-,-,-,-,-,-,-,-,-,-,-,-,-,-,-,-,-,-,-,-,-,-,-,-,-,-,-,-,-,-,-,-,-,-,-,-,-,-,-,-,-,-,-,-,-,-,-,-,-,-,-,-,-
GADM-FSM,-,-,-,-,-,-,-,-,-,-,-,-,-,-,-,-,-,-,-,-,-,-,-,-,-,-,high:3.7,high:3.7,high:3.7,high:3.7,high:3.7,high:3.7,-,-,-,-,-,-,-,-,-,-,-,-,-,-,-,-,-,-,-,-,-,-,-,-,-,-,-,-,-,-,-,-,-,-,-,-,-,-,-,-,-,-,-,-,-,-,-,-,-,-,-,-,-,-,-,-,-,-,-,-,-,-,-,-,-,-,-,-,-,-,-,-,-,-,-,-,-,-,-,-,-,-,-,-,-,-,-,-,-,-,-,-,-,-,-,-,-,-,-,-,-,-,-,-,-,-,-,-,-,-,-,-,-,-,-,-,-
GADM-MDA,-,-,-,-,-,-,-,-,high:4.3,high:4.3,high:4.3,-,-,-,-,-,-,-,-,-,-,-,-,-,-,-,high:3.7,high:3.2,high:3.7,high:3.2,high:3.7,high:3.2,-,-,-,-,-,-,-,-,-,-,-,-,-,-,-,-,-,-,-,-,-,-,-,-,-,-,-,-,-,-,-,-,-,-,-,-,-,-,-,-,-,-,-,-,-,-,-,-,-,-,-,-,-,-,-,-,-,-,-,-,-,-,-,-,-,-,-,-,-,-,-,-,-,-,-,-,-,-,-,-,-,-,-,-,-,-,-,-,-,-,-,-,-,-,-,-,-,-,-,-,-,-,-,-,-,-,-,-,-,-,-,-,-,-,-,-,-
GADM-MCO,-,-,-,-,-,-,-,-,high:4.6,high:4.6,high:4.6,-,-,-,-,-,-,-,-,-,-,-,-,-,-,-,high:3.6,high:3.2,high:3.6,high:3.2,high:3.6,high:3.2,-,-,-,-,-,-,-,-,-,-,-,-,-,-,-,-,-,-,-,-,-,-,-,-,-,-,-,-,-,-,-,-,-,-,-,-,-,-,-,-,-,-,-,-,-,-,-,-,-,-,-,-,-,-,-,-,-,-,-,-,-,-,-,-,-,-,-,-,-,-,-,-,-,-,-,-,-,-,-,-,-,-,-,-,-,-,-,-,-,-,-,-,-,-,-,-,-,-,-,-,-,-,-,-,-,-,-,-,-,-,-,-,-,-,-,-,-
GADM-MNG,-,-,-,-,-,-,-,-,high:5.2,high:5.2,high:5.2,-,-,-,-,-,-,-,-,-,-,-,-,-,-,-,high:3.3,high:3.1;low:3.2,high:3.3,high:3.1;low:3.2,high:3.3,high:3.1;low:3.2,-,-,-,-,-,-,-,-,-,-,-,-,-,-,-,-,-,-,-,-,-,-,-,-,-,-,-,-,-,-,-,-,-,-,-,-,-,-,-,-,-,-,-,-,-,-,-,-,-,-,-,-,-,-,-,-,-,-,-,-,-,-,-,-,-,-,-,-,-,-,-,-,-,-,-,-,-,-,-,-,-,-,-,-,-,-,-,-,-,-,-,-,-,-,-,-,-,-,-,-,-,-,-,-,-,-,-,-,-,-,-,-,-,-,-,-,-
GADM-MNE,-,-,-,-,-,-,-,-,high:4.3,high:4.3,high:4.3,-,-,-,-,-,-,-,-,-,-,-,-,-,-,-,high:3.7,high:3.2,high:3.7,high:3.2,high:3.7,high:3.2,-,-,-,-,-,-,-,-,-,-,-,-,-,-,-,-,-,-,-,-,-,-,-,-,-,-,-,-,-,-,-,-,-,-,-,-,-,-,-,-,-,-,-,-,-,-,-,-,-,-,-,-,-,-,-,-,-,-,-,-,-,-,-,-,-,-,-,-,-,-,-,-,-,-,-,-,-,-,-,-,-,-,-,-,-,-,-,-,-,-,-,-,-,-,-,-,-,-,-,-,-,-,-,-,-,-,-,-,-,-,-,-,-,-,-,-,-
GADM-MAR,-,-,-,-,-,-,-,-,high:3.7,high:3.7,high:3.7,-,-,-,-,-,-,-,-,-,-,-,-,-,-,-,high:3.5;low:3.6,high:3.6,high:3.5;low:3.6,high:3.6,high:3.5;low:3.6,high:3.6,-,-,-,-,-,-,-,-,-,-,-,-,-,-,-,-,-,-,-,-,-,-,-,-,-,-,-,-,-,-,-,-,-,-,-,-,-,-,-,-,-,-,-,-,-,-,-,-,-,-,-,-,-,-,-,-,-,-,-,-,-,-,-,-,-,-,-,-,-,-,-,-,-,-,-,-,-,-,-,-,-,-,-,-,-,-,-,-,-,-,-,-,-,-,-,-,-,-,-,-,-,-,-,-,-,-,-,-,-,-,-,-,-,-,-,-,-
GADM-MOZ,-,-,-,-,-,-,-,-,high:3.7,high:3.7,high:3.7,-,-,-,-,-,-,-,-,-,-,-,-,-,-,-,high:3.5;low:3.6,high:3.6,high:3.5;low:3.6,high:3.6,high:3.5;low:3.6,high:3.6,-,-,-,-,-,-,-,-,-,-,-,-,-,-,-,-,-,-,-,-,-,-,-,-,-,-,-,-,-,-,-,-,-,-,-,-,-,-,-,-,-,-,-,-,-,-,-,-,-,-,-,-,-,-,-,-,-,-,-,-,-,-,-,-,-,-,-,-,-,-,-,-,-,-,-,-,-,-,-,-,-,-,-,-,-,-,-,-,-,-,-,-,-,-,-,-,-,-,-,-,-,-,-,-,-,-,-,-,-,-,-,-,-,-,-,-,-
GADM-MMR,-,-,-,-,-,-,-,-,high:5.2,high:5.2,high:5.2,-,-,-,-,-,-,-,-,-,-,-,-,-,-,-,high:3.3,high:3.1;low:3.2,high:3.3,high:3.1;low:3.2,high:3.3,high:3.1;low:3.2,-,-,-,-,-,-,-,-,-,-,-,-,-,-,-,-,-,-,-,-,-,-,-,-,-,-,-,-,-,-,-,-,-,-,-,-,-,-,-,-,-,-,-,-,-,-,-,-,-,-,-,-,-,-,-,-,-,-,-,-,-,-,-,-,-,-,-,-,-,-,-,-,-,-,-,-,-,-,-,-,-,-,-,-,-,-,-,-,-,-,-,-,-,-,-,-,-,-,-,-,-,-,-,-,-,-,-,-,-,-,-,-,-,-,-,-,-
GADM-NAM,-,-,-,-,-,-,-,-,high:3.7,high:3.7,high:3.7,-,-,-,-,-,-,-,-,-,-,-,-,-,-,-,high:3.5;low:3.6,high:3.6,high:3.5;low:3.6,high:3.6,high:3.5;low:3.6,high:3.6,-,-,-,-,-,-,-,-,-,-,-,-,-,-,-,-,-,-,-,-,-,-,-,-,-,-,-,-,-,-,-,-,-,-,-,-,-,-,-,-,-,-,-,-,-,-,-,-,-,-,-,-,-,-,-,-,-,-,-,-,-,-,-,-,-,-,-,-,-,-,-,-,-,-,-,-,-,-,-,-,-,-,-,-,-,-,-,-,-,-,-,-,-,-,-,-,-,-,-,-,-,-,-,-,-,-,-,-,-,-,-,-,-,-,-,-,-
GADM-NRU,-,-,-,-,-,-,-,-,-,-,-,-,-,-,-,-,-,-,-,-,-,-,-,-,-,-,high:3.7,high:3.7,high:3.7,high:3.7,high:3.7,high:3.7,-,-,-,-,-,-,-,-,-,-,-,-,-,-,-,-,-,-,-,-,-,-,-,-,-,-,-,-,-,-,-,-,-,-,-,-,-,-,-,-,-,-,-,-,-,-,-,-,-,-,-,-,-,-,-,-,-,-,-,-,-,-,-,-,-,-,-,-,-,-,-,-,-,-,-,-,-,-,-,-,-,-,-,-,-,-,-,-,-,-,-,-,-,-,-,-,-,-,-,-,-,-,-,-,-,-,-,-,-,-,-,-,-,-,-,-,-
GADM-NPL,-,-,-,-,-,-,-,-,high:3.5,high:3.5,high:3.5,-,-,-,-,-,-,-,-,-,-,-,-,-,-,-,high:3.6;low:3.7,high:3.6;low:3.7,high:3.6;low:3.7,high:3.6;low:3.7,high:3.6;low:3.7,high:3.6;low:3.7,-,-,-,-,-,-,-,-,-,-,-,-,-,-,-,-,-,-,-,-,-,-,-,-,-,-,-,-,-,-,-,-,-,-,-,-,-,-,-,-,-,-,-,-,-,-,-,-,-,-,-,-,-,-,-,-,-,-,-,-,-,-,-,-,-,-,-,-,-,-,-,-,-,-,-,-,-,-,-,-,-,-,-,-,-,-,-,-,-,-,-,-,-,-,-,-,-,-,-,-,-,-,-,-,-,-,-,-,-,-,-,-,-,-,-,-,-
GADM-NLD,-,-,-,-,-,-,-,-,high:4.6,high:4.6,high:4.6,-,-,-,-,-,-,-,-,-,-,-,-,-,-,-,high:3.6,high:3.2,high:3.6,high:3.2,high:3.6,high:3.2,-,-,-,-,-,-,-,-,-,-,-,-,-,-,-,-,-,-,-,-,-,-,-,-,-,-,-,-,-,-,-,-,-,-,-,-,-,-,-,-,-,-,-,-,-,-,-,-,-,-,-,-,-,-,-,-,-,-,-,-,-,-,-,-,-,-,-,-,-,-,-,-,-,-,-,-,-,-,-,-,-,-,-,-,-,-,-,-,-,-,-,-,-,-,-,-,-,-,-,-,-,-,-,-,-,-,-,-,-,-,-,-,-,-,-,-,-
GADM-NZL,-,-,-,-,-,-,-,-,-,-,-,-,-,-,-,-,-,-,-,-,-,-,-,-,-,-,high:3.7,high:3.7,high:3.7,high:3.7,high:3.7,high:3.7,-,-,-,-,-,-,-,-,-,-,-,-,-,-,-,-,-,-,-,-,-,-,-,-,-,-,-,-,-,-,-,-,-,-,-,-,-,-,-,-,-,-,-,-,-,-,-,-,-,-,-,-,-,-,-,-,-,-,-,-,-,-,-,-,-,-,-,-,-,-,-,-,-,-,-,-,-,-,-,-,-,-,-,-,-,-,-,-,-,-,-,-,-,-,-,-,-,-,-,-,-,-,-,-,-,-,-,-,-,-,-,-,-,-,-,-,-
GADM-NIC,-,-,-,-,-,-,-,-,high:4.3,high:4.3,high:4.3,-,-,-,-,-,-,-,-,-,-,-,-,-,-,-,high:3.2,high:3.1;low:3.2,high:3.2,high:3.1;low:3.2,high:3.2,high:3.1;low:3.2,-,-,-,-,-,-,-,-,-,-,-,-,-,-,-,-,-,-,-,-,-,-,-,-,-,-,-,-,-,-,-,-,-,-,-,-,-,-,-,-,-,-,-,-,-,-,-,-,-,-,-,-,-,-,-,-,-,-,-,-,-,-,-,-,-,-,-,-,-,-,-,-,-,-,-,-,-,-,-,-,-,-,-,-,-,-,-,-,-,-,-,-,-,-,-,-,-,-,-,-,-,-,-,-,-,-,-,-,-,-,-,-,-,-,-,-,-
GADM-NER,-,-,-,-,-,-,-,-,high:3.7,high:3.7,high:3.7,-,-,-,-,-,-,-,-,-,-,-,-,-,-,-,high:3.5;low:3.6,high:3.6,high:3.5;low:3.6,high:3.6,high:3.5;low:3.6,high:3.6,-,-,-,-,-,-,-,-,-,-,-,-,-,-,-,-,-,-,-,-,-,-,-,-,-,-,-,-,-,-,-,-,-,-,-,-,-,-,-,-,-,-,-,-,-,-,-,-,-,-,-,-,-,-,-,-,-,-,-,-,-,-,-,-,-,-,-,-,-,-,-,-,-,-,-,-,-,-,-,-,-,-,-,-,-,-,-,-,-,-,-,-,-,-,-,-,-,-,-,-,-,-,-,-,-,-,-,-,-,-,-,-,-,-,-,-,-
GADM-NGA,-,-,-,-,-,-,-,-,high:3.7,high:3.7,high:3.7,-,-,-,-,-,-,-,-,-,-,-,-,-,-,-,high:3.5;low:3.6,high:3.6,high:3.5;low:3.6,high:3.6,high:3.5;low:3.6,high:3.6,-,-,-,-,-,-,-,-,-,-,-,-,-,-,-,-,-,-,-,-,-,-,-,-,-,-,-,-,-,-,-,-,-,-,-,-,-,-,-,-,-,-,-,-,-,-,-,-,-,-,-,-,-,-,-,-,-,-,-,-,-,-,-,-,-,-,-,-,-,-,-,-,-,-,-,-,-,-,-,-,-,-,-,-,-,-,-,-,-,-,-,-,-,-,-,-,-,-,-,-,-,-,-,-,-,-,-,-,-,-,-,-,-,-,-,-,-
GADM-PRK,-,-,-,-,-,-,-,-,high:5.2,high:5.2,high:5.2,-,-,-,-,-,-,-,-,-,-,-,-,-,-,-,high:3.3,high:3.1;low:3.2,high:3.3,high:3.1;low:3.2,high:3.3,high:3.1;low:3.2,-,-,-,-,-,-,-,-,-,-,-,-,-,-,-,-,-,-,-,-,-,-,-,-,-,-,-,-,-,-,-,-,-,-,-,-,-,-,-,-,-,-,-,-,-,-,-,-,-,-,-,-,-,-,-,-,-,-,-,-,-,-,-,-,-,-,-,-,-,-,-,-,-,-,-,-,-,-,-,-,-,-,-,-,-,-,-,-,-,-,-,-,-,-,-,-,-,-,-,-,-,-,-,-,-,-,-,-,-,-,-,-,-,-,-,-,-
GADM-NOR,-,-,-,-,-,-,-,-,high:4.6,high:4.6,high:4.6,-,-,-,-,-,-,-,-,-,-,-,-,-,-,-,high:3.6,high:3.2,high:3.6,high:3.2,high:3.6,high:3.2,-,-,-,-,-,-,-,-,-,-,-,-,-,-,-,-,-,-,-,-,-,-,-,-,-,-,-,-,-,-,-,-,-,-,-,-,-,-,-,-,-,-,-,-,-,-,-,-,-,-,-,-,-,-,-,-,-,-,-,-,-,-,-,-,-,-,-,-,-,-,-,-,-,-,-,-,-,-,-,-,-,-,-,-,-,-,-,-,-,-,-,-,-,-,-,-,-,-,-,-,-,-,-,-,-,-,-,-,-,-,-,-,-,-,-,-,-
GADM-OMN,-,-,-,-,-,-,-,-,high:4.2,high:4.2,high:4.2,-,-,-,-,-,-,-,-,-,-,-,-,-,-,-,high:3.3;low:3.2,high:3.2;low:3.7,high:3.3;low:3.2,high:3.2;low:3.7,high:3.3;low:3.2,high:3.2;low:3.7,-,-,-,-,-,-,-,-,-,-,-,-,-,-,-,-,-,-,-,-,-,-,-,-,-,-,-,-,-,-,-,-,-,-,-,-,-,-,-,-,-,-,-,-,-,-,-,-,-,-,-,-,-,-,-,-,-,-,-,-,-,-,-,-,-,-,-,-,-,-,-,-,-,-,-,-,-,-,-,-,-,-,-,-,-,-,-,-,-,-,-,-,-,-,-,-,-,-,-,-,-,-,-,-,-,-,-,-,-,-,-,-,-,-,-,-,-
GADM-PAK,-,-,-,-,-,-,-,-,high:3.5,high:3.5,high:3.5,-,-,-,-,-,-,-,-,-,-,-,-,-,-,-,high:3.6;low:3.7,high:3.6;low:3.7,high:3.6;low:3.7,high:3.6;low:3.7,high:3.6;low:3.7,high:3.6;low:3.7,-,-,-,-,-,-,-,-,-,-,-,-,-,-,-,-,-,-,-,-,-,-,-,-,-,-,-,-,-,-,-,-,-,-,-,-,-,-,-,-,-,-,-,-,-,-,-,-,-,-,-,-,-,-,-,-,-,-,-,-,-,-,-,-,-,-,-,-,-,-,-,-,-,-,-,-,-,-,-,-,-,-,-,-,-,-,-,-,-,-,-,-,-,-,-,-,-,-,-,-,-,-,-,-,-,-,-,-,-,-,-,-,-,-,-,-,-
GADM-PLW,-,-,-,-,-,-,-,-,-,-,-,-,-,-,-,-,-,-,-,-,-,-,-,-,-,-,high:3.7,high:3.7,high:3.7,high:3.7,high:3.7,high:3.7,-,-,-,-,-,-,-,-,-,-,-,-,-,-,-,-,-,-,-,-,-,-,-,-,-,-,-,-,-,-,-,-,-,-,-,-,-,-,-,-,-,-,-,-,-,-,-,-,-,-,-,-,-,-,-,-,-,-,-,-,-,-,-,-,-,-,-,-,-,-,-,-,-,-,-,-,-,-,-,-,-,-,-,-,-,-,-,-,-,-,-,-,-,-,-,-,-,-,-,-,-,-,-,-,-,-,-,-,-,-,-,-,-,-,-,-,-
GADM-PSE,-,-,-,-,-,-,-,-,high:4.2,high:4.2,high:4.2,-,-,-,-,-,-,-,-,-,-,-,-,-,-,-,high:3.3;low:3.2,high:3.2;low:3.7,high:3.3;low:3.2,high:3.2;low:3.7,high:3.3;low:3.2,high:3.2;low:3.7,-,-,-,-,-,-,-,-,-,-,-,-,-,-,-,-,-,-,-,-,-,-,-,-,-,-,-,-,-,-,-,-,-,-,-,-,-,-,-,-,-,-,-,-,-,-,-,-,-,-,-,-,-,-,-,-,-,-,-,-,-,-,-,-,-,-,-,-,-,-,-,-,-,-,-,-,-,-,-,-,-,-,-,-,-,-,-,-,-,-,-,-,-,-,-,-,-,-,-,-,-,-,-,-,-,-,-,-,-,-,-,-,-,-,-,-,-
GADM-PAN,-,-,-,-,-,-,-,-,high:4.3,high:4.3,high:4.3,-,-,-,-,-,-,-,-,-,-,-,-,-,-,-,high:3.2,high:3.1;low:3.2,high:3.2,high:3.1;low:3.2,high:3.2,high:3.1;low:3.2,-,-,-,-,-,-,-,-,-,-,-,-,-,-,-,-,-,-,-,-,-,-,-,-,-,-,-,-,-,-,-,-,-,-,-,-,-,-,-,-,-,-,-,-,-,-,-,-,-,-,-,-,-,-,-,-,-,-,-,-,-,-,-,-,-,-,-,-,-,-,-,-,-,-,-,-,-,-,-,-,-,-,-,-,-,-,-,-,-,-,-,-,-,-,-,-,-,-,-,-,-,-,-,-,-,-,-,-,-,-,-,-,-,-,-,-,-
GADM-PNG,-,-,-,-,-,-,-,-,-,-,-,-,-,-,-,-,-,-,-,-,-,-,-,-,-,-,high:3.7,high:3.7,high:3.7,high:3.7,high:3.7,high:3.7,-,-,-,-,-,-,-,-,-,-,-,-,-,-,-,-,-,-,-,-,-,-,-,-,-,-,-,-,-,-,-,-,-,-,-,-,-,-,-,-,-,-,-,-,-,-,-,-,-,-,-,-,-,-,-,-,-,-,-,-,-,-,-,-,-,-,-,-,-,-,-,-,-,-,-,-,-,-,-,-,-,-,-,-,-,-,-,-,-,-,-,-,-,-,-,-,-,-,-,-,-,-,-,-,-,-,-,-,-,-,-,-,-,-,-,-,-
GADM-PRY,-,-,-,-,-,-,-,-,high:4.3,high:4.3,high:4.3,-,-,-,-,-,-,-,-,-,-,-,-,-,-,-,high:3.2,high:3.1;low:3.2,high:3.2,high:3.1;low:3.2,high:3.2,high:3.1;low:3.2,-,-,-,-,-,-,-,-,-,-,-,-,-,-,-,-,-,-,-,-,-,-,-,-,-,-,-,-,-,-,-,-,-,-,-,-,-,-,-,-,-,-,-,-,-,-,-,-,-,-,-,-,-,-,-,-,-,-,-,-,-,-,-,-,-,-,-,-,-,-,-,-,-,-,-,-,-,-,-,-,-,-,-,-,-,-,-,-,-,-,-,-,-,-,-,-,-,-,-,-,-,-,-,-,-,-,-,-,-,-,-,-,-,-,-,-,-
GADM-PER,-,-,-,-,-,-,-,-,high:4.3,high:4.3,high:4.3,-,-,-,-,-,-,-,-,-,-,-,-,-,-,-,high:3.2,high:3.1;low:3.2,high:3.2,high:3.1;low:3.2,high:3.2,high:3.1;low:3.2,-,-,-,-,-,-,-,-,-,-,-,-,-,-,-,-,-,-,-,-,-,-,-,-,-,-,-,-,-,-,-,-,-,-,-,-,-,-,-,-,-,-,-,-,-,-,-,-,-,-,-,-,-,-,-,-,-,-,-,-,-,-,-,-,-,-,-,-,-,-,-,-,-,-,-,-,-,-,-,-,-,-,-,-,-,-,-,-,-,-,-,-,-,-,-,-,-,-,-,-,-,-,-,-,-,-,-,-,-,-,-,-,-,-,-,-,-
GADM-PHL,-,-,-,-,-,-,-,-,high:5.2,high:5.2,high:5.2,-,-,-,-,-,-,-,-,-,-,-,-,-,-,-,high:3.3,high:3.1;low:3.2,high:3.3,high:3.1;low:3.2,high:3.3,high:3.1;low:3.2,-,-,-,-,-,-,-,-,-,-,-,-,-,-,-,-,-,-,-,-,-,-,-,-,-,-,-,-,-,-,-,-,-,-,-,-,-,-,-,-,-,-,-,-,-,-,-,-,-,-,-,-,-,-,-,-,-,-,-,-,-,-,-,-,-,-,-,-,-,-,-,-,-,-,-,-,-,-,-,-,-,-,-,-,-,-,-,-,-,-,-,-,-,-,-,-,-,-,-,-,-,-,-,-,-,-,-,-,-,-,-,-,-,-,-,-,-
GADM-POL,-,-,-,-,-,-,-,-,high:4.3,high:4.3,high:4.3,-,-,-,-,-,-,-,-,-,-,-,-,-,-,-,high:3.7,high:3.2,high:3.7,high:3.2,high:3.7,high:3.2,-,-,-,-,-,-,-,-,-,-,-,-,-,-,-,-,-,-,-,-,-,-,-,-,-,-,-,-,-,-,-,-,-,-,-,-,-,-,-,-,-,-,-,-,-,-,-,-,-,-,-,-,-,-,-,-,-,-,-,-,-,-,-,-,-,-,-,-,-,-,-,-,-,-,-,-,-,-,-,-,-,-,-,-,-,-,-,-,-,-,-,-,-,-,-,-,-,-,-,-,-,-,-,-,-,-,-,-,-,-,-,-,-,-,-,-,-
GADM-PRT,-,-,-,-,-,-,-,-,high:4.6,high:4.6,high:4.6,-,-,-,-,-,-,-,-,-,-,-,-,-,-,-,high:3.6,high:3.2,high:3.6,high:3.2,high:3.6,high:3.2,-,-,-,-,-,-,-,-,-,-,-,-,-,-,-,-,-,-,-,-,-,-,-,-,-,-,-,-,-,-,-,-,-,-,-,-,-,-,-,-,-,-,-,-,-,-,-,-,-,-,-,-,-,-,-,-,-,-,-,-,-,-,-,-,-,-,-,-,-,-,-,-,-,-,-,-,-,-,-,-,-,-,-,-,-,-,-,-,-,-,-,-,-,-,-,-,-,-,-,-,-,-,-,-,-,-,-,-,-,-,-,-,-,-,-,-,-
GADM-QAT,-,-,-,-,-,-,-,-,high:4.2,high:4.2,high:4.2,-,-,-,-,-,-,-,-,-,-,-,-,-,-,-,high:3.3;low:3.2,high:3.2;low:3.7,high:3.3;low:3.2,high:3.2;low:3.7,high:3.3;low:3.2,high:3.2;low:3.7,-,-,-,-,-,-,-,-,-,-,-,-,-,-,-,-,-,-,-,-,-,-,-,-,-,-,-,-,-,-,-,-,-,-,-,-,-,-,-,-,-,-,-,-,-,-,-,-,-,-,-,-,-,-,-,-,-,-,-,-,-,-,-,-,-,-,-,-,-,-,-,-,-,-,-,-,-,-,-,-,-,-,-,-,-,-,-,-,-,-,-,-,-,-,-,-,-,-,-,-,-,-,-,-,-,-,-,-,-,-,-,-,-,-,-,-,-
GADM-COG,-,-,-,-,-,-,-,-,high:3.7,high:3.7,high:3.7,-,-,-,-,-,-,-,-,-,-,-,-,-,-,-,high:3.5;low:3.6,high:3.6,high:3.5;low:3.6,high:3.6,high:3.5;low:3.6,high:3.6,-,-,-,-,-,-,-,-,-,-,-,-,-,-,-,-,-,-,-,-,-,-,-,-,-,-,-,-,-,-,-,-,-,-,-,-,-,-,-,-,-,-,-,-,-,-,-,-,-,-,-,-,-,-,-,-,-,-,-,-,-,-,-,-,-,-,-,-,-,-,-,-,-,-,-,-,-,-,-,-,-,-,-,-,-,-,-,-,-,-,-,-,-,-,-,-,-,-,-,-,-,-,-,-,-,-,-,-,-,-,-,-,-,-,-,-,-
GADM-ROU,-,-,-,-,-,-,-,-,high:4.3,high:4.3,high:4.3,-,-,-,-,-,-,-,-,-,-,-,-,-,-,-,high:3.7,high:3.2,high:3.7,high:3.2,high:3.7,high:3.2,-,-,-,-,-,-,-,-,-,-,-,-,-,-,-,-,-,-,-,-,-,-,-,-,-,-,-,-,-,-,-,-,-,-,-,-,-,-,-,-,-,-,-,-,-,-,-,-,-,-,-,-,-,-,-,-,-,-,-,-,-,-,-,-,-,-,-,-,-,-,-,-,-,-,-,-,-,-,-,-,-,-,-,-,-,-,-,-,-,-,-,-,-,-,-,-,-,-,-,-,-,-,-,-,-,-,-,-,-,-,-,-,-,-,-,-,-
GADM-RUS,-,-,-,-,-,-,-,-,high:4.3,high:4.3,high:4.3,-,-,-,-,-,-,-,-,-,-,-,-,-,-,-,high:3.7,high:3.2,high:3.7,high:3.2,high:3.7,high:3.2,-,-,-,-,-,-,-,-,-,-,-,-,-,-,-,-,-,-,-,-,-,-,-,-,-,-,-,-,-,-,-,-,-,-,-,-,-,-,-,-,-,-,-,-,-,-,-,-,-,-,-,-,-,-,-,-,-,-,-,-,-,-,-,-,-,-,-,-,-,-,-,-,-,-,-,-,-,-,-,-,-,-,-,-,-,-,-,-,-,-,-,-,-,-,-,-,-,-,-,-,-,-,-,-,-,-,-,-,-,-,-,-,-,-,-,-,-
GADM-RWA,-,-,-,-,-,-,-,-,high:3.7,high:3.7,high:3.7,-,-,-,-,-,-,-,-,-,-,-,-,-,-,-,high:3.5;low:3.6,high:3.6,high:3.5;low:3.6,high:3.6,high:3.5;low:3.6,high:3.6,-,-,-,-,-,-,-,-,-,-,-,-,-,-,-,-,-,-,-,-,-,-,-,-,-,-,-,-,-,-,-,-,-,-,-,-,-,-,-,-,-,-,-,-,-,-,-,-,-,-,-,-,-,-,-,-,-,-,-,-,-,-,-,-,-,-,-,-,-,-,-,-,-,-,-,-,-,-,-,-,-,-,-,-,-,-,-,-,-,-,-,-,-,-,-,-,-,-,-,-,-,-,-,-,-,-,-,-,-,-,-,-,-,-,-,-,-
GADM-KNA,-,-,-,-,-,-,-,-,high:4.3,high:4.3,high:4.3,-,-,-,-,-,-,-,-,-,-,-,-,-,-,-,high:3.2,high:3.1;low:3.2,high:3.2,high:3.1;low:3.2,high:3.2,high:3.1;low:3.2,-,-,-,-,-,-,-,-,-,-,-,-,-,-,-,-,-,-,-,-,-,-,-,-,-,-,-,-,-,-,-,-,-,-,-,-,-,-,-,-,-,-,-,-,-,-,-,-,-,-,-,-,-,-,-,-,-,-,-,-,-,-,-,-,-,-,-,-,-,-,-,-,-,-,-,-,-,-,-,-,-,-,-,-,-,-,-,-,-,-,-,-,-,-,-,-,-,-,-,-,-,-,-,-,-,-,-,-,-,-,-,-,-,-,-,-,-
GADM-LCA,-,-,-,-,-,-,-,-,high:4.3,high:4.3,high:4.3,-,-,-,-,-,-,-,-,-,-,-,-,-,-,-,high:3.2,high:3.1;low:3.2,high:3.2,high:3.1;low:3.2,high:3.2,high:3.1;low:3.2,-,-,-,-,-,-,-,-,-,-,-,-,-,-,-,-,-,-,-,-,-,-,-,-,-,-,-,-,-,-,-,-,-,-,-,-,-,-,-,-,-,-,-,-,-,-,-,-,-,-,-,-,-,-,-,-,-,-,-,-,-,-,-,-,-,-,-,-,-,-,-,-,-,-,-,-,-,-,-,-,-,-,-,-,-,-,-,-,-,-,-,-,-,-,-,-,-,-,-,-,-,-,-,-,-,-,-,-,-,-,-,-,-,-,-,-,-
GADM-VCT,-,-,-,-,-,-,-,-,high:4.3,high:4.3,high:4.3,-,-,-,-,-,-,-,-,-,-,-,-,-,-,-,high:3.2,high:3.1;low:3.2,high:3.2,high:3.1;low:3.2,high:3.2,high:3.1;low:3.2,-,-,-,-,-,-,-,-,-,-,-,-,-,-,-,-,-,-,-,-,-,-,-,-,-,-,-,-,-,-,-,-,-,-,-,-,-,-,-,-,-,-,-,-,-,-,-,-,-,-,-,-,-,-,-,-,-,-,-,-,-,-,-,-,-,-,-,-,-,-,-,-,-,-,-,-,-,-,-,-,-,-,-,-,-,-,-,-,-,-,-,-,-,-,-,-,-,-,-,-,-,-,-,-,-,-,-,-,-,-,-,-,-,-,-,-,-
GADM-WSM,-,-,-,-,-,-,-,-,-,-,-,-,-,-,-,-,-,-,-,-,-,-,-,-,-,-,high:3.7,high:3.7,high:3.7,high:3.7,high:3.7,high:3.7,-,-,-,-,-,-,-,-,-,-,-,-,-,-,-,-,-,-,-,-,-,-,-,-,-,-,-,-,-,-,-,-,-,-,-,-,-,-,-,-,-,-,-,-,-,-,-,-,-,-,-,-,-,-,-,-,-,-,-,-,-,-,-,-,-,-,-,-,-,-,-,-,-,-,-,-,-,-,-,-,-,-,-,-,-,-,-,-,-,-,-,-,-,-,-,-,-,-,-,-,-,-,-,-,-,-,-,-,-,-,-,-,-,-,-,-,-
GADM-SMR,-,-,-,-,-,-,-,-,high:4.6,high:4.6,high:4.6,-,-,-,-,-,-,-,-,-,-,-,-,-,-,-,high:3.6,high:3.2,high:3.6,high:3.2,high:3.6,high:3.2,-,-,-,-,-,-,-,-,-,-,-,-,-,-,-,-,-,-,-,-,-,-,-,-,-,-,-,-,-,-,-,-,-,-,-,-,-,-,-,-,-,-,-,-,-,-,-,-,-,-,-,-,-,-,-,-,-,-,-,-,-,-,-,-,-,-,-,-,-,-,-,-,-,-,-,-,-,-,-,-,-,-,-,-,-,-,-,-,-,-,-,-,-,-,-,-,-,-,-,-,-,-,-,-,-,-,-,-,-,-,-,-,-,-,-,-,-
GADM-STP,-,-,-,-,-,-,-,-,high:3.7,high:3.7,high:3.7,-,-,-,-,-,-,-,-,-,-,-,-,-,-,-,high:3.5;low:3.6,high:3.6,high:3.5;low:3.6,high:3.6,high:3.5;low:3.6,high:3.6,-,-,-,-,-,-,-,-,-,-,-,-,-,-,-,-,-,-,-,-,-,-,-,-,-,-,-,-,-,-,-,-,-,-,-,-,-,-,-,-,-,-,-,-,-,-,-,-,-,-,-,-,-,-,-,-,-,-,-,-,-,-,-,-,-,-,-,-,-,-,-,-,-,-,-,-,-,-,-,-,-,-,-,-,-,-,-,-,-,-,-,-,-,-,-,-,-,-,-,-,-,-,-,-,-,-,-,-,-,-,-,-,-,-,-,-,-
GADM-SAU,-,-,-,-,-,-,-,-,high:4.2,high:4.2,high:4.2,-,-,-,-,-,-,-,-,-,-,-,-,-,-,-,high:3.3;low:3.2,high:3.2;low:3.7,high:3.3;low:3.2,high:3.2;low:3.7,high:3.3;low:3.2,high:3.2;low:3.7,-,-,-,-,-,-,-,-,-,-,-,-,-,-,-,-,-,-,-,-,-,-,-,-,-,-,-,-,-,-,-,-,-,-,-,-,-,-,-,-,-,-,-,-,-,-,-,-,-,-,-,-,-,-,-,-,-,-,-,-,-,-,-,-,-,-,-,-,-,-,-,-,-,-,-,-,-,-,-,-,-,-,-,-,-,-,-,-,-,-,-,-,-,-,-,-,-,-,-,-,-,-,-,-,-,-,-,-,-,-,-,-,-,-,-,-,-
GADM-SEN,-,-,-,-,-,-,-,-,high:3.7,high:3.7,high:3.7,-,-,-,-,-,-,-,-,-,-,-,-,-,-,-,high:3.5;low:3.6,high:3.6,high:3.5;low:3.6,high:3.6,high:3.5;low:3.6,high:3.6,-,-,-,-,-,-,-,-,-,-,-,-,-,-,-,-,-,-,-,-,-,-,-,-,-,-,-,-,-,-,-,-,-,-,-,-,-,-,-,-,-,-,-,-,-,-,-,-,-,-,-,-,-,-,-,-,-,-,-,-,-,-,-,-,-,-,-,-,-,-,-,-,-,-,-,-,-,-,-,-,-,-,-,-,-,-,-,-,-,-,-,-,-,-,-,-,-,-,-,-,-,-,-,-,-,-,-,-,-,-,-,-,-,-,-,-,-
GADM-SRB,-,-,-,-,-,-,-,-,high:4.3,high:4.3,high:4.3,-,-,-,-,-,-,-,-,-,-,-,-,-,-,-,high:3.7,high:3.2,high:3.7,high:3.2,high:3.7,high:3.2,-,-,-,-,-,-,-,-,-,-,-,-,-,-,-,-,-,-,-,-,-,-,-,-,-,-,-,-,-,-,-,-,-,-,-,-,-,-,-,-,-,-,-,-,-,-,-,-,-,-,-,-,-,-,-,-,-,-,-,-,-,-,-,-,-,-,-,-,-,-,-,-,-,-,-,-,-,-,-,-,-,-,-,-,-,-,-,-,-,-,-,-,-,-,-,-,-,-,-,-,-,-,-,-,-,-,-,-,-,-,-,-,-,-,-,-,-
GADM-SYC,-,-,-,-,-,-,-,-,high:3.7,high:3.7,high:3.7,-,-,-,-,-,-,-,-,-,-,-,-,-,-,-,high:3.5;low:3.6,high:3.6,high:3.5;low:3.6,high:3.6,high:3.5;low:3.6,high:3.6,-,-,-,-,-,-,-,-,-,-,-,-,-,-,-,-,-,-,-,-,-,-,-,-,-,-,-,-,-,-,-,-,-,-,-,-,-,-,-,-,-,-,-,-,-,-,-,-,-,-,-,-,-,-,-,-,-,-,-,-,-,-,-,-,-,-,-,-,-,-,-,-,-,-,-,-,-,-,-,-,-,-,-,-,-,-,-,-,-,-,-,-,-,-,-,-,-,-,-,-,-,-,-,-,-,-,-,-,-,-,-,-,-,-,-,-,-
GADM-SLE,-,-,-,-,-,-,-,-,high:3.7,high:3.7,high:3.7,-,-,-,-,-,-,-,-,-,-,-,-,-,-,-,high:3.5;low:3.6,high:3.6,high:3.5;low:3.6,high:3.6,high:3.5;low:3.6,high:3.6,-,-,-,-,-,-,-,-,-,-,-,-,-,-,-,-,-,-,-,-,-,-,-,-,-,-,-,-,-,-,-,-,-,-,-,-,-,-,-,-,-,-,-,-,-,-,-,-,-,-,-,-,-,-,-,-,-,-,-,-,-,-,-,-,-,-,-,-,-,-,-,-,-,-,-,-,-,-,-,-,-,-,-,-,-,-,-,-,-,-,-,-,-,-,-,-,-,-,-,-,-,-,-,-,-,-,-,-,-,-,-,-,-,-,-,-,-
GADM-SGP,-,-,-,-,-,-,-,-,high:5.2,high:5.2,high:5.2,-,-,-,-,-,-,-,-,-,-,-,-,-,-,-,high:3.3,high:3.1;low:3.2,high:3.3,high:3.1;low:3.2,high:3.3,high:3.1;low:3.2,-,-,-,-,-,-,-,-,-,-,-,-,-,-,-,-,-,-,-,-,-,-,-,-,-,-,-,-,-,-,-,-,-,-,-,-,-,-,-,-,-,-,-,-,-,-,-,-,-,-,-,-,-,-,-,-,-,-,-,-,-,-,-,-,-,-,-,-,-,-,-,-,-,-,-,-,-,-,-,-,-,-,-,-,-,-,-,-,-,-,-,-,-,-,-,-,-,-,-,-,-,-,-,-,-,-,-,-,-,-,-,-,-,-,-,-,-
GADM-SVK,-,-,-,-,-,-,-,-,high:4.3,high:4.3,high:4.3,-,-,-,-,-,-,-,-,-,-,-,-,-,-,-,high:3.7,high:3.2,high:3.7,high:3.2,high:3.7,high:3.2,-,-,-,-,-,-,-,-,-,-,-,-,-,-,-,-,-,-,-,-,-,-,-,-,-,-,-,-,-,-,-,-,-,-,-,-,-,-,-,-,-,-,-,-,-,-,-,-,-,-,-,-,-,-,-,-,-,-,-,-,-,-,-,-,-,-,-,-,-,-,-,-,-,-,-,-,-,-,-,-,-,-,-,-,-,-,-,-,-,-,-,-,-,-,-,-,-,-,-,-,-,-,-,-,-,-,-,-,-,-,-,-,-,-,-,-,-
GADM-SVN,-,-,-,-,-,-,-,-,high:4.3,high:4.3,high:4.3,-,-,-,-,-,-,-,-,-,-,-,-,-,-,-,high:3.7,high:3.2,high:3.7,high:3.2,high:3.7,high:3.2,-,-,-,-,-,-,-,-,-,-,-,-,-,-,-,-,-,-,-,-,-,-,-,-,-,-,-,-,-,-,-,-,-,-,-,-,-,-,-,-,-,-,-,-,-,-,-,-,-,-,-,-,-,-,-,-,-,-,-,-,-,-,-,-,-,-,-,-,-,-,-,-,-,-,-,-,-,-,-,-,-,-,-,-,-,-,-,-,-,-,-,-,-,-,-,-,-,-,-,-,-,-,-,-,-,-,-,-,-,-,-,-,-,-,-,-,-
GADM-SLB,-,-,-,-,-,-,-,-,-,-,-,-,-,-,-,-,-,-,-,-,-,-,-,-,-,-,high:3.7,high:3.7,high:3.7,high:3.7,high:3.7,high:3.7,-,-,-,-,-,-,-,-,-,-,-,-,-,-,-,-,-,-,-,-,-,-,-,-,-,-,-,-,-,-,-,-,-,-,-,-,-,-,-,-,-,-,-,-,-,-,-,-,-,-,-,-,-,-,-,-,-,-,-,-,-,-,-,-,-,-,-,-,-,-,-,-,-,-,-,-,-,-,-,-,-,-,-,-,-,-,-,-,-,-,-,-,-,-,-,-,-,-,-,-,-,-,-,-,-,-,-,-,-,-,-,-,-,-,-,-,-
GADM-SOM,-,-,-,-,-,-,-,-,high:3.7,high:3.7,high:3.7,-,-,-,-,-,-,-,-,-,-,-,-,-,-,-,high:3.5;low:3.6,high:3.6,high:3.5;low:3.6,high:3.6,high:3.5;low:3.6,high:3.6,-,-,-,-,-,-,-,-,-,-,-,-,-,-,-,-,-,-,-,-,-,-,-,-,-,-,-,-,-,-,-,-,-,-,-,-,-,-,-,-,-,-,-,-,-,-,-,-,-,-,-,-,-,-,-,-,-,-,-,-,-,-,-,-,-,-,-,-,-,-,-,-,-,-,-,-,-,-,-,-,-,-,-,-,-,-,-,-,-,-,-,-,-,-,-,-,-,-,-,-,-,-,-,-,-,-,-,-,-,-,-,-,-,-,-,-,-
GADM-ZAF,-,-,-,-,-,-,-,-,high:3.7,high:3.7,high:3.7,-,-,-,-,-,-,-,-,-,-,-,-,-,-,-,high:3.5;low:3.6,high:3.6,high:3.5;low:3.6,high:3.6,high:3.5;low:3.6,high:3.6,-,-,-,-,-,-,-,-,-,-,-,-,-,-,-,-,-,-,-,-,-,-,-,-,-,-,-,-,-,-,-,-,-,-,-,-,-,-,-,-,-,-,-,-,-,-,-,-,-,-,-,-,-,-,-,-,-,-,-,-,-,-,-,-,-,-,-,-,-,-,-,-,-,-,-,-,-,-,-,-,-,-,-,-,-,-,-,-,-,-,-,-,-,-,-,-,-,-,-,-,-,-,-,-,-,-,-,-,-,-,-,-,-,-,-,-,-
GADM-KOR,-,-,-,-,-,-,-,-,high:5.2,high:5.2,high:5.2,-,-,-,-,-,-,-,-,-,-,-,-,-,-,-,high:3.3,high:3.1;low:3.2,high:3.3,high:3.1;low:3.2,high:3.3,high:3.1;low:3.2,-,-,-,-,-,-,-,-,-,-,-,-,-,-,-,-,-,-,-,-,-,-,-,-,-,-,-,-,-,-,-,-,-,-,-,-,-,-,-,-,-,-,-,-,-,-,-,-,-,-,-,-,-,-,-,-,-,-,-,-,-,-,-,-,-,-,-,-,-,-,-,-,-,-,-,-,-,-,-,-,-,-,-,-,-,-,-,-,-,-,-,-,-,-,-,-,-,-,-,-,-,-,-,-,-,-,-,-,-,-,-,-,-,-,-,-,-
GADM-SSD,-,-,-,-,-,-,-,-,high:3.7,high:3.7,high:3.7,-,-,-,-,-,-,-,-,-,-,-,-,-,-,-,high:3.5;low:3.6,high:3.6,high:3.5;low:3.6,high:3.6,high:3.5;low:3.6,high:3.6,-,-,-,-,-,-,-,-,-,-,-,-,-,-,-,-,-,-,-,-,-,-,-,-,-,-,-,-,-,-,-,-,-,-,-,-,-,-,-,-,-,-,-,-,-,-,-,-,-,-,-,-,-,-,-,-,-,-,-,-,-,-,-,-,-,-,-,-,-,-,-,-,-,-,-,-,-,-,-,-,-,-,-,-,-,-,-,-,-,-,-,-,-,-,-,-,-,-,-,-,-,-,-,-,-,-,-,-,-,-,-,-,-,-,-,-,-
GADM-ESP,-,-,-,-,-,-,-,-,high:4.6,high:4.6,high:4.6,-,-,-,-,-,-,-,-,-,-,-,-,-,-,-,high:3.6,high:3.2,high:3.6,high:3.2,high:3.6,high:3.2,-,-,-,-,-,-,-,-,-,-,-,-,-,-,-,-,-,-,-,-,-,-,-,-,-,-,-,-,-,-,-,-,-,-,-,-,-,-,-,-,-,-,-,-,-,-,-,-,-,-,-,-,-,-,-,-,-,-,-,-,-,-,-,-,-,-,-,-,-,-,-,-,-,-,-,-,-,-,-,-,-,-,-,-,-,-,-,-,-,-,-,-,-,-,-,-,-,-,-,-,-,-,-,-,-,-,-,-,-,-,-,-,-,-,-,-,-
GADM-LKA,-,-,-,-,-,-,-,-,high:3.5,high:3.5,high:3.5,-,-,-,-,-,-,-,-,-,-,-,-,-,-,-,high:3.6;low:3.7,high:3.6;low:3.7,high:3.6;low:3.7,high:3.6;low:3.7,high:3.6;low:3.7,high:3.6;low:3.7,-,-,-,-,-,-,-,-,-,-,-,-,-,-,-,-,-,-,-,-,-,-,-,-,-,-,-,-,-,-,-,-,-,-,-,-,-,-,-,-,-,-,-,-,-,-,-,-,-,-,-,-,-,-,-,-,-,-,-,-,-,-,-,-,-,-,-,-,-,-,-,-,-,-,-,-,-,-,-,-,-,-,-,-,-,-,-,-,-,-,-,-,-,-,-,-,-,-,-,-,-,-,-,-,-,-,-,-,-,-,-,-,-,-,-,-,-
GADM-SDN,-,-,-,-,-,-,-,-,high:3.7,high:3.7,high:3.7,-,-,-,-,-,-,-,-,-,-,-,-,-,-,-,high:3.5;low:3.6,high:3.6,high:3.5;low:3.6,high:3.6,high:3.5;low:3.6,high:3.6,-,-,-,-,-,-,-,-,-,-,-,-,-,-,-,-,-,-,-,-,-,-,-,-,-,-,-,-,-,-,-,-,-,-,-,-,-,-,-,-,-,-,-,-,-,-,-,-,-,-,-,-,-,-,-,-,-,-,-,-,-,-,-,-,-,-,-,-,-,-,-,-,-,-,-,-,-,-,-,-,-,-,-,-,-,-,-,-,-,-,-,-,-,-,-,-,-,-,-,-,-,-,-,-,-,-,-,-,-,-,-,-,-,-,-,-,-
GADM-SUR,-,-,-,-,-,-,-,-,high:4.3,high:4.3,high:4.3,-,-,-,-,-,-,-,-,-,-,-,-,-,-,-,high:3.2,high:3.1;low:3.2,high:3.2,high:3.1;low:3.2,high:3.2,high:3.1;low:3.2,-,-,-,-,-,-,-,-,-,-,-,-,-,-,-,-,-,-,-,-,-,-,-,-,-,-,-,-,-,-,-,-,-,-,-,-,-,-,-,-,-,-,-,-,-,-,-,-,-,-,-,-,-,-,-,-,-,-,-,-,-,-,-,-,-,-,-,-,-,-,-,-,-,-,-,-,-,-,-,-,-,-,-,-,-,-,-,-,-,-,-,-,-,-,-,-,-,-,-,-,-,-,-,-,-,-,-,-,-,-,-,-,-,-,-,-,-
GADM-SWZ,-,-,-,-,-,-,-,-,high:3.7,high:3.7,high:3.7,-,-,-,-,-,-,-,-,-,-,-,-,-,-,-,high:3.5;low:3.6,high:3.6,high:3.5;low:3.6,high:3.6,high:3.5;low:3.6,high:3.6,-,-,-,-,-,-,-,-,-,-,-,-,-,-,-,-,-,-,-,-,-,-,-,-,-,-,-,-,-,-,-,-,-,-,-,-,-,-,-,-,-,-,-,-,-,-,-,-,-,-,-,-,-,-,-,-,-,-,-,-,-,-,-,-,-,-,-,-,-,-,-,-,-,-,-,-,-,-,-,-,-,-,-,-,-,-,-,-,-,-,-,-,-,-,-,-,-,-,-,-,-,-,-,-,-,-,-,-,-,-,-,-,-,-,-,-,-
GADM-SWE,-,-,-,-,-,-,-,-,high:4.6,high:4.6,high:4.6,-,-,-,-,-,-,-,-,-,-,-,-,-,-,-,high:3.6,high:3.2,high:3.6,high:3.2,high:3.6,high:3.2,-,-,-,-,-,-,-,-,-,-,-,-,-,-,-,-,-,-,-,-,-,-,-,-,-,-,-,-,-,-,-,-,-,-,-,-,-,-,-,-,-,-,-,-,-,-,-,-,-,-,-,-,-,-,-,-,-,-,-,-,-,-,-,-,-,-,-,-,-,-,-,-,-,-,-,-,-,-,-,-,-,-,-,-,-,-,-,-,-,-,-,-,-,-,-,-,-,-,-,-,-,-,-,-,-,-,-,-,-,-,-,-,-,-,-,-,-
GADM-CHE,-,-,-,-,-,-,-,-,high:4.6,high:4.6,high:4.6,-,-,-,-,-,-,-,-,-,-,-,-,-,-,-,high:3.6,high:3.2,high:3.6,high:3.2,high:3.6,high:3.2,-,-,-,-,-,-,-,-,-,-,-,-,-,-,-,-,-,-,-,-,-,-,-,-,-,-,-,-,-,-,-,-,-,-,-,-,-,-,-,-,-,-,-,-,-,-,-,-,-,-,-,-,-,-,-,-,-,-,-,-,-,-,-,-,-,-,-,-,-,-,-,-,-,-,-,-,-,-,-,-,-,-,-,-,-,-,-,-,-,-,-,-,-,-,-,-,-,-,-,-,-,-,-,-,-,-,-,-,-,-,-,-,-,-,-,-,-
GADM-SYR,-,-,-,-,-,-,-,-,high:4.2,high:4.2,high:4.2,-,-,-,-,-,-,-,-,-,-,-,-,-,-,-,high:3.3;low:3.2,high:3.2;low:3.7,high:3.3;low:3.2,high:3.2;low:3.7,high:3.3;low:3.2,high:3.2;low:3.7,-,-,-,-,-,-,-,-,-,-,-,-,-,-,-,-,-,-,-,-,-,-,-,-,-,-,-,-,-,-,-,-,-,-,-,-,-,-,-,-,-,-,-,-,-,-,-,-,-,-,-,-,-,-,-,-,-,-,-,-,-,-,-,-,-,-,-,-,-,-,-,-,-,-,-,-,-,-,-,-,-,-,-,-,-,-,-,-,-,-,-,-,-,-,-,-,-,-,-,-,-,-,-,-,-,-,-,-,-,-,-,-,-,-,-,-,-
GADM-TWN,-,-,-,-,-,-,-,-,high:5.2,high:5.2,high:5.2,-,-,-,-,-,-,-,-,-,-,-,-,-,-,-,high:3.3,high:3.1;low:3.2,high:3.3,high:3.1;low:3.2,high:3.3,high:3.1;low:3.2,-,-,-,-,-,-,-,-,-,-,-,-,-,-,-,-,-,-,-,-,-,-,-,-,-,-,-,-,-,-,-,-,-,-,-,-,-,-,-,-,-,-,-,-,-,-,-,-,-,-,-,-,-,-,-,-,-,-,-,-,-,-,-,-,-,-,-,-,-,-,-,-,-,-,-,-,-,-,-,-,-,-,-,-,-,-,-,-,-,-,-,-,-,-,-,-,-,-,-,-,-,-,-,-,-,-,-,-,-,-,-,-,-,-,-,-,-
GADM-TJK,-,-,-,-,-,-,-,-,high:5.2,high:5.2,high:5.2,-,-,-,-,-,-,-,-,-,-,-,-,-,-,-,high:3.3,high:3.1;low:3.2,high:3.3,high:3.1;low:3.2,high:3.3,high:3.1;low:3.2,-,-,-,-,-,-,-,-,-,-,-,-,-,-,-,-,-,-,-,-,-,-,-,-,-,-,-,-,-,-,-,-,-,-,-,-,-,-,-,-,-,-,-,-,-,-,-,-,-,-,-,-,-,-,-,-,-,-,-,-,-,-,-,-,-,-,-,-,-,-,-,-,-,-,-,-,-,-,-,-,-,-,-,-,-,-,-,-,-,-,-,-,-,-,-,-,-,-,-,-,-,-,-,-,-,-,-,-,-,-,-,-,-,-,-,-,-
GADM-TZA,-,-,-,-,-,-,-,-,high:3.7,high:3.7,high:3.7,-,-,-,-,-,-,-,-,-,-,-,-,-,-,-,high:3.5;low:3.6,high:3.6,high:3.5;low:3.6,high:3.6,high:3.5;low:3.6,high:3.6,-,-,-,-,-,-,-,-,-,-,-,-,-,-,-,-,-,-,-,-,-,-,-,-,-,-,-,-,-,-,-,-,-,-,-,-,-,-,-,-,-,-,-,-,-,-,-,-,-,-,-,-,-,-,-,-,-,-,-,-,-,-,-,-,-,-,-,-,-,-,-,-,-,-,-,-,-,-,-,-,-,-,-,-,-,-,-,-,-,-,-,-,-,-,-,-,-,-,-,-,-,-,-,-,-,-,-,-,-,-,-,-,-,-,-,-,-
GADM-THA,-,-,-,-,-,-,-,-,high:5.2,high:5.2,high:5.2,-,-,-,-,-,-,-,-,-,-,-,-,-,-,-,high:3.3,high:3.1;low:3.2,high:3.3,high:3.1;low:3.2,high:3.3,high:3.1;low:3.2,-,-,-,-,-,-,-,-,-,-,-,-,-,-,-,-,-,-,-,-,-,-,-,-,-,-,-,-,-,-,-,-,-,-,-,-,-,-,-,-,-,-,-,-,-,-,-,-,-,-,-,-,-,-,-,-,-,-,-,-,-,-,-,-,-,-,-,-,-,-,-,-,-,-,-,-,-,-,-,-,-,-,-,-,-,-,-,-,-,-,-,-,-,-,-,-,-,-,-,-,-,-,-,-,-,-,-,-,-,-,-,-,-,-,-,-,-
GADM-TLS,-,-,-,-,-,-,-,-,high:5.2,high:5.2,high:5.2,-,-,-,-,-,-,-,-,-,-,-,-,-,-,-,high:3.3,high:3.1;low:3.2,high:3.3,high:3.1;low:3.2,high:3.3,high:3.1;low:3.2,-,-,-,-,-,-,-,-,-,-,-,-,-,-,-,-,-,-,-,-,-,-,-,-,-,-,-,-,-,-,-,-,-,-,-,-,-,-,-,-,-,-,-,-,-,-,-,-,-,-,-,-,-,-,-,-,-,-,-,-,-,-,-,-,-,-,-,-,-,-,-,-,-,-,-,-,-,-,-,-,-,-,-,-,-,-,-,-,-,-,-,-,-,-,-,-,-,-,-,-,-,-,-,-,-,-,-,-,-,-,-,-,-,-,-,-,-
GADM-TGO,-,-,-,-,-,-,-,-,high:3.7,high:3.7,high:3.7,-,-,-,-,-,-,-,-,-,-,-,-,-,-,-,high:3.5;low:3.6,high:3.6,high:3.5;low:3.6,high:3.6,high:3.5;low:3.6,high:3.6,-,-,-,-,-,-,-,-,-,-,-,-,-,-,-,-,-,-,-,-,-,-,-,-,-,-,-,-,-,-,-,-,-,-,-,-,-,-,-,-,-,-,-,-,-,-,-,-,-,-,-,-,-,-,-,-,-,-,-,-,-,-,-,-,-,-,-,-,-,-,-,-,-,-,-,-,-,-,-,-,-,-,-,-,-,-,-,-,-,-,-,-,-,-,-,-,-,-,-,-,-,-,-,-,-,-,-,-,-,-,-,-,-,-,-,-,-
GADM-TON,-,-,-,-,-,-,-,-,-,-,-,-,-,-,-,-,-,-,-,-,-,-,-,-,-,-,high:3.7,high:3.7,high:3.7,high:3.7,high:3.7,high:3.7,-,-,-,-,-,-,-,-,-,-,-,-,-,-,-,-,-,-,-,-,-,-,-,-,-,-,-,-,-,-,-,-,-,-,-,-,-,-,-,-,-,-,-,-,-,-,-,-,-,-,-,-,-,-,-,-,-,-,-,-,-,-,-,-,-,-,-,-,-,-,-,-,-,-,-,-,-,-,-,-,-,-,-,-,-,-,-,-,-,-,-,-,-,-,-,-,-,-,-,-,-,-,-,-,-,-,-,-,-,-,-,-,-,-,-,-,-
GADM-TTO,-,-,-,-,-,-,-,-,high:4.3,high:4.3,high:4.3,-,-,-,-,-,-,-,-,-,-,-,-,-,-,-,high:3.2,high:3.1;low:3.2,high:3.2,high:3.1;low:3.2,high:3.2,high:3.1;low:3.2,-,-,-,-,-,-,-,-,-,-,-,-,-,-,-,-,-,-,-,-,-,-,-,-,-,-,-,-,-,-,-,-,-,-,-,-,-,-,-,-,-,-,-,-,-,-,-,-,-,-,-,-,-,-,-,-,-,-,-,-,-,-,-,-,-,-,-,-,-,-,-,-,-,-,-,-,-,-,-,-,-,-,-,-,-,-,-,-,-,-,-,-,-,-,-,-,-,-,-,-,-,-,-,-,-,-,-,-,-,-,-,-,-,-,-,-,-
GADM-TUN,-,-,-,-,-,-,-,-,high:3.7,high:3.7,high:3.7,-,-,-,-,-,-,-,-,-,-,-,-,-,-,-,high:3.5;low:3.6,high:3.6,high:3.5;low:3.6,high:3.6,high:3.5;low:3.6,high:3.6,-,-,-,-,-,-,-,-,-,-,-,-,-,-,-,-,-,-,-,-,-,-,-,-,-,-,-,-,-,-,-,-,-,-,-,-,-,-,-,-,-,-,-,-,-,-,-,-,-,-,-,-,-,-,-,-,-,-,-,-,-,-,-,-,-,-,-,-,-,-,-,-,-,-,-,-,-,-,-,-,-,-,-,-,-,-,-,-,-,-,-,-,-,-,-,-,-,-,-,-,-,-,-,-,-,-,-,-,-,-,-,-,-,-,-,-,-
GADM-TUR,-,-,-,-,-,-,-,-,high:4.2,high:4.2,high:4.2,-,-,-,-,-,-,-,-,-,-,-,-,-,-,-,high:3.3;low:3.2,high:3.2;low:3.7,high:3.3;low:3.2,high:3.2;low:3.7,high:3.3;low:3.2,high:3.2;low:3.7,-,-,-,-,-,-,-,-,-,-,-,-,-,-,-,-,-,-,-,-,-,-,-,-,-,-,-,-,-,-,-,-,-,-,-,-,-,-,-,-,-,-,-,-,-,-,-,-,-,-,-,-,-,-,-,-,-,-,-,-,-,-,-,-,-,-,-,-,-,-,-,-,-,-,-,-,-,-,-,-,-,-,-,-,-,-,-,-,-,-,-,-,-,-,-,-,-,-,-,-,-,-,-,-,-,-,-,-,-,-,-,-,-,-,-,-,-
GADM-TKM,-,-,-,-,-,-,-,-,high:5.2,high:5.2,high:5.2,-,-,-,-,-,-,-,-,-,-,-,-,-,-,-,high:3.3,high:3.1;low:3.2,high:3.3,high:3.1;low:3.2,high:3.3,high:3.1;low:3.2,-,-,-,-,-,-,-,-,-,-,-,-,-,-,-,-,-,-,-,-,-,-,-,-,-,-,-,-,-,-,-,-,-,-,-,-,-,-,-,-,-,-,-,-,-,-,-,-,-,-,-,-,-,-,-,-,-,-,-,-,-,-,-,-,-,-,-,-,-,-,-,-,-,-,-,-,-,-,-,-,-,-,-,-,-,-,-,-,-,-,-,-,-,-,-,-,-,-,-,-,-,-,-,-,-,-,-,-,-,-,-,-,-,-,-,-,-
GADM-TUV,-,-,-,-,-,-,-,-,-,-,-,-,-,-,-,-,-,-,-,-,-,-,-,-,-,-,high:3.7,high:3.7,high:3.7,high:3.7,high:3.7,high:3.7,-,-,-,-,-,-,-,-,-,-,-,-,-,-,-,-,-,-,-,-,-,-,-,-,-,-,-,-,-,-,-,-,-,-,-,-,-,-,-,-,-,-,-,-,-,-,-,-,-,-,-,-,-,-,-,-,-,-,-,-,-,-,-,-,-,-,-,-,-,-,-,-,-,-,-,-,-,-,-,-,-,-,-,-,-,-,-,-,-,-,-,-,-,-,-,-,-,-,-,-,-,-,-,-,-,-,-,-,-,-,-,-,-,-,-,-,-
GADM-UGA,-,-,-,-,-,-,-,-,high:3.7,high:3.7,high:3.7,-,-,-,-,-,-,-,-,-,-,-,-,-,-,-,high:3.5;low:3.6,high:3.6,high:3.5;low:3.6,high:3.6,high:3.5;low:3.6,high:3.6,-,-,-,-,-,-,-,-,-,-,-,-,-,-,-,-,-,-,-,-,-,-,-,-,-,-,-,-,-,-,-,-,-,-,-,-,-,-,-,-,-,-,-,-,-,-,-,-,-,-,-,-,-,-,-,-,-,-,-,-,-,-,-,-,-,-,-,-,-,-,-,-,-,-,-,-,-,-,-,-,-,-,-,-,-,-,-,-,-,-,-,-,-,-,-,-,-,-,-,-,-,-,-,-,-,-,-,-,-,-,-,-,-,-,-,-,-
GADM-UKR,-,-,-,-,-,-,-,-,high:4.3,high:4.3,high:4.3,-,-,-,-,-,-,-,-,-,-,-,-,-,-,-,high:3.7,high:3.2,high:3.7,high:3.2,high:3.7,high:3.2,-,-,-,-,-,-,-,-,-,-,-,-,-,-,-,-,-,-,-,-,-,-,-,-,-,-,-,-,-,-,-,-,-,-,-,-,-,-,-,-,-,-,-,-,-,-,-,-,-,-,-,-,-,-,-,-,-,-,-,-,-,-,-,-,-,-,-,-,-,-,-,-,-,-,-,-,-,-,-,-,-,-,-,-,-,-,-,-,-,-,-,-,-,-,-,-,-,-,-,-,-,-,-,-,-,-,-,-,-,-,-,-,-,-,-,-,-
GADM-ARE,-,-,-,-,-,-,-,-,high:4.2,high:4.2,high:4.2,-,-,-,-,-,-,-,-,-,-,-,-,-,-,-,high:3.3;low:3.2,high:3.2;low:3.7,high:3.3;low:3.2,high:3.2;low:3.7,high:3.3;low:3.2,high:3.2;low:3.7,-,-,-,-,-,-,-,-,-,-,-,-,-,-,-,-,-,-,-,-,-,-,-,-,-,-,-,-,-,-,-,-,-,-,-,-,-,-,-,-,-,-,-,-,-,-,-,-,-,-,-,-,-,-,-,-,-,-,-,-,-,-,-,-,-,-,-,-,-,-,-,-,-,-,-,-,-,-,-,-,-,-,-,-,-,-,-,-,-,-,-,-,-,-,-,-,-,-,-,-,-,-,-,-,-,-,-,-,-,-,-,-,-,-,-,-,-
GADM-GBR,-,-,-,-,-,-,-,-,high:4.6,high:4.6,high:4.6,-,-,-,-,-,-,-,-,-,-,-,-,-,-,-,high:3.6,high:3.2,high:3.6,high:3.2,high:3.6,high:3.2,-,-,-,-,-,-,-,-,-,-,-,-,-,-,-,-,-,-,-,-,-,-,-,-,-,-,-,-,-,-,-,-,-,-,-,-,-,-,-,-,-,-,-,-,-,-,-,-,-,-,-,-,-,-,-,-,-,-,-,-,-,-,-,-,-,-,-,-,-,-,-,-,-,-,-,-,-,-,-,-,-,-,-,-,-,-,-,-,-,-,-,-,-,-,-,-,-,-,-,-,-,-,-,-,-,-,-,-,-,-,-,-,-,-,-,-,-
GADM-USA,-,-,-,-,-,-,-,-,-,-,-,-,-,-,-,-,-,-,-,-,-,-,-,-,-,-,high:3.5,high:3.2,high:3.5,high:3.2,high:3.5,high:3.2,-,-,-,-,-,-,-,-,-,-,-,-,-,-,-,-,-,-,-,-,-,-,-,-,-,-,-,-,-,-,-,-,-,-,-,-,-,-,-,-,-,-,-,-,-,-,-,-,-,-,-,-,-,-,-,-,-,-,-,-,-,-,-,-,-,-,-,-,-,-,-,-,-,-,-,-,-,-,-,-,-,-,-,-,-,-,-,-,-,-,-,-,-,-,-,-,-,-,-,-,-,-,-,-,-,-,-,-,-,-,-,-,-,-,-,-,-
GADM-URY,-,-,-,-,-,-,-,-,high:4.3,high:4.3,high:4.3,-,-,-,-,-,-,-,-,-,-,-,-,-,-,-,high:3.2,high:3.1;low:3.2,high:3.2,high:3.1;low:3.2,high:3.2,high:3.1;low:3.2,-,-,-,-,-,-,-,-,-,-,-,-,-,-,-,-,-,-,-,-,-,-,-,-,-,-,-,-,-,-,-,-,-,-,-,-,-,-,-,-,-,-,-,-,-,-,-,-,-,-,-,-,-,-,-,-,-,-,-,-,-,-,-,-,-,-,-,-,-,-,-,-,-,-,-,-,-,-,-,-,-,-,-,-,-,-,-,-,-,-,-,-,-,-,-,-,-,-,-,-,-,-,-,-,-,-,-,-,-,-,-,-,-,-,-,-,-
GADM-UZB,-,-,-,-,-,-,-,-,high:5.2,high:5.2,high:5.2,-,-,-,-,-,-,-,-,-,-,-,-,-,-,-,high:3.3,high:3.1;low:3.2,high:3.3,high:3.1;low:3.2,high:3.3,high:3.1;low:3.2,-,-,-,-,-,-,-,-,-,-,-,-,-,-,-,-,-,-,-,-,-,-,-,-,-,-,-,-,-,-,-,-,-,-,-,-,-,-,-,-,-,-,-,-,-,-,-,-,-,-,-,-,-,-,-,-,-,-,-,-,-,-,-,-,-,-,-,-,-,-,-,-,-,-,-,-,-,-,-,-,-,-,-,-,-,-,-,-,-,-,-,-,-,-,-,-,-,-,-,-,-,-,-,-,-,-,-,-,-,-,-,-,-,-,-,-,-
GADM-VUT,-,-,-,-,-,-,-,-,-,-,-,-,-,-,-,-,-,-,-,-,-,-,-,-,-,-,high:3.7,high:3.7,high:3.7,high:3.7,high:3.7,high:3.7,-,-,-,-,-,-,-,-,-,-,-,-,-,-,-,-,-,-,-,-,-,-,-,-,-,-,-,-,-,-,-,-,-,-,-,-,-,-,-,-,-,-,-,-,-,-,-,-,-,-,-,-,-,-,-,-,-,-,-,-,-,-,-,-,-,-,-,-,-,-,-,-,-,-,-,-,-,-,-,-,-,-,-,-,-,-,-,-,-,-,-,-,-,-,-,-,-,-,-,-,-,-,-,-,-,-,-,-,-,-,-,-,-,-,-,-,-
GADM-VAT,-,-,-,-,-,-,-,-,high:4.6,high:4.6,high:4.6,-,-,-,-,-,-,-,-,-,-,-,-,-,-,-,high:3.6,high:3.2,high:3.6,high:3.2,high:3.6,high:3.2,-,-,-,-,-,-,-,-,-,-,-,-,-,-,-,-,-,-,-,-,-,-,-,-,-,-,-,-,-,-,-,-,-,-,-,-,-,-,-,-,-,-,-,-,-,-,-,-,-,-,-,-,-,-,-,-,-,-,-,-,-,-,-,-,-,-,-,-,-,-,-,-,-,-,-,-,-,-,-,-,-,-,-,-,-,-,-,-,-,-,-,-,-,-,-,-,-,-,-,-,-,-,-,-,-,-,-,-,-,-,-,-,-,-,-,-,-
GADM-VEN,-,-,-,-,-,-,-,-,high:4.3,high:4.3,high:4.3,-,-,-,-,-,-,-,-,-,-,-,-,-,-,-,high:3.2,high:3.1;low:3.2,high:3.2,high:3.1;low:3.2,high:3.2,high:3.1;low:3.2,-,-,-,-,-,-,-,-,-,-,-,-,-,-,-,-,-,-,-,-,-,-,-,-,-,-,-,-,-,-,-,-,-,-,-,-,-,-,-,-,-,-,-,-,-,-,-,-,-,-,-,-,-,-,-,-,-,-,-,-,-,-,-,-,-,-,-,-,-,-,-,-,-,-,-,-,-,-,-,-,-,-,-,-,-,-,-,-,-,-,-,-,-,-,-,-,-,-,-,-,-,-,-,-,-,-,-,-,-,-,-,-,-,-,-,-,-
GADM-VNM,-,-,-,-,-,-,-,-,high:5.2,high:5.2,high:5.2,-,-,-,-,-,-,-,-,-,-,-,-,-,-,-,high:3.3,high:3.1;low:3.2,high:3.3,high:3.1;low:3.2,high:3.3,high:3.1;low:3.2,-,-,-,-,-,-,-,-,-,-,-,-,-,-,-,-,-,-,-,-,-,-,-,-,-,-,-,-,-,-,-,-,-,-,-,-,-,-,-,-,-,-,-,-,-,-,-,-,-,-,-,-,-,-,-,-,-,-,-,-,-,-,-,-,-,-,-,-,-,-,-,-,-,-,-,-,-,-,-,-,-,-,-,-,-,-,-,-,-,-,-,-,-,-,-,-,-,-,-,-,-,-,-,-,-,-,-,-,-,-,-,-,-,-,-,-,-
GADM-YEM,-,-,-,-,-,-,-,-,high:4.2,high:4.2,high:4.2,-,-,-,-,-,-,-,-,-,-,-,-,-,-,-,high:3.3;low:3.2,high:3.2;low:3.7,high:3.3;low:3.2,high:3.2;low:3.7,high:3.3;low:3.2,high:3.2;low:3.7,-,-,-,-,-,-,-,-,-,-,-,-,-,-,-,-,-,-,-,-,-,-,-,-,-,-,-,-,-,-,-,-,-,-,-,-,-,-,-,-,-,-,-,-,-,-,-,-,-,-,-,-,-,-,-,-,-,-,-,-,-,-,-,-,-,-,-,-,-,-,-,-,-,-,-,-,-,-,-,-,-,-,-,-,-,-,-,-,-,-,-,-,-,-,-,-,-,-,-,-,-,-,-,-,-,-,-,-,-,-,-,-,-,-,-,-,-
GADM-ZMB,-,-,-,-,-,-,-,-,high:3.7,high:3.7,high:3.7,-,-,-,-,-,-,-,-,-,-,-,-,-,-,-,high:3.5;low:3.6,high:3.6,high:3.5;low:3.6,high:3.6,high:3.5;low:3.6,high:3.6,-,-,-,-,-,-,-,-,-,-,-,-,-,-,-,-,-,-,-,-,-,-,-,-,-,-,-,-,-,-,-,-,-,-,-,-,-,-,-,-,-,-,-,-,-,-,-,-,-,-,-,-,-,-,-,-,-,-,-,-,-,-,-,-,-,-,-,-,-,-,-,-,-,-,-,-,-,-,-,-,-,-,-,-,-,-,-,-,-,-,-,-,-,-,-,-,-,-,-,-,-,-,-,-,-,-,-,-,-,-,-,-,-,-,-,-,-
GADM-ZWE,-,-,-,-,-,-,-,-,high:3.7,high:3.7,high:3.7,-,-,-,-,-,-,-,-,-,-,-,-,-,-,-,high:3.5;low:3.6,high:3.6,high:3.5;low:3.6,high:3.6,high:3.5;low:3.6,high:3.6,-,-,-,-,-,-,-,-,-,-,-,-,-,-,-,-,-,-,-,-,-,-,-,-,-,-,-,-,-,-,-,-,-,-,-,-,-,-,-,-,-,-,-,-,-,-,-,-,-,-,-,-,-,-,-,-,-,-,-,-,-,-,-,-,-,-,-,-,-,-,-,-,-,-,-,-,-,-,-,-,-,-,-,-,-,-,-,-,-,-,-,-,-,-,-,-,-,-,-,-,-,-,-,-,-,-,-,-,-,-,-,-,-,-,-,-,-
region-southern-asia,-,-,-,-,-,-,-,-,high:3.5,high:3.5,high:3.5,-,-,-,-,-,-,-,-,-,-,-,-,-,-,-,high:3.6;low:3.7,high:3.6;low:3.7,high:3.6;low:3.7,high:3.6;low:3.7,high:3.6;low:3.7,high:3.6;low:3.7,-,-,-,-,-,-,-,-,-,-,-,-,-,-,-,-,-,-,-,-,-,-,-,-,-,-,-,-,-,-,-,-,-,-,-,-,-,-,-,-,-,-,-,-,-,-,-,-,-,-,-,-,-,-,-,-,-,-,-,-,-,-,-,-,-,-,-,-,-,-,-,-,-,-,-,-,-,-,-,-,-,-,-,-,-,-,-,-,-,-,-,-,-,-,-,-,-,-,-,-,-,-,-,-,-,-,-,-,-,-,-,-,-,-,-,-,-
region-southern-europe,-,-,-,-,-,-,-,-,high:4.3,high:4.3,high:4.3,-,-,-,-,-,-,-,-,-,-,-,-,-,-,-,high:3.7,high:3.2,high:3.7,high:3.2,high:3.7,high:3.2,-,-,-,-,-,-,-,-,-,-,-,-,-,-,-,-,-,-,-,-,-,-,-,-,-,-,-,-,-,-,-,-,-,-,-,-,-,-,-,-,-,-,-,-,-,-,-,-,-,-,-,-,-,-,-,-,-,-,-,-,-,-,-,-,-,-,-,-,-,-,-,-,-,-,-,-,-,-,-,-,-,-,-,-,-,-,-,-,-,-,-,-,-,-,-,-,-,-,-,-,-,-,-,-,-,-,-,-,-,-,-,-,-,-,-,-,-
region-northern-africa,-,-,-,-,-,-,-,-,high:3.7,high:3.7,high:3.7,-,-,-,-,-,-,-,-,-,-,-,-,-,-,-,high:3.5;low:3.6,high:3.6,high:3.5;low:3.6,high:3.6,high:3.5;low:3.6,high:3.6,-,-,-,-,-,-,-,-,-,-,-,-,-,-,-,-,-,-,-,-,-,-,-,-,-,-,-,-,-,-,-,-,-,-,-,-,-,-,-,-,-,-,-,-,-,-,-,-,-,-,-,-,-,-,-,-,-,-,-,-,-,-,-,-,-,-,-,-,-,-,-,-,-,-,-,-,-,-,-,-,-,-,-,-,-,-,-,-,-,-,-,-,-,-,-,-,-,-,-,-,-,-,-,-,-,-,-,-,-,-,-,-,-,-,-,-,-
region-middle-africa,-,-,-,-,-,-,-,-,high:3.7,high:3.7,high:3.7,-,-,-,-,-,-,-,-,-,-,-,-,-,-,-,high:3.5;low:3.6,high:3.6,high:3.5;low:3.6,high:3.6,high:3.5;low:3.6,high:3.6,-,-,-,-,-,-,-,-,-,-,-,-,-,-,-,-,-,-,-,-,-,-,-,-,-,-,-,-,-,-,-,-,-,-,-,-,-,-,-,-,-,-,-,-,-,-,-,-,-,-,-,-,-,-,-,-,-,-,-,-,-,-,-,-,-,-,-,-,-,-,-,-,-,-,-,-,-,-,-,-,-,-,-,-,-,-,-,-,-,-,-,-,-,-,-,-,-,-,-,-,-,-,-,-,-,-,-,-,-,-,-,-,-,-,-,-,-
region-caribbean,-,-,-,-,-,-,-,-,high:4.3,high:4.3,high:4.3,-,-,-,-,-,-,-,-,-,-,-,-,-,-,-,high:3.2,high:3.1;low:3.2,high:3.2,high:3.1;low:3.2,high:3.2,high:3.1;low:3.2,-,-,-,-,-,-,-,-,-,-,-,-,-,-,-,-,-,-,-,-,-,-,-,-,-,-,-,-,-,-,-,-,-,-,-,-,-,-,-,-,-,-,-,-,-,-,-,-,-,-,-,-,-,-,-,-,-,-,-,-,-,-,-,-,-,-,-,-,-,-,-,-,-,-,-,-,-,-,-,-,-,-,-,-,-,-,-,-,-,-,-,-,-,-,-,-,-,-,-,-,-,-,-,-,-,-,-,-,-,-,-,-,-,-,-,-,-
region-south-america,-,-,-,-,-,-,-,-,high:4.3,high:4.3,high:4.3,-,-,-,-,-,-,-,-,-,-,-,-,-,-,-,high:3.2,high:3.1;low:3.2,high:3.2,high:3.1;low:3.2,high:3.2,high:3.1;low:3.2,-,-,-,-,-,-,-,-,-,-,-,-,-,-,-,-,-,-,-,-,-,-,-,-,-,-,-,-,-,-,-,-,-,-,-,-,-,-,-,-,-,-,-,-,-,-,-,-,-,-,-,-,-,-,-,-,-,-,-,-,-,-,-,-,-,-,-,-,-,-,-,-,-,-,-,-,-,-,-,-,-,-,-,-,-,-,-,-,-,-,-,-,-,-,-,-,-,-,-,-,-,-,-,-,-,-,-,-,-,-,-,-,-,-,-,-,-
region-western-asia,-,-,-,-,-,-,-,-,high:4.2,high:4.2,high:4.2,-,-,-,-,-,-,-,-,-,-,-,-,-,-,-,high:3.3;low:3.2,high:3.2;low:3.7,high:3.3;low:3.2,high:3.2;low:3.7,high:3.3;low:3.2,high:3.2;low:3.7,-,-,-,-,-,-,-,-,-,-,-,-,-,-,-,-,-,-,-,-,-,-,-,-,-,-,-,-,-,-,-,-,-,-,-,-,-,-,-,-,-,-,-,-,-,-,-,-,-,-,-,-,-,-,-,-,-,-,-,-,-,-,-,-,-,-,-,-,-,-,-,-,-,-,-,-,-,-,-,-,-,-,-,-,-,-,-,-,-,-,-,-,-,-,-,-,-,-,-,-,-,-,-,-,-,-,-,-,-,-,-,-,-,-,-,-,-
region-aus-nzl,-,-,-,-,-,-,-,-,-,-,-,-,-,-,-,-,-,-,-,-,-,-,-,-,-,-,high:3.7,high:3.7,high:3.7,high:3.7,high:3.7,high:3.7,-,-,-,-,-,-,-,-,-,-,-,-,-,-,-,-,-,-,-,-,-,-,-,-,-,-,-,-,-,-,-,-,-,-,-,-,-,-,-,-,-,-,-,-,-,-,-,-,-,-,-,-,-,-,-,-,-,-,-,-,-,-,-,-,-,-,-,-,-,-,-,-,-,-,-,-,-,-,-,-,-,-,-,-,-,-,-,-,-,-,-,-,-,-,-,-,-,-,-,-,-,-,-,-,-,-,-,-,-,-,-,-,-,-,-,-,-
region-western-europe,-,-,-,-,-,-,-,-,high:4.6,high:4.6,high:4.6,-,-,-,-,-,-,-,-,-,-,-,-,-,-,-,high:3.6,high:3.2,high:3.6,high:3.2,high:3.6,high:3.2,-,-,-,-,-,-,-,-,-,-,-,-,-,-,-,-,-,-,-,-,-,-,-,-,-,-,-,-,-,-,-,-,-,-,-,-,-,-,-,-,-,-,-,-,-,-,-,-,-,-,-,-,-,-,-,-,-,-,-,-,-,-,-,-,-,-,-,-,-,-,-,-,-,-,-,-,-,-,-,-,-,-,-,-,-,-,-,-,-,-,-,-,-,-,-,-,-,-,-,-,-,-,-,-,-,-,-,-,-,-,-,-,-,-,-,-,-
region-eastern-europe,-,-,-,-,-,-,-,-,high:4.3,high:4.3,high:4.3,-,-,-,-,-,-,-,-,-,-,-,-,-,-,-,high:3.7,high:3.2,high:3.7,high:3.2,high:3.7,high:3.2,-,-,-,-,-,-,-,-,-,-,-,-,-,-,-,-,-,-,-,-,-,-,-,-,-,-,-,-,-,-,-,-,-,-,-,-,-,-,-,-,-,-,-,-,-,-,-,-,-,-,-,-,-,-,-,-,-,-,-,-,-,-,-,-,-,-,-,-,-,-,-,-,-,-,-,-,-,-,-,-,-,-,-,-,-,-,-,-,-,-,-,-,-,-,-,-,-,-,-,-,-,-,-,-,-,-,-,-,-,-,-,-,-,-,-,-,-
region-central-america,-,-,-,-,-,-,-,-,high:4.3,high:4.3,high:4.3,-,-,-,-,-,-,-,-,-,-,-,-,-,-,-,high:3.2,high:3.1;low:3.2,high:3.2,high:3.1;low:3.2,high:3.2,high:3.1;low:3.2,-,-,-,-,-,-,-,-,-,-,-,-,-,-,-,-,-,-,-,-,-,-,-,-,-,-,-,-,-,-,-,-,-,-,-,-,-,-,-,-,-,-,-,-,-,-,-,-,-,-,-,-,-,-,-,-,-,-,-,-,-,-,-,-,-,-,-,-,-,-,-,-,-,-,-,-,-,-,-,-,-,-,-,-,-,-,-,-,-,-,-,-,-,-,-,-,-,-,-,-,-,-,-,-,-,-,-,-,-,-,-,-,-,-,-,-,-
region-western-africa,-,-,-,-,-,-,-,-,high:3.7,high:3.7,high:3.7,-,-,-,-,-,-,-,-,-,-,-,-,-,-,-,high:3.5;low:3.6,high:3.6,high:3.5;low:3.6,high:3.6,high:3.5;low:3.6,high:3.6,-,-,-,-,-,-,-,-,-,-,-,-,-,-,-,-,-,-,-,-,-,-,-,-,-,-,-,-,-,-,-,-,-,-,-,-,-,-,-,-,-,-,-,-,-,-,-,-,-,-,-,-,-,-,-,-,-,-,-,-,-,-,-,-,-,-,-,-,-,-,-,-,-,-,-,-,-,-,-,-,-,-,-,-,-,-,-,-,-,-,-,-,-,-,-,-,-,-,-,-,-,-,-,-,-,-,-,-,-,-,-,-,-,-,-,-,-
region-southern-africa,-,-,-,-,-,-,-,-,high:3.7,high:3.7,high:3.7,-,-,-,-,-,-,-,-,-,-,-,-,-,-,-,high:3.5;low:3.6,high:3.6,high:3.5;low:3.6,high:3.6,high:3.5;low:3.6,high:3.6,-,-,-,-,-,-,-,-,-,-,-,-,-,-,-,-,-,-,-,-,-,-,-,-,-,-,-,-,-,-,-,-,-,-,-,-,-,-,-,-,-,-,-,-,-,-,-,-,-,-,-,-,-,-,-,-,-,-,-,-,-,-,-,-,-,-,-,-,-,-,-,-,-,-,-,-,-,-,-,-,-,-,-,-,-,-,-,-,-,-,-,-,-,-,-,-,-,-,-,-,-,-,-,-,-,-,-,-,-,-,-,-,-,-,-,-,-
region-south-eastern-asia,-,-,-,-,-,-,-,-,high:5.2,high:5.2,high:5.2,-,-,-,-,-,-,-,-,-,-,-,-,-,-,-,high:3.3,high:3.1;low:3.2,high:3.3,high:3.1;low:3.2,high:3.3,high:3.1;low:3.2,-,-,-,-,-,-,-,-,-,-,-,-,-,-,-,-,-,-,-,-,-,-,-,-,-,-,-,-,-,-,-,-,-,-,-,-,-,-,-,-,-,-,-,-,-,-,-,-,-,-,-,-,-,-,-,-,-,-,-,-,-,-,-,-,-,-,-,-,-,-,-,-,-,-,-,-,-,-,-,-,-,-,-,-,-,-,-,-,-,-,-,-,-,-,-,-,-,-,-,-,-,-,-,-,-,-,-,-,-,-,-,-,-,-,-,-,-
region-eastern-africa,-,-,-,-,-,-,-,-,high:3.7,high:3.7,high:3.7,-,-,-,-,-,-,-,-,-,-,-,-,-,-,-,high:3.5;low:3.6,high:3.6,high:3.5;low:3.6,high:3.6,high:3.5;low:3.6,high:3.6,-,-,-,-,-,-,-,-,-,-,-,-,-,-,-,-,-,-,-,-,-,-,-,-,-,-,-,-,-,-,-,-,-,-,-,-,-,-,-,-,-,-,-,-,-,-,-,-,-,-,-,-,-,-,-,-,-,-,-,-,-,-,-,-,-,-,-,-,-,-,-,-,-,-,-,-,-,-,-,-,-,-,-,-,-,-,-,-,-,-,-,-,-,-,-,-,-,-,-,-,-,-,-,-,-,-,-,-,-,-,-,-,-,-,-,-,-
region-northern-america,-,-,-,-,-,-,-,-,-,-,-,-,-,-,-,-,-,-,-,-,-,-,-,-,-,-,high:3.5,high:3.2,high:3.5,high:3.2,high:3.5,high:3.2,-,-,-,-,-,-,-,-,-,-,-,-,-,-,-,-,-,-,-,-,-,-,-,-,-,-,-,-,-,-,-,-,-,-,-,-,-,-,-,-,-,-,-,-,-,-,-,-,-,-,-,-,-,-,-,-,-,-,-,-,-,-,-,-,-,-,-,-,-,-,-,-,-,-,-,-,-,-,-,-,-,-,-,-,-,-,-,-,-,-,-,-,-,-,-,-,-,-,-,-,-,-,-,-,-,-,-,-,-,-,-,-,-,-,-,-,-
region-eastern-asia,-,-,-,-,-,-,-,-,high:5.2,high:5.2,high:5.2,-,-,-,-,-,-,-,-,-,-,-,-,-,-,-,high:3.3,high:3.1;low:3.2,high:3.3,high:3.1;low:3.2,high:3.3,high:3.1;low:3.2,-,-,-,-,-,-,-,-,-,-,-,-,-,-,-,-,-,-,-,-,-,-,-,-,-,-,-,-,-,-,-,-,-,-,-,-,-,-,-,-,-,-,-,-,-,-,-,-,-,-,-,-,-,-,-,-,-,-,-,-,-,-,-,-,-,-,-,-,-,-,-,-,-,-,-,-,-,-,-,-,-,-,-,-,-,-,-,-,-,-,-,-,-,-,-,-,-,-,-,-,-,-,-,-,-,-,-,-,-,-,-,-,-,-,-,-,-
region-northern-europe,-,-,-,-,-,-,-,-,high:4.6,high:4.6,high:4.6,-,-,-,-,-,-,-,-,-,-,-,-,-,-,-,high:3.6,high:3.2,high:3.6,high:3.2,high:3.6,high:3.2,-,-,-,-,-,-,-,-,-,-,-,-,-,-,-,-,-,-,-,-,-,-,-,-,-,-,-,-,-,-,-,-,-,-,-,-,-,-,-,-,-,-,-,-,-,-,-,-,-,-,-,-,-,-,-,-,-,-,-,-,-,-,-,-,-,-,-,-,-,-,-,-,-,-,-,-,-,-,-,-,-,-,-,-,-,-,-,-,-,-,-,-,-,-,-,-,-,-,-,-,-,-,-,-,-,-,-,-,-,-,-,-,-,-,-,-,-
region-oceania,-,-,-,-,-,-,-,-,-,-,-,-,-,-,-,-,-,-,-,-,-,-,-,-,-,-,high:3.7,high:3.7,high:3.7,high:3.7,high:3.7,high:3.7,-,-,-,-,-,-,-,-,-,-,-,-,-,-,-,-,-,-,-,-,-,-,-,-,-,-,-,-,-,-,-,-,-,-,-,-,-,-,-,-,-,-,-,-,-,-,-,-,-,-,-,-,-,-,-,-,-,-,-,-,-,-,-,-,-,-,-,-,-,-,-,-,-,-,-,-,-,-,-,-,-,-,-,-,-,-,-,-,-,-,-,-,-,-,-,-,-,-,-,-,-,-,-,-,-,-,-,-,-,-,-,-,-,-,-,-,-
region-central-asia,-,-,-,-,-,-,-,-,high:5.2,high:5.2,high:5.2,-,-,-,-,-,-,-,-,-,-,-,-,-,-,-,high:3.3,high:3.1;low:3.2,high:3.3,high:3.1;low:3.2,high:3.3,high:3.1;low:3.2,-,-,-,-,-,-,-,-,-,-,-,-,-,-,-,-,-,-,-,-,-,-,-,-,-,-,-,-,-,-,-,-,-,-,-,-,-,-,-,-,-,-,-,-,-,-,-,-,-,-,-,-,-,-,-,-,-,-,-,-,-,-,-,-,-,-,-,-,-,-,-,-,-,-,-,-,-,-,-,-,-,-,-,-,-,-,-,-,-,-,-,-,-,-,-,-,-,-,-,-,-,-,-,-,-,-,-,-,-,-,-,-,-,-,-,-,-
